Praktischer Teil/Verilog/PMOD_Display/src/tb_LED_controller.vcd
$date
	Sun Jan 11 15:38:48 2026
$end
$version
	Icarus Verilog
$end
$timescale
	1ps
$end
$scope module tb_LED_controller $end
$var wire 5 ! row_addr [4:0] $end
$var wire 1 " oe $end
$var wire 1 # latch $end
$var wire 4 $ dout_b [3:0] $end
$var wire 4 % dout_a [3:0] $end
$var wire 1 & display_clk $end
$var wire 6 ' col_addr [5:0] $end
$var parameter 32 ( CLOCK_PERIOD $end
$var parameter 32 ) CYCLETIME $end
$var reg 1 * clk $end
$var reg 1 + rst $end
$scope module dut $end
$var wire 1 * clk $end
$var wire 1 + rst $end
$var wire 5 , row_addr [4:0] $end
$var wire 1 - re $end
$var wire 1 " oe $end
$var wire 1 # latch $end
$var wire 4 . dout_b [3:0] $end
$var wire 4 / dout_a [3:0] $end
$var wire 1 & display_clk $end
$var wire 6 0 col_addr [5:0] $end
$scope module fb_inst $end
$var wire 1 1 ce $end
$var wire 1 * clk $end
$var wire 4 2 din [3:0] $end
$var wire 12 3 raddr_a [11:0] $end
$var wire 12 4 raddr_b [11:0] $end
$var wire 1 + rst $end
$var wire 12 5 waddr [11:0] $end
$var wire 1 6 we $end
$var wire 1 - re $end
$var reg 4 7 dout_a [3:0] $end
$var reg 4 8 dout_b [3:0] $end
$upscope $end
$scope module led_inst $end
$var wire 1 * clk $end
$var wire 1 + rst $end
$var parameter 32 9 COLUMNS $end
$var parameter 32 : HEIGHT $end
$var parameter 32 ; ROWS $end
$var parameter 32 < WIDTH $end
$var reg 6 = col_addr [5:0] $end
$var reg 3 > con_state [2:0] $end
$var reg 1 & display_clk $end
$var reg 1 # latch $end
$var reg 1 " oe $end
$var reg 1 - re $end
$var reg 5 ? row_addr [4:0] $end
$upscope $end
$upscope $end
$upscope $end
$enddefinitions $end
$comment Show the parameter values. $end
$dumpall
b1000000 <
b100000 ;
b1000000 :
b1000000 9
b11001 )
b110010 (
$end
#0
$dumpvars
b0 ?
b0 >
b0 =
b0 8
b0 7
06
b0 5
b100000000000 4
b0 3
b0 2
11
b0 0
b0 /
b0 .
0-
b0 ,
1+
0*
b0 '
0&
b0 %
b0 $
0#
1"
b0 !
$end
#50000
0+
1*
#100000
0"
1-
b1 >
0*
#150000
b1 $
b1 .
b1 8
b1 %
b1 /
b1 7
1*
#200000
b10 >
1&
0*
#250000
1*
#300000
b100000000001 4
b1 3
b1 '
b1 0
b1 =
b0 >
0-
0&
0*
#350000
1*
#400000
1-
b1 >
0*
#450000
1*
#500000
b10 >
1&
0*
#550000
1*
#600000
b100000000010 4
b10 3
b10 '
b10 0
b10 =
b0 >
0-
0&
0*
#650000
1*
#700000
1-
b1 >
0*
#750000
1*
#800000
b10 >
1&
0*
#850000
1*
#900000
b100000000011 4
b11 3
b11 '
b11 0
b11 =
b0 >
0-
0&
0*
#950000
1*
#1000000
1-
b1 >
0*
#1050000
1*
#1100000
b10 >
1&
0*
#1150000
1*
#1200000
b100000000100 4
b100 3
b100 '
b100 0
b100 =
b0 >
0-
0&
0*
#1250000
1*
#1300000
1-
b1 >
0*
#1350000
1*
#1400000
b10 >
1&
0*
#1450000
1*
#1500000
b100000000101 4
b101 3
b101 '
b101 0
b101 =
b0 >
0-
0&
0*
#1550000
1*
#1600000
1-
b1 >
0*
#1650000
1*
#1700000
b10 >
1&
0*
#1750000
1*
#1800000
b100000000110 4
b110 3
b110 '
b110 0
b110 =
b0 >
0-
0&
0*
#1850000
1*
#1900000
1-
b1 >
0*
#1950000
1*
#2000000
b10 >
1&
0*
#2050000
1*
#2100000
b100000000111 4
b111 3
b111 '
b111 0
b111 =
b0 >
0-
0&
0*
#2150000
1*
#2200000
1-
b1 >
0*
#2250000
1*
#2300000
b10 >
1&
0*
#2350000
1*
#2400000
b100000001000 4
b1000 3
b1000 '
b1000 0
b1000 =
b0 >
0-
0&
0*
#2450000
1*
#2500000
1-
b1 >
0*
#2550000
b0 $
b0 .
b0 8
b0 %
b0 /
b0 7
1*
#2600000
b10 >
1&
0*
#2650000
1*
#2700000
b100000001001 4
b1001 3
b1001 '
b1001 0
b1001 =
b0 >
0-
0&
0*
#2750000
1*
#2800000
1-
b1 >
0*
#2850000
1*
#2900000
b10 >
1&
0*
#2950000
1*
#3000000
b100000001010 4
b1010 3
b1010 '
b1010 0
b1010 =
b0 >
0-
0&
0*
#3050000
1*
#3100000
1-
b1 >
0*
#3150000
1*
#3200000
b10 >
1&
0*
#3250000
1*
#3300000
b100000001011 4
b1011 3
b1011 '
b1011 0
b1011 =
b0 >
0-
0&
0*
#3350000
1*
#3400000
1-
b1 >
0*
#3450000
1*
#3500000
b10 >
1&
0*
#3550000
1*
#3600000
b100000001100 4
b1100 3
b1100 '
b1100 0
b1100 =
b0 >
0-
0&
0*
#3650000
1*
#3700000
1-
b1 >
0*
#3750000
1*
#3800000
b10 >
1&
0*
#3850000
1*
#3900000
b100000001101 4
b1101 3
b1101 '
b1101 0
b1101 =
b0 >
0-
0&
0*
#3950000
1*
#4000000
1-
b1 >
0*
#4050000
1*
#4100000
b10 >
1&
0*
#4150000
1*
#4200000
b100000001110 4
b1110 3
b1110 '
b1110 0
b1110 =
b0 >
0-
0&
0*
#4250000
1*
#4300000
1-
b1 >
0*
#4350000
1*
#4400000
b10 >
1&
0*
#4450000
1*
#4500000
b100000001111 4
b1111 3
b1111 '
b1111 0
b1111 =
b0 >
0-
0&
0*
#4550000
1*
#4600000
1-
b1 >
0*
#4650000
1*
#4700000
b10 >
1&
0*
#4750000
1*
#4800000
b100000010000 4
b10000 3
b10000 '
b10000 0
b10000 =
b0 >
0-
0&
0*
#4850000
1*
#4900000
1-
b1 >
0*
#4950000
b100 $
b100 .
b100 8
b100 %
b100 /
b100 7
1*
#5000000
b10 >
1&
0*
#5050000
1*
#5100000
b100000010001 4
b10001 3
b10001 '
b10001 0
b10001 =
b0 >
0-
0&
0*
#5150000
1*
#5200000
1-
b1 >
0*
#5250000
1*
#5300000
b10 >
1&
0*
#5350000
1*
#5400000
b100000010010 4
b10010 3
b10010 '
b10010 0
b10010 =
b0 >
0-
0&
0*
#5450000
1*
#5500000
1-
b1 >
0*
#5550000
1*
#5600000
b10 >
1&
0*
#5650000
1*
#5700000
b100000010011 4
b10011 3
b10011 '
b10011 0
b10011 =
b0 >
0-
0&
0*
#5750000
1*
#5800000
1-
b1 >
0*
#5850000
1*
#5900000
b10 >
1&
0*
#5950000
1*
#6000000
b100000010100 4
b10100 3
b10100 '
b10100 0
b10100 =
b0 >
0-
0&
0*
#6050000
1*
#6100000
1-
b1 >
0*
#6150000
1*
#6200000
b10 >
1&
0*
#6250000
1*
#6300000
b100000010101 4
b10101 3
b10101 '
b10101 0
b10101 =
b0 >
0-
0&
0*
#6350000
1*
#6400000
1-
b1 >
0*
#6450000
1*
#6500000
b10 >
1&
0*
#6550000
1*
#6600000
b100000010110 4
b10110 3
b10110 '
b10110 0
b10110 =
b0 >
0-
0&
0*
#6650000
1*
#6700000
1-
b1 >
0*
#6750000
1*
#6800000
b10 >
1&
0*
#6850000
1*
#6900000
b100000010111 4
b10111 3
b10111 '
b10111 0
b10111 =
b0 >
0-
0&
0*
#6950000
1*
#7000000
1-
b1 >
0*
#7050000
1*
#7100000
b10 >
1&
0*
#7150000
1*
#7200000
b100000011000 4
b11000 3
b11000 '
b11000 0
b11000 =
b0 >
0-
0&
0*
#7250000
1*
#7300000
1-
b1 >
0*
#7350000
b0 $
b0 .
b0 8
b0 %
b0 /
b0 7
1*
#7400000
b10 >
1&
0*
#7450000
1*
#7500000
b100000011001 4
b11001 3
b11001 '
b11001 0
b11001 =
b0 >
0-
0&
0*
#7550000
1*
#7600000
1-
b1 >
0*
#7650000
1*
#7700000
b10 >
1&
0*
#7750000
1*
#7800000
b100000011010 4
b11010 3
b11010 '
b11010 0
b11010 =
b0 >
0-
0&
0*
#7850000
1*
#7900000
1-
b1 >
0*
#7950000
1*
#8000000
b10 >
1&
0*
#8050000
1*
#8100000
b100000011011 4
b11011 3
b11011 '
b11011 0
b11011 =
b0 >
0-
0&
0*
#8150000
1*
#8200000
1-
b1 >
0*
#8250000
1*
#8300000
b10 >
1&
0*
#8350000
1*
#8400000
b100000011100 4
b11100 3
b11100 '
b11100 0
b11100 =
b0 >
0-
0&
0*
#8450000
1*
#8500000
1-
b1 >
0*
#8550000
1*
#8600000
b10 >
1&
0*
#8650000
1*
#8700000
b100000011101 4
b11101 3
b11101 '
b11101 0
b11101 =
b0 >
0-
0&
0*
#8750000
1*
#8800000
1-
b1 >
0*
#8850000
1*
#8900000
b10 >
1&
0*
#8950000
1*
#9000000
b100000011110 4
b11110 3
b11110 '
b11110 0
b11110 =
b0 >
0-
0&
0*
#9050000
1*
#9100000
1-
b1 >
0*
#9150000
1*
#9200000
b10 >
1&
0*
#9250000
1*
#9300000
b100000011111 4
b11111 3
b11111 '
b11111 0
b11111 =
b0 >
0-
0&
0*
#9350000
1*
#9400000
1-
b1 >
0*
#9450000
1*
#9500000
b10 >
1&
0*
#9550000
1*
#9600000
b100000100000 4
b100000 3
b100000 '
b100000 0
b100000 =
b0 >
0-
0&
0*
#9650000
1*
#9700000
1-
b1 >
0*
#9750000
b1 $
b1 .
b1 8
b1 %
b1 /
b1 7
1*
#9800000
b10 >
1&
0*
#9850000
1*
#9900000
b100000100001 4
b100001 3
b100001 '
b100001 0
b100001 =
b0 >
0-
0&
0*
#9950000
1*
#10000000
1-
b1 >
0*
#10050000
1*
#10100000
b10 >
1&
0*
#10150000
1*
#10200000
b100000100010 4
b100010 3
b100010 '
b100010 0
b100010 =
b0 >
0-
0&
0*
#10250000
1*
#10300000
1-
b1 >
0*
#10350000
1*
#10400000
b10 >
1&
0*
#10450000
1*
#10500000
b100000100011 4
b100011 3
b100011 '
b100011 0
b100011 =
b0 >
0-
0&
0*
#10550000
1*
#10600000
1-
b1 >
0*
#10650000
1*
#10700000
b10 >
1&
0*
#10750000
1*
#10800000
b100000100100 4
b100100 3
b100100 '
b100100 0
b100100 =
b0 >
0-
0&
0*
#10850000
1*
#10900000
1-
b1 >
0*
#10950000
1*
#11000000
b10 >
1&
0*
#11050000
1*
#11100000
b100000100101 4
b100101 3
b100101 '
b100101 0
b100101 =
b0 >
0-
0&
0*
#11150000
1*
#11200000
1-
b1 >
0*
#11250000
1*
#11300000
b10 >
1&
0*
#11350000
1*
#11400000
b100000100110 4
b100110 3
b100110 '
b100110 0
b100110 =
b0 >
0-
0&
0*
#11450000
1*
#11500000
1-
b1 >
0*
#11550000
1*
#11600000
b10 >
1&
0*
#11650000
1*
#11700000
b100000100111 4
b100111 3
b100111 '
b100111 0
b100111 =
b0 >
0-
0&
0*
#11750000
1*
#11800000
1-
b1 >
0*
#11850000
1*
#11900000
b10 >
1&
0*
#11950000
1*
#12000000
b100000101000 4
b101000 3
b101000 '
b101000 0
b101000 =
b0 >
0-
0&
0*
#12050000
1*
#12100000
1-
b1 >
0*
#12150000
b0 $
b0 .
b0 8
b0 %
b0 /
b0 7
1*
#12200000
b10 >
1&
0*
#12250000
1*
#12300000
b100000101001 4
b101001 3
b101001 '
b101001 0
b101001 =
b0 >
0-
0&
0*
#12350000
1*
#12400000
1-
b1 >
0*
#12450000
1*
#12500000
b10 >
1&
0*
#12550000
1*
#12600000
b100000101010 4
b101010 3
b101010 '
b101010 0
b101010 =
b0 >
0-
0&
0*
#12650000
1*
#12700000
1-
b1 >
0*
#12750000
1*
#12800000
b10 >
1&
0*
#12850000
1*
#12900000
b100000101011 4
b101011 3
b101011 '
b101011 0
b101011 =
b0 >
0-
0&
0*
#12950000
1*
#13000000
1-
b1 >
0*
#13050000
1*
#13100000
b10 >
1&
0*
#13150000
1*
#13200000
b100000101100 4
b101100 3
b101100 '
b101100 0
b101100 =
b0 >
0-
0&
0*
#13250000
1*
#13300000
1-
b1 >
0*
#13350000
1*
#13400000
b10 >
1&
0*
#13450000
1*
#13500000
b100000101101 4
b101101 3
b101101 '
b101101 0
b101101 =
b0 >
0-
0&
0*
#13550000
1*
#13600000
1-
b1 >
0*
#13650000
1*
#13700000
b10 >
1&
0*
#13750000
1*
#13800000
b100000101110 4
b101110 3
b101110 '
b101110 0
b101110 =
b0 >
0-
0&
0*
#13850000
1*
#13900000
1-
b1 >
0*
#13950000
1*
#14000000
b10 >
1&
0*
#14050000
1*
#14100000
b100000101111 4
b101111 3
b101111 '
b101111 0
b101111 =
b0 >
0-
0&
0*
#14150000
1*
#14200000
1-
b1 >
0*
#14250000
1*
#14300000
b10 >
1&
0*
#14350000
1*
#14400000
b100000110000 4
b110000 3
b110000 '
b110000 0
b110000 =
b0 >
0-
0&
0*
#14450000
1*
#14500000
1-
b1 >
0*
#14550000
b100 $
b100 .
b100 8
b100 %
b100 /
b100 7
1*
#14600000
b10 >
1&
0*
#14650000
1*
#14700000
b100000110001 4
b110001 3
b110001 '
b110001 0
b110001 =
b0 >
0-
0&
0*
#14750000
1*
#14800000
1-
b1 >
0*
#14850000
1*
#14900000
b10 >
1&
0*
#14950000
1*
#15000000
b100000110010 4
b110010 3
b110010 '
b110010 0
b110010 =
b0 >
0-
0&
0*
#15050000
1*
#15100000
1-
b1 >
0*
#15150000
1*
#15200000
b10 >
1&
0*
#15250000
1*
#15300000
b100000110011 4
b110011 3
b110011 '
b110011 0
b110011 =
b0 >
0-
0&
0*
#15350000
1*
#15400000
1-
b1 >
0*
#15450000
1*
#15500000
b10 >
1&
0*
#15550000
1*
#15600000
b100000110100 4
b110100 3
b110100 '
b110100 0
b110100 =
b0 >
0-
0&
0*
#15650000
1*
#15700000
1-
b1 >
0*
#15750000
1*
#15800000
b10 >
1&
0*
#15850000
1*
#15900000
b100000110101 4
b110101 3
b110101 '
b110101 0
b110101 =
b0 >
0-
0&
0*
#15950000
1*
#16000000
1-
b1 >
0*
#16050000
1*
#16100000
b10 >
1&
0*
#16150000
1*
#16200000
b100000110110 4
b110110 3
b110110 '
b110110 0
b110110 =
b0 >
0-
0&
0*
#16250000
1*
#16300000
1-
b1 >
0*
#16350000
1*
#16400000
b10 >
1&
0*
#16450000
1*
#16500000
b100000110111 4
b110111 3
b110111 '
b110111 0
b110111 =
b0 >
0-
0&
0*
#16550000
1*
#16600000
1-
b1 >
0*
#16650000
1*
#16700000
b10 >
1&
0*
#16750000
1*
#16800000
b100000111000 4
b111000 3
b111000 '
b111000 0
b111000 =
b0 >
0-
0&
0*
#16850000
1*
#16900000
1-
b1 >
0*
#16950000
b0 $
b0 .
b0 8
b0 %
b0 /
b0 7
1*
#17000000
b10 >
1&
0*
#17050000
1*
#17100000
b100000111001 4
b111001 3
b111001 '
b111001 0
b111001 =
b0 >
0-
0&
0*
#17150000
1*
#17200000
1-
b1 >
0*
#17250000
1*
#17300000
b10 >
1&
0*
#17350000
1*
#17400000
b100000111010 4
b111010 3
b111010 '
b111010 0
b111010 =
b0 >
0-
0&
0*
#17450000
1*
#17500000
1-
b1 >
0*
#17550000
1*
#17600000
b10 >
1&
0*
#17650000
1*
#17700000
b100000111011 4
b111011 3
b111011 '
b111011 0
b111011 =
b0 >
0-
0&
0*
#17750000
1*
#17800000
1-
b1 >
0*
#17850000
1*
#17900000
b10 >
1&
0*
#17950000
1*
#18000000
b100000111100 4
b111100 3
b111100 '
b111100 0
b111100 =
b0 >
0-
0&
0*
#18050000
1*
#18100000
1-
b1 >
0*
#18150000
1*
#18200000
b10 >
1&
0*
#18250000
1*
#18300000
b100000111101 4
b111101 3
b111101 '
b111101 0
b111101 =
b0 >
0-
0&
0*
#18350000
1*
#18400000
1-
b1 >
0*
#18450000
1*
#18500000
b10 >
1&
0*
#18550000
1*
#18600000
b100000111110 4
b111110 3
b111110 '
b111110 0
b111110 =
b0 >
0-
0&
0*
#18650000
1*
#18700000
1-
b1 >
0*
#18750000
1*
#18800000
b10 >
1&
0*
#18850000
1*
#18900000
b100000111111 4
b111111 3
b111111 '
b111111 0
b111111 =
b0 >
0-
0&
0*
#18950000
1*
#19000000
1-
b1 >
0*
#19050000
1*
#19100000
b10 >
1&
0*
#19150000
1*
#19200000
b100000000000 4
b0 3
b0 '
b0 0
b0 =
1"
b11 >
0-
0&
0*
#19250000
1*
#19300000
b100 >
0"
1#
0*
#19350000
1*
#19400000
b101 >
b100001000000 4
b1000000 3
b1 !
b1 ,
b1 ?
1"
0#
0*
#19450000
1*
#19500000
b0 >
0*
#19550000
1*
#19600000
0"
1-
b1 >
0*
#19650000
b1 $
b1 .
b1 8
b1 %
b1 /
b1 7
1*
#19700000
b10 >
1&
0*
#19750000
1*
#19800000
b100001000001 4
b1000001 3
b1 '
b1 0
b1 =
b0 >
0-
0&
0*
#19850000
1*
#19900000
1-
b1 >
0*
#19950000
1*
#20000000
b10 >
1&
0*
#20050000
1*
#20100000
b100001000010 4
b1000010 3
b10 '
b10 0
b10 =
b0 >
0-
0&
0*
#20150000
1*
#20200000
1-
b1 >
0*
#20250000
1*
#20300000
b10 >
1&
0*
#20350000
1*
#20400000
b100001000011 4
b1000011 3
b11 '
b11 0
b11 =
b0 >
0-
0&
0*
#20450000
1*
#20500000
1-
b1 >
0*
#20550000
1*
#20600000
b10 >
1&
0*
#20650000
1*
#20700000
b100001000100 4
b1000100 3
b100 '
b100 0
b100 =
b0 >
0-
0&
0*
#20750000
1*
#20800000
1-
b1 >
0*
#20850000
1*
#20900000
b10 >
1&
0*
#20950000
1*
#21000000
b100001000101 4
b1000101 3
b101 '
b101 0
b101 =
b0 >
0-
0&
0*
#21050000
1*
#21100000
1-
b1 >
0*
#21150000
1*
#21200000
b10 >
1&
0*
#21250000
1*
#21300000
b100001000110 4
b1000110 3
b110 '
b110 0
b110 =
b0 >
0-
0&
0*
#21350000
1*
#21400000
1-
b1 >
0*
#21450000
1*
#21500000
b10 >
1&
0*
#21550000
1*
#21600000
b100001000111 4
b1000111 3
b111 '
b111 0
b111 =
b0 >
0-
0&
0*
#21650000
1*
#21700000
1-
b1 >
0*
#21750000
1*
#21800000
b10 >
1&
0*
#21850000
1*
#21900000
b100001001000 4
b1001000 3
b1000 '
b1000 0
b1000 =
b0 >
0-
0&
0*
#21950000
1*
#22000000
1-
b1 >
0*
#22050000
b0 $
b0 .
b0 8
b0 %
b0 /
b0 7
1*
#22100000
b10 >
1&
0*
#22150000
1*
#22200000
b100001001001 4
b1001001 3
b1001 '
b1001 0
b1001 =
b0 >
0-
0&
0*
#22250000
1*
#22300000
1-
b1 >
0*
#22350000
1*
#22400000
b10 >
1&
0*
#22450000
1*
#22500000
b100001001010 4
b1001010 3
b1010 '
b1010 0
b1010 =
b0 >
0-
0&
0*
#22550000
1*
#22600000
1-
b1 >
0*
#22650000
1*
#22700000
b10 >
1&
0*
#22750000
1*
#22800000
b100001001011 4
b1001011 3
b1011 '
b1011 0
b1011 =
b0 >
0-
0&
0*
#22850000
1*
#22900000
1-
b1 >
0*
#22950000
1*
#23000000
b10 >
1&
0*
#23050000
1*
#23100000
b100001001100 4
b1001100 3
b1100 '
b1100 0
b1100 =
b0 >
0-
0&
0*
#23150000
1*
#23200000
1-
b1 >
0*
#23250000
1*
#23300000
b10 >
1&
0*
#23350000
1*
#23400000
b100001001101 4
b1001101 3
b1101 '
b1101 0
b1101 =
b0 >
0-
0&
0*
#23450000
1*
#23500000
1-
b1 >
0*
#23550000
1*
#23600000
b10 >
1&
0*
#23650000
1*
#23700000
b100001001110 4
b1001110 3
b1110 '
b1110 0
b1110 =
b0 >
0-
0&
0*
#23750000
1*
#23800000
1-
b1 >
0*
#23850000
1*
#23900000
b10 >
1&
0*
#23950000
1*
#24000000
b100001001111 4
b1001111 3
b1111 '
b1111 0
b1111 =
b0 >
0-
0&
0*
#24050000
1*
#24100000
1-
b1 >
0*
#24150000
1*
#24200000
b10 >
1&
0*
#24250000
1*
#24300000
b100001010000 4
b1010000 3
b10000 '
b10000 0
b10000 =
b0 >
0-
0&
0*
#24350000
1*
#24400000
1-
b1 >
0*
#24450000
b100 $
b100 .
b100 8
b100 %
b100 /
b100 7
1*
#24500000
b10 >
1&
0*
#24550000
1*
#24600000
b100001010001 4
b1010001 3
b10001 '
b10001 0
b10001 =
b0 >
0-
0&
0*
#24650000
1*
#24700000
1-
b1 >
0*
#24750000
1*
#24800000
b10 >
1&
0*
#24850000
1*
#24900000
b100001010010 4
b1010010 3
b10010 '
b10010 0
b10010 =
b0 >
0-
0&
0*
#24950000
1*
#25000000
1-
b1 >
0*
#25050000
1*
#25100000
b10 >
1&
0*
#25150000
1*
#25200000
b100001010011 4
b1010011 3
b10011 '
b10011 0
b10011 =
b0 >
0-
0&
0*
#25250000
1*
#25300000
1-
b1 >
0*
#25350000
1*
#25400000
b10 >
1&
0*
#25450000
1*
#25500000
b100001010100 4
b1010100 3
b10100 '
b10100 0
b10100 =
b0 >
0-
0&
0*
#25550000
1*
#25600000
1-
b1 >
0*
#25650000
1*
#25700000
b10 >
1&
0*
#25750000
1*
#25800000
b100001010101 4
b1010101 3
b10101 '
b10101 0
b10101 =
b0 >
0-
0&
0*
#25850000
1*
#25900000
1-
b1 >
0*
#25950000
1*
#26000000
b10 >
1&
0*
#26050000
1*
#26100000
b100001010110 4
b1010110 3
b10110 '
b10110 0
b10110 =
b0 >
0-
0&
0*
#26150000
1*
#26200000
1-
b1 >
0*
#26250000
1*
#26300000
b10 >
1&
0*
#26350000
1*
#26400000
b100001010111 4
b1010111 3
b10111 '
b10111 0
b10111 =
b0 >
0-
0&
0*
#26450000
1*
#26500000
1-
b1 >
0*
#26550000
1*
#26600000
b10 >
1&
0*
#26650000
1*
#26700000
b100001011000 4
b1011000 3
b11000 '
b11000 0
b11000 =
b0 >
0-
0&
0*
#26750000
1*
#26800000
1-
b1 >
0*
#26850000
b0 $
b0 .
b0 8
b0 %
b0 /
b0 7
1*
#26900000
b10 >
1&
0*
#26950000
1*
#27000000
b100001011001 4
b1011001 3
b11001 '
b11001 0
b11001 =
b0 >
0-
0&
0*
#27050000
1*
#27100000
1-
b1 >
0*
#27150000
1*
#27200000
b10 >
1&
0*
#27250000
1*
#27300000
b100001011010 4
b1011010 3
b11010 '
b11010 0
b11010 =
b0 >
0-
0&
0*
#27350000
1*
#27400000
1-
b1 >
0*
#27450000
1*
#27500000
b10 >
1&
0*
#27550000
1*
#27600000
b100001011011 4
b1011011 3
b11011 '
b11011 0
b11011 =
b0 >
0-
0&
0*
#27650000
1*
#27700000
1-
b1 >
0*
#27750000
1*
#27800000
b10 >
1&
0*
#27850000
1*
#27900000
b100001011100 4
b1011100 3
b11100 '
b11100 0
b11100 =
b0 >
0-
0&
0*
#27950000
1*
#28000000
1-
b1 >
0*
#28050000
1*
#28100000
b10 >
1&
0*
#28150000
1*
#28200000
b100001011101 4
b1011101 3
b11101 '
b11101 0
b11101 =
b0 >
0-
0&
0*
#28250000
1*
#28300000
1-
b1 >
0*
#28350000
1*
#28400000
b10 >
1&
0*
#28450000
1*
#28500000
b100001011110 4
b1011110 3
b11110 '
b11110 0
b11110 =
b0 >
0-
0&
0*
#28550000
1*
#28600000
1-
b1 >
0*
#28650000
1*
#28700000
b10 >
1&
0*
#28750000
1*
#28800000
b100001011111 4
b1011111 3
b11111 '
b11111 0
b11111 =
b0 >
0-
0&
0*
#28850000
1*
#28900000
1-
b1 >
0*
#28950000
1*
#29000000
b10 >
1&
0*
#29050000
1*
#29100000
b100001100000 4
b1100000 3
b100000 '
b100000 0
b100000 =
b0 >
0-
0&
0*
#29150000
1*
#29200000
1-
b1 >
0*
#29250000
b1 $
b1 .
b1 8
b1 %
b1 /
b1 7
1*
#29300000
b10 >
1&
0*
#29350000
1*
#29400000
b100001100001 4
b1100001 3
b100001 '
b100001 0
b100001 =
b0 >
0-
0&
0*
#29450000
1*
#29500000
1-
b1 >
0*
#29550000
1*
#29600000
b10 >
1&
0*
#29650000
1*
#29700000
b100001100010 4
b1100010 3
b100010 '
b100010 0
b100010 =
b0 >
0-
0&
0*
#29750000
1*
#29800000
1-
b1 >
0*
#29850000
1*
#29900000
b10 >
1&
0*
#29950000
1*
#30000000
b100001100011 4
b1100011 3
b100011 '
b100011 0
b100011 =
b0 >
0-
0&
0*
#30050000
1*
#30100000
1-
b1 >
0*
#30150000
1*
#30200000
b10 >
1&
0*
#30250000
1*
#30300000
b100001100100 4
b1100100 3
b100100 '
b100100 0
b100100 =
b0 >
0-
0&
0*
#30350000
1*
#30400000
1-
b1 >
0*
#30450000
1*
#30500000
b10 >
1&
0*
#30550000
1*
#30600000
b100001100101 4
b1100101 3
b100101 '
b100101 0
b100101 =
b0 >
0-
0&
0*
#30650000
1*
#30700000
1-
b1 >
0*
#30750000
1*
#30800000
b10 >
1&
0*
#30850000
1*
#30900000
b100001100110 4
b1100110 3
b100110 '
b100110 0
b100110 =
b0 >
0-
0&
0*
#30950000
1*
#31000000
1-
b1 >
0*
#31050000
1*
#31100000
b10 >
1&
0*
#31150000
1*
#31200000
b100001100111 4
b1100111 3
b100111 '
b100111 0
b100111 =
b0 >
0-
0&
0*
#31250000
1*
#31300000
1-
b1 >
0*
#31350000
1*
#31400000
b10 >
1&
0*
#31450000
1*
#31500000
b100001101000 4
b1101000 3
b101000 '
b101000 0
b101000 =
b0 >
0-
0&
0*
#31550000
1*
#31600000
1-
b1 >
0*
#31650000
b0 $
b0 .
b0 8
b0 %
b0 /
b0 7
1*
#31700000
b10 >
1&
0*
#31750000
1*
#31800000
b100001101001 4
b1101001 3
b101001 '
b101001 0
b101001 =
b0 >
0-
0&
0*
#31850000
1*
#31900000
1-
b1 >
0*
#31950000
1*
#32000000
b10 >
1&
0*
#32050000
1*
#32100000
b100001101010 4
b1101010 3
b101010 '
b101010 0
b101010 =
b0 >
0-
0&
0*
#32150000
1*
#32200000
1-
b1 >
0*
#32250000
1*
#32300000
b10 >
1&
0*
#32350000
1*
#32400000
b100001101011 4
b1101011 3
b101011 '
b101011 0
b101011 =
b0 >
0-
0&
0*
#32450000
1*
#32500000
1-
b1 >
0*
#32550000
1*
#32600000
b10 >
1&
0*
#32650000
1*
#32700000
b100001101100 4
b1101100 3
b101100 '
b101100 0
b101100 =
b0 >
0-
0&
0*
#32750000
1*
#32800000
1-
b1 >
0*
#32850000
1*
#32900000
b10 >
1&
0*
#32950000
1*
#33000000
b100001101101 4
b1101101 3
b101101 '
b101101 0
b101101 =
b0 >
0-
0&
0*
#33050000
1*
#33100000
1-
b1 >
0*
#33150000
1*
#33200000
b10 >
1&
0*
#33250000
1*
#33300000
b100001101110 4
b1101110 3
b101110 '
b101110 0
b101110 =
b0 >
0-
0&
0*
#33350000
1*
#33400000
1-
b1 >
0*
#33450000
1*
#33500000
b10 >
1&
0*
#33550000
1*
#33600000
b100001101111 4
b1101111 3
b101111 '
b101111 0
b101111 =
b0 >
0-
0&
0*
#33650000
1*
#33700000
1-
b1 >
0*
#33750000
1*
#33800000
b10 >
1&
0*
#33850000
1*
#33900000
b100001110000 4
b1110000 3
b110000 '
b110000 0
b110000 =
b0 >
0-
0&
0*
#33950000
1*
#34000000
1-
b1 >
0*
#34050000
b100 $
b100 .
b100 8
b100 %
b100 /
b100 7
1*
#34100000
b10 >
1&
0*
#34150000
1*
#34200000
b100001110001 4
b1110001 3
b110001 '
b110001 0
b110001 =
b0 >
0-
0&
0*
#34250000
1*
#34300000
1-
b1 >
0*
#34350000
1*
#34400000
b10 >
1&
0*
#34450000
1*
#34500000
b100001110010 4
b1110010 3
b110010 '
b110010 0
b110010 =
b0 >
0-
0&
0*
#34550000
1*
#34600000
1-
b1 >
0*
#34650000
1*
#34700000
b10 >
1&
0*
#34750000
1*
#34800000
b100001110011 4
b1110011 3
b110011 '
b110011 0
b110011 =
b0 >
0-
0&
0*
#34850000
1*
#34900000
1-
b1 >
0*
#34950000
1*
#35000000
b10 >
1&
0*
#35050000
1*
#35100000
b100001110100 4
b1110100 3
b110100 '
b110100 0
b110100 =
b0 >
0-
0&
0*
#35150000
1*
#35200000
1-
b1 >
0*
#35250000
1*
#35300000
b10 >
1&
0*
#35350000
1*
#35400000
b100001110101 4
b1110101 3
b110101 '
b110101 0
b110101 =
b0 >
0-
0&
0*
#35450000
1*
#35500000
1-
b1 >
0*
#35550000
1*
#35600000
b10 >
1&
0*
#35650000
1*
#35700000
b100001110110 4
b1110110 3
b110110 '
b110110 0
b110110 =
b0 >
0-
0&
0*
#35750000
1*
#35800000
1-
b1 >
0*
#35850000
1*
#35900000
b10 >
1&
0*
#35950000
1*
#36000000
b100001110111 4
b1110111 3
b110111 '
b110111 0
b110111 =
b0 >
0-
0&
0*
#36050000
1*
#36100000
1-
b1 >
0*
#36150000
1*
#36200000
b10 >
1&
0*
#36250000
1*
#36300000
b100001111000 4
b1111000 3
b111000 '
b111000 0
b111000 =
b0 >
0-
0&
0*
#36350000
1*
#36400000
1-
b1 >
0*
#36450000
b0 $
b0 .
b0 8
b0 %
b0 /
b0 7
1*
#36500000
b10 >
1&
0*
#36550000
1*
#36600000
b100001111001 4
b1111001 3
b111001 '
b111001 0
b111001 =
b0 >
0-
0&
0*
#36650000
1*
#36700000
1-
b1 >
0*
#36750000
1*
#36800000
b10 >
1&
0*
#36850000
1*
#36900000
b100001111010 4
b1111010 3
b111010 '
b111010 0
b111010 =
b0 >
0-
0&
0*
#36950000
1*
#37000000
1-
b1 >
0*
#37050000
1*
#37100000
b10 >
1&
0*
#37150000
1*
#37200000
b100001111011 4
b1111011 3
b111011 '
b111011 0
b111011 =
b0 >
0-
0&
0*
#37250000
1*
#37300000
1-
b1 >
0*
#37350000
1*
#37400000
b10 >
1&
0*
#37450000
1*
#37500000
b100001111100 4
b1111100 3
b111100 '
b111100 0
b111100 =
b0 >
0-
0&
0*
#37550000
1*
#37600000
1-
b1 >
0*
