Praktischer Teil/Verilog/PMOD_Display/src/tb_LED_controller.vcd
$date
	Sat Jan 10 21:32:07 2026
$end
$version
	Icarus Verilog
$end
$timescale
	1ps
$end
$scope module tb_LED_controller $end
$var wire 5 ! row_addr [4:0] $end
$var wire 1 " oe $end
$var wire 1 # latch $end
$var wire 4 $ dout_b [3:0] $end
$var wire 4 % dout_a [3:0] $end
$var wire 1 & display_clk $end
$var wire 6 ' col_addr [5:0] $end
$var parameter 32 ( CLOCK_PERIOD $end
$var parameter 32 ) CYCLETIME $end
$var reg 1 * clk $end
$var reg 1 + rst $end
$scope module dut $end
$var wire 1 * clk $end
$var wire 1 + rst $end
$var wire 5 , row_addr [4:0] $end
$var wire 1 - re $end
$var wire 1 " oe $end
$var wire 1 # latch $end
$var wire 4 . dout_b [3:0] $end
$var wire 4 / dout_a [3:0] $end
$var wire 1 & display_clk $end
$var wire 6 0 col_addr [5:0] $end
$scope module fb_inst $end
$var wire 1 1 ce $end
$var wire 1 * clk $end
$var wire 4 2 din [3:0] $end
$var wire 12 3 raddr_a [11:0] $end
$var wire 12 4 raddr_b [11:0] $end
$var wire 1 + rst $end
$var wire 12 5 waddr [11:0] $end
$var wire 1 6 we $end
$var wire 1 - re $end
$var reg 4 7 dout_a [3:0] $end
$var reg 4 8 dout_b [3:0] $end
$upscope $end
$scope module led_inst $end
$var wire 1 * clk $end
$var wire 1 + rst $end
$var parameter 32 9 COLUMNS $end
$var parameter 32 : HEIGHT $end
$var parameter 32 ; ROWS $end
$var parameter 32 < WIDTH $end
$var reg 6 = col_addr [5:0] $end
$var reg 6 > col_counter [5:0] $end
$var reg 3 ? con_state [2:0] $end
$var reg 1 & display_clk $end
$var reg 1 # latch $end
$var reg 1 " oe $end
$var reg 1 - re $end
$var reg 5 @ row_addr [4:0] $end
$var reg 5 A row_counter [4:0] $end
$upscope $end
$upscope $end
$upscope $end
$enddefinitions $end
$comment Show the parameter values. $end
$dumpall
b1000000 <
b100000 ;
b1000000 :
b1000000 9
b11001 )
b110010 (
$end
#0
$dumpvars
b0 A
b0 @
b0 ?
b0 >
b0 =
b0 8
b0 7
06
b0 5
b100000000000 4
b0 3
b0 2
11
b0 0
b0 /
b0 .
0-
b0 ,
1+
0*
b0 '
0&
b0 %
b0 $
0#
1"
b0 !
$end
#50000
0+
1*
#100000
0*
#150000
0"
1-
b1 ?
1*
#200000
0*
#250000
b10 ?
1&
1*
#300000
0*
#350000
b1 >
b0 ?
0-
0&
1*
#400000
0*
#450000
1-
b1 ?
b100000000001 4
b1 3
b1 '
b1 0
b1 =
1*
#500000
0*
#550000
b10 ?
1&
1*
#600000
0*
#650000
b10 >
b0 ?
0-
0&
1*
#700000
0*
#750000
1-
b1 ?
b100000000010 4
b10 3
b10 '
b10 0
b10 =
1*
#800000
0*
#850000
b10 ?
1&
1*
#900000
0*
#950000
b11 >
b0 ?
0-
0&
1*
#1000000
0*
#1050000
1-
b1 ?
b100000000011 4
b11 3
b11 '
b11 0
b11 =
1*
#1100000
0*
#1150000
b10 ?
1&
1*
#1200000
0*
#1250000
b100 >
b0 ?
0-
0&
1*
#1300000
0*
#1350000
1-
b1 ?
b100000000100 4
b100 3
b100 '
b100 0
b100 =
1*
#1400000
0*
#1450000
b10 ?
1&
1*
#1500000
0*
#1550000
b101 >
b0 ?
0-
0&
1*
#1600000
0*
#1650000
1-
b1 ?
b100000000101 4
b101 3
b101 '
b101 0
b101 =
1*
#1700000
0*
#1750000
b10 ?
1&
1*
#1800000
0*
#1850000
b110 >
b0 ?
0-
0&
1*
#1900000
0*
#1950000
1-
b1 ?
b100000000110 4
b110 3
b110 '
b110 0
b110 =
1*
#2000000
0*
#2050000
b111 $
b111 .
b111 8
b10 ?
1&
1*
#2100000
0*
#2150000
b111 >
b0 ?
0-
0&
1*
#2200000
0*
#2250000
1-
b1 ?
b100000000111 4
b111 3
b111 '
b111 0
b111 =
1*
#2300000
0*
#2350000
b10 ?
1&
1*
#2400000
0*
#2450000
b1000 >
b0 ?
0-
0&
1*
#2500000
0*
#2550000
1-
b1 ?
b100000001000 4
b1000 3
b1000 '
b1000 0
b1000 =
1*
#2600000
0*
#2650000
b10 ?
1&
1*
#2700000
0*
#2750000
b1001 >
b0 ?
0-
0&
1*
#2800000
0*
#2850000
1-
b1 ?
b100000001001 4
b1001 3
b1001 '
b1001 0
b1001 =
1*
#2900000
0*
#2950000
b10 ?
1&
1*
#3000000
0*
#3050000
b1010 >
b0 ?
0-
0&
1*
#3100000
0*
#3150000
1-
b1 ?
b100000001010 4
b1010 3
b1010 '
b1010 0
b1010 =
1*
#3200000
0*
#3250000
b110 $
b110 .
b110 8
b10 ?
1&
1*
#3300000
0*
#3350000
b1011 >
b0 ?
0-
0&
1*
#3400000
0*
#3450000
1-
b1 ?
b100000001011 4
b1011 3
b1011 '
b1011 0
b1011 =
1*
#3500000
0*
#3550000
b10 ?
1&
b100 $
b100 .
b100 8
1*
#3600000
0*
#3650000
b1100 >
b0 ?
0-
0&
1*
#3700000
0*
#3750000
1-
b1 ?
b100000001100 4
b1100 3
b1100 '
b1100 0
b1100 =
1*
#3800000
0*
#3850000
b10 ?
1&
1*
#3900000
0*
#3950000
b1101 >
b0 ?
0-
0&
1*
#4000000
0*
#4050000
1-
b1 ?
b100000001101 4
b1101 3
b1101 '
b1101 0
b1101 =
1*
#4100000
0*
#4150000
b10 ?
1&
1*
#4200000
0*
#4250000
b1110 >
b0 ?
0-
0&
1*
#4300000
0*
#4350000
1-
b1 ?
b100000001110 4
b1110 3
b1110 '
b1110 0
b1110 =
1*
#4400000
0*
#4450000
b10 ?
1&
1*
#4500000
0*
#4550000
b1111 >
b0 ?
0-
0&
1*
#4600000
0*
#4650000
1-
b1 ?
b100000001111 4
b1111 3
b1111 '
b1111 0
b1111 =
1*
#4700000
0*
#4750000
b10 ?
1&
b111 $
b111 .
b111 8
1*
#4800000
0*
#4850000
b10000 >
b0 ?
0-
0&
1*
#4900000
0*
#4950000
1-
b1 ?
b100000010000 4
b10000 3
b10000 '
b10000 0
b10000 =
1*
#5000000
0*
#5050000
b10 ?
1&
1*
#5100000
0*
#5150000
b10001 >
b0 ?
0-
0&
1*
#5200000
0*
#5250000
1-
b1 ?
b100000010001 4
b10001 3
b10001 '
b10001 0
b10001 =
1*
#5300000
0*
#5350000
b10 ?
1&
1*
#5400000
0*
#5450000
b10010 >
b0 ?
0-
0&
1*
#5500000
0*
#5550000
1-
b1 ?
b100000010010 4
b10010 3
b10010 '
b10010 0
b10010 =
1*
#5600000
0*
#5650000
b10 ?
1&
1*
#5700000
0*
#5750000
b10011 >
b0 ?
0-
0&
1*
#5800000
0*
#5850000
1-
b1 ?
b100000010011 4
b10011 3
b10011 '
b10011 0
b10011 =
1*
#5900000
0*
#5950000
b10 ?
1&
b100 $
b100 .
b100 8
1*
#6000000
0*
#6050000
b10100 >
b0 ?
0-
0&
1*
#6100000
0*
#6150000
1-
b1 ?
b100000010100 4
b10100 3
b10100 '
b10100 0
b10100 =
1*
#6200000
0*
#6250000
b10 ?
1&
1*
#6300000
0*
#6350000
b10101 >
b0 ?
0-
0&
1*
#6400000
0*
#6450000
1-
b1 ?
b100000010101 4
b10101 3
b10101 '
b10101 0
b10101 =
1*
#6500000
0*
#6550000
b10 ?
1&
1*
#6600000
0*
#6650000
b10110 >
b0 ?
0-
0&
1*
#6700000
0*
#6750000
1-
b1 ?
b100000010110 4
b10110 3
b10110 '
b10110 0
b10110 =
1*
#6800000
0*
#6850000
b10 ?
1&
1*
#6900000
0*
#6950000
b10111 >
b0 ?
0-
0&
1*
#7000000
0*
#7050000
1-
b1 ?
b100000010111 4
b10111 3
b10111 '
b10111 0
b10111 =
1*
#7100000
0*
#7150000
b10 ?
1&
b110 $
b110 .
b110 8
1*
#7200000
0*
#7250000
b11000 >
b0 ?
0-
0&
1*
#7300000
0*
#7350000
1-
b1 ?
b100000011000 4
b11000 3
b11000 '
b11000 0
b11000 =
1*
#7400000
0*
#7450000
b10 ?
1&
1*
#7500000
0*
#7550000
b11001 >
b0 ?
0-
0&
1*
#7600000
0*
#7650000
1-
b1 ?
b100000011001 4
b11001 3
b11001 '
b11001 0
b11001 =
1*
#7700000
0*
#7750000
b10 ?
1&
b100 $
b100 .
b100 8
1*
#7800000
0*
#7850000
b11010 >
b0 ?
0-
0&
1*
#7900000
0*
#7950000
1-
b1 ?
b100000011010 4
b11010 3
b11010 '
b11010 0
b11010 =
1*
#8000000
0*
#8050000
b10 ?
1&
1*
#8100000
0*
#8150000
b11011 >
b0 ?
0-
0&
1*
#8200000
0*
#8250000
1-
b1 ?
b100000011011 4
b11011 3
b11011 '
b11011 0
b11011 =
1*
#8300000
0*
#8350000
b10 ?
1&
b111 $
b111 .
b111 8
1*
#8400000
0*
#8450000
b11100 >
b0 ?
0-
0&
1*
#8500000
0*
#8550000
1-
b1 ?
b100000011100 4
b11100 3
b11100 '
b11100 0
b11100 =
1*
#8600000
0*
#8650000
b10 ?
1&
1*
#8700000
0*
#8750000
b11101 >
b0 ?
0-
0&
1*
#8800000
0*
#8850000
1-
b1 ?
b100000011101 4
b11101 3
b11101 '
b11101 0
b11101 =
1*
#8900000
0*
#8950000
b10 ?
1&
1*
#9000000
0*
#9050000
b11110 >
b0 ?
0-
0&
1*
#9100000
0*
#9150000
1-
b1 ?
b100000011110 4
b11110 3
b11110 '
b11110 0
b11110 =
1*
#9200000
0*
#9250000
b10 ?
1&
1*
#9300000
0*
#9350000
b11111 >
b0 ?
0-
0&
1*
#9400000
0*
#9450000
1-
b1 ?
b100000011111 4
b11111 3
b11111 '
b11111 0
b11111 =
1*
#9500000
0*
#9550000
b10 ?
1&
1*
#9600000
0*
#9650000
b100000 >
b0 ?
0-
0&
1*
#9700000
0*
#9750000
1-
b1 ?
b100000100000 4
b100000 3
b100000 '
b100000 0
b100000 =
1*
#9800000
0*
#9850000
b10 ?
1&
1*
#9900000
0*
#9950000
b100001 >
b0 ?
0-
0&
1*
#10000000
0*
#10050000
1-
b1 ?
b100000100001 4
b100001 3
b100001 '
b100001 0
b100001 =
1*
#10100000
0*
#10150000
b10 ?
1&
1*
#10200000
0*
#10250000
b100010 >
b0 ?
0-
0&
1*
#10300000
0*
#10350000
1-
b1 ?
b100000100010 4
b100010 3
b100010 '
b100010 0
b100010 =
1*
#10400000
0*
#10450000
b10 ?
1&
1*
#10500000
0*
#10550000
b100011 >
b0 ?
0-
0&
1*
#10600000
0*
#10650000
1-
b1 ?
b100000100011 4
b100011 3
b100011 '
b100011 0
b100011 =
1*
#10700000
0*
#10750000
b10 ?
1&
1*
#10800000
0*
#10850000
b100100 >
b0 ?
0-
0&
1*
#10900000
0*
#10950000
1-
b1 ?
b100000100100 4
b100100 3
b100100 '
b100100 0
b100100 =
1*
#11000000
0*
#11050000
b10 ?
1&
1*
#11100000
0*
#11150000
b100101 >
b0 ?
0-
0&
1*
#11200000
0*
#11250000
1-
b1 ?
b100000100101 4
b100101 3
b100101 '
b100101 0
b100101 =
1*
#11300000
0*
#11350000
b10 ?
1&
b100 $
b100 .
b100 8
1*
#11400000
0*
#11450000
b100110 >
b0 ?
0-
0&
1*
#11500000
0*
#11550000
1-
b1 ?
b100000100110 4
b100110 3
b100110 '
b100110 0
b100110 =
1*
#11600000
0*
#11650000
b10 ?
1&
1*
#11700000
0*
#11750000
b100111 >
b0 ?
0-
0&
1*
#11800000
0*
#11850000
1-
b1 ?
b100000100111 4
b100111 3
b100111 '
b100111 0
b100111 =
1*
#11900000
0*
#11950000
b10 ?
1&
b110 $
b110 .
b110 8
1*
#12000000
0*
#12050000
b101000 >
b0 ?
0-
0&
1*
#12100000
0*
#12150000
1-
b1 ?
b100000101000 4
b101000 3
b101000 '
b101000 0
b101000 =
1*
#12200000
0*
#12250000
b10 ?
1&
1*
#12300000
0*
#12350000
b101001 >
b0 ?
0-
0&
1*
#12400000
0*
#12450000
1-
b1 ?
b100000101001 4
b101001 3
b101001 '
b101001 0
b101001 =
1*
#12500000
0*
#12550000
b10 ?
1&
b100 $
b100 .
b100 8
1*
#12600000
0*
#12650000
b101010 >
b0 ?
0-
0&
1*
#12700000
0*
#12750000
1-
b1 ?
b100000101010 4
b101010 3
b101010 '
b101010 0
b101010 =
1*
#12800000
0*
#12850000
b10 ?
1&
1*
#12900000
0*
#12950000
b101011 >
b0 ?
0-
0&
1*
#13000000
0*
#13050000
1-
b1 ?
b100000101011 4
b101011 3
b101011 '
b101011 0
b101011 =
1*
#13100000
0*
#13150000
b10 ?
1&
1*
#13200000
0*
#13250000
b101100 >
b0 ?
0-
0&
1*
#13300000
0*
#13350000
1-
b1 ?
b100000101100 4
b101100 3
b101100 '
b101100 0
b101100 =
1*
#13400000
0*
#13450000
b10 ?
1&
1*
#13500000
0*
#13550000
b101101 >
b0 ?
0-
0&
1*
#13600000
0*
#13650000
1-
b1 ?
b100000101101 4
b101101 3
b101101 '
b101101 0
b101101 =
1*
#13700000
0*
#13750000
b10 ?
1&
b111 $
b111 .
b111 8
1*
#13800000
0*
#13850000
b101110 >
b0 ?
0-
0&
1*
#13900000
0*
#13950000
1-
b1 ?
b100000101110 4
b101110 3
b101110 '
b101110 0
b101110 =
1*
#14000000
0*
#14050000
b10 ?
1&
1*
#14100000
0*
#14150000
b101111 >
b0 ?
0-
0&
1*
#14200000
0*
#14250000
1-
b1 ?
b100000101111 4
b101111 3
b101111 '
b101111 0
b101111 =
1*
#14300000
0*
#14350000
b10 ?
1&
1*
#14400000
0*
#14450000
b110000 >
b0 ?
0-
0&
1*
#14500000
0*
#14550000
1-
b1 ?
b100000110000 4
b110000 3
b110000 '
b110000 0
b110000 =
1*
#14600000
0*
#14650000
b10 ?
1&
1*
#14700000
0*
#14750000
b110001 >
b0 ?
0-
0&
1*
#14800000
0*
#14850000
1-
b1 ?
b100000110001 4
b110001 3
b110001 '
b110001 0
b110001 =
1*
#14900000
0*
#14950000
b10 ?
1&
b100 $
b100 .
b100 8
1*
#15000000
0*
#15050000
b110010 >
b0 ?
0-
0&
1*
#15100000
0*
#15150000
1-
b1 ?
b100000110010 4
b110010 3
b110010 '
b110010 0
b110010 =
1*
#15200000
0*
#15250000
b10 ?
1&
1*
#15300000
0*
#15350000
b110011 >
b0 ?
0-
0&
1*
#15400000
0*
#15450000
1-
b1 ?
b100000110011 4
b110011 3
b110011 '
b110011 0
b110011 =
1*
#15500000
0*
#15550000
b10 ?
1&
1*
#15600000
0*
#15650000
b110100 >
b0 ?
0-
0&
1*
#15700000
0*
#15750000
1-
b1 ?
b100000110100 4
b110100 3
b110100 '
b110100 0
b110100 =
1*
#15800000
0*
#15850000
b10 ?
1&
1*
#15900000
0*
#15950000
b110101 >
b0 ?
0-
0&
1*
#16000000
0*
#16050000
1-
b1 ?
b100000110101 4
b110101 3
b110101 '
b110101 0
b110101 =
1*
#16100000
0*
#16150000
b10 ?
1&
b110 $
b110 .
b110 8
1*
#16200000
0*
#16250000
b110110 >
b0 ?
0-
0&
1*
#16300000
0*
#16350000
1-
b1 ?
b100000110110 4
b110110 3
b110110 '
b110110 0
b110110 =
1*
#16400000
0*
#16450000
b111 $
b111 .
b111 8
b10 ?
1&
1*
#16500000
0*
#16550000
b110111 >
b0 ?
0-
0&
1*
#16600000
0*
#16650000
1-
b1 ?
b100000110111 4
b110111 3
b110111 '
b110111 0
b110111 =
1*
#16700000
0*
#16750000
b10 ?
1&
1*
#16800000
0*
#16850000
b111000 >
b0 ?
0-
0&
1*
#16900000
0*
#16950000
1-
b1 ?
b100000111000 4
b111000 3
b111000 '
b111000 0
b111000 =
1*
#17000000
0*
#17050000
b10 ?
1&
1*
#17100000
0*
#17150000
b111001 >
b0 ?
0-
0&
1*
#17200000
0*
#17250000
1-
b1 ?
b100000111001 4
b111001 3
b111001 '
b111001 0
b111001 =
1*
#17300000
0*
#17350000
b10 ?
1&
1*
#17400000
0*
#17450000
b111010 >
b0 ?
0-
0&
1*
#17500000
0*
#17550000
1-
b1 ?
b100000111010 4
b111010 3
b111010 '
b111010 0
b111010 =
1*
#17600000
0*
#17650000
b0 $
b0 .
b0 8
b10 ?
1&
1*
#17700000
0*
#17750000
b111011 >
b0 ?
0-
0&
1*
#17800000
0*
#17850000
1-
b1 ?
b100000111011 4
b111011 3
b111011 '
b111011 0
b111011 =
1*
#17900000
0*
#17950000
b10 ?
1&
1*
#18000000
0*
#18050000
b111100 >
b0 ?
0-
0&
1*
#18100000
0*
#18150000
1-
b1 ?
b100000111100 4
b111100 3
b111100 '
b111100 0
b111100 =
1*
#18200000
0*
#18250000
b10 ?
1&
1*
#18300000
0*
#18350000
b111101 >
b0 ?
0-
0&
1*
#18400000
0*
#18450000
1-
b1 ?
b100000111101 4
b111101 3
b111101 '
b111101 0
b111101 =
1*
#18500000
0*
#18550000
b10 ?
1&
1*
#18600000
0*
#18650000
b111110 >
b0 ?
0-
0&
1*
#18700000
0*
#18750000
1-
b1 ?
b100000111110 4
b111110 3
b111110 '
b111110 0
b111110 =
1*
#18800000
0*
#18850000
b10 ?
1&
1*
#18900000
0*
#18950000
b111111 >
b0 ?
0-
0&
1*
#19000000
0*
#19050000
1-
b1 ?
b100000111111 4
b111111 3
b111111 '
b111111 0
b111111 =
1*
#19100000
0*
#19150000
b10 ?
1&
1*
#19200000
0*
#19250000
b0 >
1"
b11 ?
0-
0&
1*
#19300000
0*
#19350000
b101 ?
1&
1#
1*
#19400000
0*
#19450000
b1 A
b0 ?
0#
0&
1*
#19500000
0*
#19550000
0"
1-
b1 ?
b1 !
b1 ,
b1 @
b100001000000 4
b1000000 3
b0 '
b0 0
b0 =
1*
#19600000
0*
#19650000
b10 ?
1&
1*
#19700000
0*
#19750000
b1 >
b0 ?
0-
0&
1*
#19800000
0*
#19850000
1-
b1 ?
b100001000001 4
b1000001 3
b1 '
b1 0
b1 =
1*
#19900000
0*
#19950000
b10 ?
1&
1*
#20000000
0*
#20050000
b10 >
b0 ?
0-
0&
1*
#20100000
0*
#20150000
1-
b1 ?
b100001000010 4
b1000010 3
b10 '
b10 0
b10 =
1*
#20200000
0*
#20250000
b10 ?
1&
1*
#20300000
0*
#20350000
b11 >
b0 ?
0-
0&
1*
#20400000
0*
#20450000
1-
b1 ?
b100001000011 4
b1000011 3
b11 '
b11 0
b11 =
1*
#20500000
0*
#20550000
b10 ?
1&
1*
#20600000
0*
#20650000
b100 >
b0 ?
0-
0&
1*
#20700000
0*
#20750000
1-
b1 ?
b100001000100 4
b1000100 3
b100 '
b100 0
b100 =
1*
#20800000
0*
#20850000
b10 ?
1&
1*
#20900000
0*
#20950000
b101 >
b0 ?
0-
0&
1*
#21000000
0*
#21050000
1-
b1 ?
b100001000101 4
b1000101 3
b101 '
b101 0
b101 =
1*
#21100000
0*
#21150000
b10 ?
1&
b111 $
b111 .
b111 8
1*
#21200000
0*
#21250000
b110 >
b0 ?
0-
0&
1*
#21300000
0*
#21350000
1-
b1 ?
b100001000110 4
b1000110 3
b110 '
b110 0
b110 =
1*
#21400000
0*
#21450000
b10 ?
1&
1*
#21500000
0*
#21550000
b111 >
b0 ?
0-
0&
1*
#21600000
0*
#21650000
1-
b1 ?
b100001000111 4
b1000111 3
b111 '
b111 0
b111 =
1*
#21700000
0*
#21750000
b10 ?
1&
1*
#21800000
0*
#21850000
b1000 >
b0 ?
0-
0&
1*
#21900000
0*
#21950000
1-
b1 ?
b100001001000 4
b1001000 3
b1000 '
b1000 0
b1000 =
1*
#22000000
0*
#22050000
b10 ?
1&
1*
#22100000
0*
#22150000
b1001 >
b0 ?
0-
0&
1*
#22200000
0*
#22250000
1-
b1 ?
b100001001001 4
b1001001 3
b1001 '
b1001 0
b1001 =
1*
#22300000
0*
#22350000
b10 ?
1&
1*
#22400000
0*
#22450000
b1010 >
b0 ?
0-
0&
1*
#22500000
0*
#22550000
1-
b1 ?
b100001001010 4
b1001010 3
b1010 '
b1010 0
b1010 =
1*
#22600000
0*
#22650000
b110 $
b110 .
b110 8
b10 ?
1&
1*
#22700000
0*
#22750000
b1011 >
b0 ?
0-
0&
1*
#22800000
0*
#22850000
1-
b1 ?
b100001001011 4
b1001011 3
b1011 '
b1011 0
b1011 =
1*
#22900000
0*
#22950000
b10 ?
1&
b100 $
b100 .
b100 8
1*
#23000000
0*
#23050000
b1100 >
b0 ?
0-
0&
1*
#23100000
0*
#23150000
1-
b1 ?
b100001001100 4
b1001100 3
b1100 '
b1100 0
b1100 =
1*
#23200000
0*
#23250000
b10 ?
1&
1*
#23300000
0*
#23350000
b1101 >
b0 ?
0-
0&
1*
#23400000
0*
#23450000
1-
b1 ?
b100001001101 4
b1001101 3
b1101 '
b1101 0
b1101 =
1*
#23500000
0*
#23550000
b10 ?
1&
1*
#23600000
0*
#23650000
b1110 >
b0 ?
0-
0&
1*
#23700000
0*
#23750000
1-
b1 ?
b100001001110 4
b1001110 3
b1110 '
b1110 0
b1110 =
1*
#23800000
0*
#23850000
b10 ?
1&
1*
#23900000
0*
#23950000
b1111 >
b0 ?
0-
0&
1*
#24000000
0*
#24050000
1-
b1 ?
b100001001111 4
b1001111 3
b1111 '
b1111 0
b1111 =
1*
#24100000
0*
#24150000
b10 ?
1&
b111 $
b111 .
b111 8
1*
#24200000
0*
#24250000
b10000 >
b0 ?
0-
0&
1*
#24300000
0*
#24350000
1-
b1 ?
b100001010000 4
b1010000 3
b10000 '
b10000 0
b10000 =
1*
#24400000
0*
#24450000
b10 ?
1&
1*
#24500000
0*
#24550000
b10001 >
b0 ?
0-
0&
1*
#24600000
0*
#24650000
1-
b1 ?
b100001010001 4
b1010001 3
b10001 '
b10001 0
b10001 =
1*
#24700000
0*
#24750000
b10 ?
1&
1*
#24800000
0*
#24850000
b10010 >
b0 ?
0-
0&
1*
#24900000
0*
#24950000
1-
b1 ?
b100001010010 4
b1010010 3
b10010 '
b10010 0
b10010 =
1*
#25000000
0*
#25050000
b10 ?
1&
1*
#25100000
0*
#25150000
b10011 >
b0 ?
0-
0&
1*
#25200000
0*
#25250000
1-
b1 ?
b100001010011 4
b1010011 3
b10011 '
b10011 0
b10011 =
1*
#25300000
0*
#25350000
b10 ?
1&
1*
#25400000
0*
#25450000
b10100 >
b0 ?
0-
0&
1*
#25500000
0*
#25550000
1-
b1 ?
b100001010100 4
b1010100 3
b10100 '
b10100 0
b10100 =
1*
#25600000
0*
#25650000
b10 ?
1&
1*
#25700000
0*
#25750000
b10101 >
b0 ?
0-
0&
1*
#25800000
0*
#25850000
1-
b1 ?
b100001010101 4
b1010101 3
b10101 '
b10101 0
b10101 =
1*
#25900000
0*
#25950000
b10 ?
1&
1*
#26000000
0*
#26050000
b10110 >
b0 ?
0-
0&
1*
#26100000
0*
#26150000
1-
b1 ?
b100001010110 4
b1010110 3
b10110 '
b10110 0
b10110 =
1*
#26200000
0*
#26250000
b10 ?
1&
1*
#26300000
0*
#26350000
b10111 >
b0 ?
0-
0&
1*
#26400000
0*
#26450000
1-
b1 ?
b100001010111 4
b1010111 3
b10111 '
b10111 0
b10111 =
1*
#26500000
0*
#26550000
b10 ?
1&
1*
#26600000
0*
#26650000
b11000 >
b0 ?
0-
0&
1*
#26700000
0*
#26750000
1-
b1 ?
b100001011000 4
b1011000 3
b11000 '
b11000 0
b11000 =
1*
#26800000
0*
#26850000
b10 ?
1&
1*
#26900000
0*
#26950000
b11001 >
b0 ?
0-
0&
1*
#27000000
0*
#27050000
1-
b1 ?
b100001011001 4
b1011001 3
b11001 '
b11001 0
b11001 =
1*
#27100000
0*
#27150000
b10 ?
1&
1*
#27200000
0*
#27250000
b11010 >
b0 ?
0-
0&
1*
#27300000
0*
#27350000
1-
b1 ?
b100001011010 4
b1011010 3
b11010 '
b11010 0
b11010 =
1*
#27400000
0*
#27450000
b10 ?
1&
1*
#27500000
0*
#27550000
b11011 >
b0 ?
0-
0&
1*
#27600000
0*
#27650000
1-
b1 ?
b100001011011 4
b1011011 3
b11011 '
b11011 0
b11011 =
1*
#27700000
0*
#27750000
b10 ?
1&
1*
#27800000
0*
#27850000
b11100 >
b0 ?
0-
0&
1*
#27900000
0*
#27950000
1-
b1 ?
b100001011100 4
b1011100 3
b11100 '
b11100 0
b11100 =
1*
#28000000
0*
#28050000
b10 ?
1&
1*
#28100000
0*
#28150000
b11101 >
b0 ?
0-
0&
1*
#28200000
0*
#28250000
1-
b1 ?
b100001011101 4
b1011101 3
b11101 '
b11101 0
b11101 =
1*
#28300000
0*
#28350000
b10 ?
1&
1*
#28400000
0*
#28450000
b11110 >
b0 ?
0-
0&
1*
#28500000
0*
#28550000
1-
b1 ?
b100001011110 4
b1011110 3
b11110 '
b11110 0
b11110 =
1*
#28600000
0*
#28650000
b10 ?
1&
1*
#28700000
0*
#28750000
b11111 >
b0 ?
0-
0&
1*
#28800000
0*
#28850000
1-
b1 ?
b100001011111 4
b1011111 3
b11111 '
b11111 0
b11111 =
1*
#28900000
0*
#28950000
b10 ?
1&
1*
#29000000
0*
#29050000
b100000 >
b0 ?
0-
0&
1*
#29100000
0*
#29150000
1-
b1 ?
b100001100000 4
b1100000 3
b100000 '
b100000 0
b100000 =
1*
#29200000
0*
#29250000
b10 ?
1&
1*
#29300000
0*
#29350000
b100001 >
b0 ?
0-
0&
1*
#29400000
0*
#29450000
1-
b1 ?
b100001100001 4
b1100001 3
b100001 '
b100001 0
b100001 =
1*
#29500000
0*
#29550000
b10 ?
1&
1*
#29600000
0*
#29650000
b100010 >
b0 ?
0-
0&
1*
#29700000
0*
#29750000
1-
b1 ?
b100001100010 4
b1100010 3
b100010 '
b100010 0
b100010 =
1*
#29800000
0*
#29850000
b10 ?
1&
1*
#29900000
0*
#29950000
b100011 >
b0 ?
0-
0&
1*
#30000000
0*
#30050000
1-
b1 ?
b100001100011 4
b1100011 3
b100011 '
b100011 0
b100011 =
1*
#30100000
0*
#30150000
b10 ?
1&
1*
#30200000
0*
#30250000
b100100 >
b0 ?
0-
0&
1*
#30300000
0*
#30350000
1-
b1 ?
b100001100100 4
b1100100 3
b100100 '
b100100 0
b100100 =
1*
#30400000
0*
#30450000
b10 ?
1&
1*
#30500000
0*
#30550000
b100101 >
b0 ?
0-
0&
1*
#30600000
0*
#30650000
1-
b1 ?
b100001100101 4
b1100101 3
b100101 '
b100101 0
b100101 =
1*
#30700000
0*
#30750000
b10 ?
1&
1*
#30800000
0*
#30850000
b100110 >
b0 ?
0-
0&
1*
#30900000
0*
#30950000
1-
b1 ?
b100001100110 4
b1100110 3
b100110 '
b100110 0
b100110 =
1*
#31000000
0*
#31050000
b10 ?
1&
1*
#31100000
0*
#31150000
b100111 >
b0 ?
0-
0&
1*
#31200000
0*
#31250000
1-
b1 ?
b100001100111 4
b1100111 3
b100111 '
b100111 0
b100111 =
1*
#31300000
0*
#31350000
b10 ?
1&
1*
#31400000
0*
#31450000
b101000 >
b0 ?
0-
0&
1*
#31500000
0*
#31550000
1-
b1 ?
b100001101000 4
b1101000 3
b101000 '
b101000 0
b101000 =
1*
#31600000
0*
#31650000
b10 ?
1&
1*
#31700000
0*
#31750000
b101001 >
b0 ?
0-
0&
1*
#31800000
0*
#31850000
1-
b1 ?
b100001101001 4
b1101001 3
b101001 '
b101001 0
b101001 =
1*
#31900000
0*
#31950000
b10 ?
1&
1*
#32000000
0*
#32050000
b101010 >
b0 ?
0-
0&
1*
#32100000
0*
#32150000
1-
b1 ?
b100001101010 4
b1101010 3
b101010 '
b101010 0
b101010 =
1*
#32200000
0*
#32250000
b10 ?
1&
1*
#32300000
0*
#32350000
b101011 >
b0 ?
0-
0&
1*
#32400000
0*
#32450000
1-
b1 ?
b100001101011 4
b1101011 3
b101011 '
b101011 0
b101011 =
1*
#32500000
0*
#32550000
b10 ?
1&
1*
#32600000
0*
#32650000
b101100 >
b0 ?
0-
0&
1*
#32700000
0*
#32750000
1-
b1 ?
b100001101100 4
b1101100 3
b101100 '
b101100 0
b101100 =
1*
#32800000
0*
#32850000
b10 ?
1&
1*
#32900000
0*
#32950000
b101101 >
b0 ?
0-
0&
1*
#33000000
0*
#33050000
1-
b1 ?
b100001101101 4
b1101101 3
b101101 '
b101101 0
b101101 =
1*
#33100000
0*
#33150000
b10 ?
1&
1*
#33200000
0*
#33250000
b101110 >
b0 ?
0-
0&
1*
#33300000
0*
#33350000
1-
b1 ?
b100001101110 4
b1101110 3
b101110 '
b101110 0
b101110 =
1*
#33400000
0*
#33450000
b10 ?
1&
1*
#33500000
0*
#33550000
b101111 >
b0 ?
0-
0&
1*
#33600000
0*
#33650000
1-
b1 ?
b100001101111 4
b1101111 3
b101111 '
b101111 0
b101111 =
1*
#33700000
0*
#33750000
b10 ?
1&
1*
#33800000
0*
#33850000
b110000 >
b0 ?
0-
0&
1*
#33900000
0*
#33950000
1-
b1 ?
b100001110000 4
b1110000 3
b110000 '
b110000 0
b110000 =
1*
#34000000
0*
#34050000
b10 ?
1&
1*
#34100000
0*
#34150000
b110001 >
b0 ?
0-
0&
1*
#34200000
0*
#34250000
1-
b1 ?
b100001110001 4
b1110001 3
b110001 '
b110001 0
b110001 =
1*
#34300000
0*
#34350000
b10 ?
1&
b100 $
b100 .
b100 8
1*
#34400000
0*
#34450000
b110010 >
b0 ?
0-
0&
1*
#34500000
0*
#34550000
1-
b1 ?
b100001110010 4
b1110010 3
b110010 '
b110010 0
b110010 =
1*
#34600000
0*
#34650000
b10 ?
1&
1*
#34700000
0*
#34750000
b110011 >
b0 ?
0-
0&
1*
#34800000
0*
#34850000
1-
b1 ?
b100001110011 4
b1110011 3
b110011 '
b110011 0
b110011 =
1*
#34900000
0*
#34950000
b10 ?
1&
1*
#35000000
0*
#35050000
b110100 >
b0 ?
0-
0&
1*
#35100000
0*
