Praktischer Teil/Verilog/CPU/Prozessor/src/tb.vcd
$date
	Sat Dec 27 16:22:03 2025
$end
$version
	Icarus Verilog
$end
$timescale
	1ns
$end
$scope module tb_cpu $end
$var wire 4 ! pc_trace [3:0] $end
$var reg 1 " clk $end
$var reg 1 # rst $end
$scope module uut $end
$var wire 1 " clk $end
$var wire 1 # rst $end
$var wire 32 $ pc [31:0] $end
$var wire 32 % instr_addr [31:0] $end
$var wire 32 & instr [31:0] $end
$var wire 1 ' imem_ce $end
$var wire 1 ( dmem_write $end
$var wire 32 ) dmem_wdata [31:0] $end
$var wire 1 * dmem_read $end
$var wire 32 + dmem_rdata_connect [31:0] $end
$var wire 1 , dmem_ce $end
$var wire 32 - dmem_addr [31:0] $end
$var reg 4 . pc_trace [3:0] $end
$scope module dmem $end
$var wire 1 " clk $end
$var wire 1 # rst $end
$var wire 1 ( we $end
$var wire 32 / data_out [31:0] $end
$var wire 32 0 data_in [31:0] $end
$var wire 1 , ce $end
$var wire 32 1 addr [31:0] $end
$upscope $end
$scope module imem $end
$var wire 1 " clk $end
$var wire 1 2 oce $end
$var wire 1 # rst $end
$var wire 1 ' ce $end
$var wire 32 3 addr [31:0] $end
$var reg 32 4 dout [31:0] $end
$upscope $end
$scope module machine $end
$var wire 1 " clk $end
$var wire 32 5 dmem_rdata [31:0] $end
$var wire 32 6 instr [31:0] $end
$var wire 1 # rst $end
$var reg 32 7 dmem_addr [31:0] $end
$var reg 1 , dmem_ce $end
$var reg 1 * dmem_read $end
$var reg 32 8 dmem_wdata [31:0] $end
$var reg 1 ( dmem_write $end
$var reg 3 9 funct3 [2:0] $end
$var reg 7 : funct7 [6:0] $end
$var reg 1 ' imem_ce $end
$var reg 32 ; imm [31:0] $end
$var reg 32 < instr_addr [31:0] $end
$var reg 7 = opcode [6:0] $end
$var reg 32 > pc [31:0] $end
$var reg 32 ? pc_next [31:0] $end
$var reg 5 @ rd [4:0] $end
$var reg 5 A rs1 [4:0] $end
$var reg 5 B rs2 [4:0] $end
$var reg 5 C shift_amt [4:0] $end
$var reg 3 D state [2:0] $end
$var reg 32 E tmp_mem_addr [31:0] $end
$var reg 32 F tmp_memw_data [31:0] $end
$var reg 32 G tmp_rd [31:0] $end
$var integer 32 H i [31:0] $end
$scope task show_instruction $end
$var reg 3 I funct3 [2:0] $end
$var reg 7 J funct7 [6:0] $end
$var reg 32 K imm [31:0] $end
$var reg 32 L instr [31:0] $end
$var reg 7 M opcode [6:0] $end
$var reg 5 N rd [4:0] $end
$var reg 5 O rs1 [4:0] $end
$var reg 5 P rs2 [4:0] $end
$upscope $end
$upscope $end
$upscope $end
$upscope $end
$enddefinitions $end
$comment Show the parameter values. $end
$dumpall
$end
#0
$dumpvars
bx P
bx O
bx N
bx M
bx L
bx K
bx J
bx I
b100000 H
bx G
bx F
bx E
b0 D
bx C
bx B
bx A
bx @
b0 ?
b0 >
bx =
b0 <
bx ;
bx :
bx 9
bx 8
b0 7
bx 6
b0 5
bx 4
b0 3
12
b0 1
bx 0
b0 /
bx .
b0 -
0,
b0 +
0*
bx )
0(
0'
bx &
b0 %
b0 $
1#
0"
bx !
$end
#25
b0 &
b0 4
b0 6
b0 !
b0 .
b100000 H
1"
#50
0"
#75
b100000 H
1"
#100
0"
#125
b100000 H
1"
#150
0"
0#
#175
b1 D
b100 ?
1'
1"
#200
0"
#225
b10100000000000010010011 &
b10100000000000010010011 4
b10100000000000010010011 6
b10 D
b0 ;
b0 :
b0 B
b0 A
b0 9
b0 @
b0 =
1"
#250
0"
#275
b11 D
0'
1"
#300
0"
#325
b100 D
1"
#350
0"
#375
b0 D
b100 $
b100 >
b101 K
b0 J
b101 P
b0 O
b0 I
b1 N
b10011 M
b10100000000000010010011 L
1"
#400
0"
#425
b100 !
b100 .
b1 D
b1000 ?
b100 %
b100 3
b100 <
1'
1"
#450
0"
#475
bx &
bx 4
bx 6
b10 D
b101 B
b1 @
b10011 =
1"
#500
0"
#525
b11 D
b0 G
0'
1"
#550
0"
#575
b100 D
1"
#600
0"
#625
b0 D
b1000 $
b1000 >
b0 K
bx J
bx P
bx O
bx I
bx N
bx M
bx L
1"
#650
0"
#675
b1000 !
b1000 .
b1 D
b1100 ?
b1000 %
b1000 3
b1000 <
1'
1"
#700
0"
#725
b10 D
bx ;
bx :
bx B
bx A
bx 9
bx @
bx =
1"
#750
0"
#775
b11 D
0'
1"
#800
0"
#825
b100 D
1"
#850
0"
#875
b0 D
b1100 $
b1100 >
1"
#900
0"
#925
b1100 !
b1100 .
b1 D
b10000 ?
b1100 %
b1100 3
b1100 <
1'
1"
#950
0"
#975
b10 D
b0 ;
1"
#1000
0"
#1025
b11 D
0'
1"
#1050
0"
#1075
b100 D
1"
#1100
0"
#1125
b0 D
b10000 $
b10000 >
1"
#1150
0"
#1175
b0 !
b0 .
b1 D
b10100 ?
b10000 %
b10000 3
b10000 <
1'
1"
#1200
0"
#1225
b10 D
1"
#1250
0"
#1275
b11 D
0'
1"
#1300
0"
#1325
b100 D
1"
#1350
0"
#1375
b0 D
b10100 $
b10100 >
1"
#1400
0"
#1425
b100 !
b100 .
b1 D
b11000 ?
b10100 %
b10100 3
b10100 <
1'
1"
#1450
0"
#1475
b10 D
1"
#1500
0"
#1525
b11 D
0'
1"
#1550
0"
#1575
b100 D
1"
#1600
0"
#1625
b0 D
b11000 $
b11000 >
1"
#1650
0"
#1675
b1000 !
b1000 .
b1 D
b11100 ?
b11000 %
b11000 3
b11000 <
1'
1"
#1700
0"
#1725
b10 D
1"
#1750
0"
#1775
b11 D
0'
1"
#1800
0"
#1825
b100 D
1"
#1850
0"
#1875
b0 D
b11100 $
b11100 >
1"
#1900
0"
#1925
b1100 !
b1100 .
b1 D
b100000 ?
b11100 %
b11100 3
b11100 <
1'
1"
#1950
0"
#1975
b10 D
1"
#2000
0"
#2025
b11 D
0'
1"
#2050
0"
#2075
b100 D
1"
#2100
0"
#2125
b0 D
b100000 $
b100000 >
1"
#2150
0"
#2175
b0 !
b0 .
b1 D
b100100 ?
b100000 %
b100000 3
b100000 <
1'
1"
#2200
0"
#2225
b10 D
1"
#2250
0"
#2275
b11 D
0'
1"
#2300
0"
#2325
b100 D
1"
#2350
0"
#2375
b0 D
b100100 $
b100100 >
1"
#2400
0"
#2425
b100 !
b100 .
b1 D
b101000 ?
b100100 %
b100100 3
b100100 <
1'
1"
#2450
0"
#2475
b10 D
1"
#2500
0"
#2525
b11 D
0'
1"
#2550
0"
#2575
b100 D
1"
#2600
0"
#2625
b0 D
b101000 $
b101000 >
1"
#2650
0"
#2675
b1000 !
b1000 .
b1 D
b101100 ?
b101000 %
b101000 3
b101000 <
1'
1"
#2700
0"
#2725
b10 D
1"
#2750
0"
#2775
b11 D
0'
1"
#2800
0"
#2825
b100 D
1"
#2850
0"
#2875
b0 D
b101100 $
b101100 >
1"
#2900
0"
#2925
b1100 !
b1100 .
b1 D
b110000 ?
b101100 %
b101100 3
b101100 <
1'
1"
#2950
0"
#2975
b10 D
1"
#3000
0"
#3025
b11 D
0'
1"
#3050
0"
#3075
b100 D
1"
#3100
0"
#3125
b0 D
b110000 $
b110000 >
1"
#3150
0"
#3175
b0 !
b0 .
b1 D
b110100 ?
b110000 %
b110000 3
b110000 <
1'
1"
#3200
0"
#3225
b10 D
1"
#3250
0"
#3275
b11 D
0'
1"
#3300
0"
#3325
b100 D
1"
#3350
0"
#3375
b0 D
b110100 $
b110100 >
1"
#3400
0"
#3425
b100 !
b100 .
b1 D
b111000 ?
b110100 %
b110100 3
b110100 <
1'
1"
#3450
0"
#3475
b10 D
1"
#3500
0"
#3525
b11 D
0'
1"
#3550
0"
#3575
b100 D
1"
#3600
0"
#3625
b0 D
b111000 $
b111000 >
1"
#3650
0"
#3675
b1000 !
b1000 .
b1 D
b111100 ?
b111000 %
b111000 3
b111000 <
1'
1"
#3700
0"
#3725
b10 D
1"
#3750
0"
#3775
b11 D
0'
1"
#3800
0"
#3825
b100 D
1"
#3850
0"
#3875
b0 D
b111100 $
b111100 >
1"
#3900
0"
#3925
b1100 !
b1100 .
b1 D
b1000000 ?
b111100 %
b111100 3
b111100 <
1'
1"
#3950
0"
#3975
b10 D
1"
#4000
0"
#4025
b11 D
0'
1"
#4050
0"
#4075
b100 D
1"
#4100
0"
#4125
b0 D
b1000000 $
b1000000 >
1"
#4150
0"
#4175
b0 !
b0 .
b1 D
b1000100 ?
b1000000 %
b1000000 3
b1000000 <
1'
1"
#4200
0"
#4225
b10 D
1"
#4250
0"
#4275
b11 D
0'
1"
#4300
0"
#4325
b100 D
1"
#4350
0"
#4375
b0 D
b1000100 $
b1000100 >
1"
#4400
0"
#4425
b100 !
b100 .
b1 D
b1001000 ?
b1000100 %
b1000100 3
b1000100 <
1'
1"
#4450
0"
#4475
b10 D
1"
#4500
0"
#4525
b11 D
0'
1"
#4550
0"
#4575
b100 D
1"
#4600
0"
#4625
b0 D
b1001000 $
b1001000 >
1"
#4650
0"
#4675
b1000 !
b1000 .
b1 D
b1001100 ?
b1001000 %
b1001000 3
b1001000 <
1'
1"
#4700
0"
#4725
b10 D
1"
#4750
0"
#4775
b11 D
0'
1"
#4800
0"
#4825
b100 D
1"
#4850
0"
#4875
b0 D
b1001100 $
b1001100 >
1"
#4900
0"
#4925
b1100 !
b1100 .
b1 D
b1010000 ?
b1001100 %
b1001100 3
b1001100 <
1'
1"
#4950
0"
#4975
b10 D
1"
#5000
0"
#5025
b11 D
0'
1"
#5050
0"
#5075
b100 D
1"
#5100
0"
#5125
b0 D
b1010000 $
b1010000 >
1"
#5150
0"
#5175
b0 !
b0 .
b1 D
b1010100 ?
b1010000 %
b1010000 3
b1010000 <
1'
1"
#5200
0"
#5225
b10 D
1"
#5250
0"
#5275
b11 D
0'
1"
#5300
0"
#5325
b100 D
1"
#5350
0"
#5375
b0 D
b1010100 $
b1010100 >
1"
#5400
0"
#5425
b100 !
b100 .
b1 D
b1011000 ?
b1010100 %
b1010100 3
b1010100 <
1'
1"
#5450
0"
#5475
b10 D
1"
#5500
0"
#5525
b11 D
0'
1"
#5550
0"
#5575
b100 D
1"
#5600
0"
#5625
b0 D
b1011000 $
b1011000 >
1"
#5650
0"
#5675
b1000 !
b1000 .
b1 D
b1011100 ?
b1011000 %
b1011000 3
b1011000 <
1'
1"
#5700
0"
#5725
b10 D
1"
#5750
0"
#5775
b11 D
0'
1"
#5800
0"
#5825
b100 D
1"
#5850
0"
#5875
b0 D
b1011100 $
b1011100 >
1"
#5900
0"
#5925
b1100 !
b1100 .
b1 D
b1100000 ?
b1011100 %
b1011100 3
b1011100 <
1'
1"
#5950
0"
#5975
b10 D
1"
#6000
0"
#6025
b11 D
0'
1"
#6050
0"
#6075
b100 D
1"
#6100
0"
#6125
b0 D
b1100000 $
b1100000 >
1"
#6150
0"
#6175
b0 !
b0 .
b1 D
b1100100 ?
b1100000 %
b1100000 3
b1100000 <
1'
1"
#6200
0"
#6225
b10 D
1"
#6250
0"
#6275
b11 D
0'
1"
#6300
0"
#6325
b100 D
1"
#6350
0"
#6375
b0 D
b1100100 $
b1100100 >
1"
#6400
0"
#6425
b100 !
b100 .
b1 D
b1101000 ?
b1100100 %
b1100100 3
b1100100 <
1'
1"
#6450
0"
#6475
b10 D
1"
#6500
0"
#6525
b11 D
0'
1"
#6550
0"
#6575
b100 D
1"
#6600
0"
#6625
b0 D
b1101000 $
b1101000 >
1"
#6650
0"
#6675
b1000 !
b1000 .
b1 D
b1101100 ?
b1101000 %
b1101000 3
b1101000 <
1'
1"
#6700
0"
#6725
b10 D
1"
#6750
0"
#6775
b11 D
0'
1"
#6800
0"
#6825
b100 D
1"
#6850
0"
#6875
b0 D
b1101100 $
b1101100 >
1"
#6900
0"
#6925
b1100 !
b1100 .
b1 D
b1110000 ?
b1101100 %
b1101100 3
b1101100 <
1'
1"
#6950
0"
#6975
b10 D
1"
#7000
0"
#7025
b11 D
0'
1"
#7050
0"
#7075
b100 D
1"
#7100
0"
#7125
b0 D
b1110000 $
b1110000 >
1"
#7150
0"
#7175
b0 !
b0 .
b1 D
b1110100 ?
b1110000 %
b1110000 3
b1110000 <
1'
1"
#7200
0"
#7225
b10 D
1"
#7250
0"
#7275
b11 D
0'
1"
#7300
0"
#7325
b100 D
1"
#7350
0"
#7375
b0 D
b1110100 $
b1110100 >
1"
#7400
0"
#7425
b100 !
b100 .
b1 D
b1111000 ?
b1110100 %
b1110100 3
b1110100 <
1'
1"
#7450
0"
#7475
b10 D
1"
#7500
0"
#7525
b11 D
0'
1"
#7550
0"
#7575
b100 D
1"
#7600
0"
#7625
b0 D
b1111000 $
b1111000 >
1"
#7650
0"
#7675
b1000 !
b1000 .
b1 D
b1111100 ?
b1111000 %
b1111000 3
b1111000 <
1'
1"
#7700
0"
#7725
b10 D
1"
#7750
0"
#7775
b11 D
0'
1"
#7800
0"
#7825
b100 D
1"
#7850
0"
#7875
b0 D
b1111100 $
b1111100 >
1"
#7900
0"
#7925
b1100 !
b1100 .
b1 D
b10000000 ?
b1111100 %
b1111100 3
b1111100 <
1'
1"
#7950
0"
#7975
b10 D
1"
#8000
0"
#8025
b11 D
0'
1"
#8050
0"
#8075
b100 D
1"
#8100
0"
#8125
b0 D
b10000000 $
b10000000 >
1"
#8150
0"
#8175
b0 !
b0 .
b1 D
b10000100 ?
b10000000 %
b10000000 3
b10000000 <
1'
1"
#8200
0"
#8225
b10 D
1"
#8250
0"
#8275
b11 D
0'
1"
#8300
0"
#8325
b100 D
1"
#8350
0"
#8375
b0 D
b10000100 $
b10000100 >
1"
#8400
0"
#8425
b100 !
b100 .
b1 D
b10001000 ?
b10000100 %
b10000100 3
b10000100 <
1'
1"
#8450
0"
#8475
b10 D
1"
#8500
0"
#8525
b11 D
0'
1"
#8550
0"
#8575
b100 D
1"
#8600
0"
#8625
b0 D
b10001000 $
b10001000 >
1"
#8650
0"
#8675
b1000 !
b1000 .
b1 D
b10001100 ?
b10001000 %
b10001000 3
b10001000 <
1'
1"
#8700
0"
#8725
b10 D
1"
#8750
0"
#8775
b11 D
0'
1"
#8800
0"
#8825
b100 D
1"
#8850
0"
#8875
b0 D
b10001100 $
b10001100 >
1"
#8900
0"
#8925
b1100 !
b1100 .
b1 D
b10010000 ?
b10001100 %
b10001100 3
b10001100 <
1'
1"
#8950
0"
#8975
b10 D
1"
#9000
0"
#9025
b11 D
0'
1"
#9050
0"
#9075
b100 D
1"
#9100
0"
#9125
b0 D
b10010000 $
b10010000 >
1"
#9150
0"
#9175
b0 !
b0 .
b1 D
b10010100 ?
b10010000 %
b10010000 3
b10010000 <
1'
1"
#9200
0"
#9225
b10 D
1"
#9250
0"
#9275
b11 D
0'
1"
#9300
0"
#9325
b100 D
1"
#9350
0"
#9375
b0 D
b10010100 $
b10010100 >
1"
#9400
0"
#9425
b100 !
b100 .
b1 D
b10011000 ?
b10010100 %
b10010100 3
b10010100 <
1'
1"
#9450
0"
#9475
b10 D
1"
#9500
0"
#9525
b11 D
0'
1"
#9550
0"
#9575
b100 D
1"
#9600
0"
#9625
b0 D
b10011000 $
b10011000 >
1"
#9650
0"
#9675
b1000 !
b1000 .
b1 D
b10011100 ?
b10011000 %
b10011000 3
b10011000 <
1'
1"
#9700
0"
#9725
b10 D
1"
#9750
0"
#9775
b11 D
0'
1"
#9800
0"
#9825
b100 D
1"
#9850
0"
#9875
b0 D
b10011100 $
b10011100 >
1"
#9900
0"
#9925
b1100 !
b1100 .
b1 D
b10100000 ?
b10011100 %
b10011100 3
b10011100 <
1'
1"
#9950
0"
#9975
b10 D
1"
