Praktischer Teil/Verilog/CPU/Prozessor/src/tb.vcd
$date
	Sun Dec 28 22:00:16 2025
$end
$version
	Icarus Verilog
$end
$timescale
	1ns
$end
$scope module tb_cpu $end
$var wire 4 ! pc_trace [3:0] $end
$var reg 1 " clk $end
$var reg 1 # rst $end
$scope module uut $end
$var wire 1 " clk $end
$var wire 1 # rst $end
$var wire 32 $ pc [31:0] $end
$var wire 32 % instr_addr [31:0] $end
$var wire 32 & instr [31:0] $end
$var wire 1 ' imem_ce $end
$var wire 4 ( dmem_write [3:0] $end
$var wire 32 ) dmem_wdata [31:0] $end
$var wire 1 * dmem_read $end
$var wire 32 + dmem_rdata_connect [31:0] $end
$var wire 1 , dmem_ce $end
$var wire 32 - dmem_addr [31:0] $end
$var reg 4 . pc_trace [3:0] $end
$scope module dmem $end
$var wire 1 " clk $end
$var wire 1 # rst $end
$var wire 4 / we [3:0] $end
$var wire 1 * re $end
$var wire 32 0 data_in [31:0] $end
$var wire 1 , ce $end
$var wire 32 1 addr [31:0] $end
$var reg 32 2 data_out [31:0] $end
$upscope $end
$scope module imem $end
$var wire 1 " clk $end
$var wire 1 3 oce $end
$var wire 1 # rst $end
$var wire 32 4 dout [31:0] $end
$var wire 1 ' ce $end
$var wire 32 5 addr [31:0] $end
$upscope $end
$scope module machine $end
$var wire 1 " clk $end
$var wire 32 6 dmem_rdata [31:0] $end
$var wire 32 7 instr [31:0] $end
$var wire 1 # rst $end
$var wire 32 8 x0 [31:0] $end
$var wire 32 9 x1 [31:0] $end
$var wire 32 : x2 [31:0] $end
$var wire 32 ; x3 [31:0] $end
$var wire 32 < x4 [31:0] $end
$var wire 32 = x5 [31:0] $end
$var reg 32 > dmem_addr [31:0] $end
$var reg 1 , dmem_ce $end
$var reg 1 * dmem_read $end
$var reg 32 ? dmem_wdata [31:0] $end
$var reg 4 @ dmem_write [3:0] $end
$var reg 3 A funct3 [2:0] $end
$var reg 7 B funct7 [6:0] $end
$var reg 1 ' imem_ce $end
$var reg 32 C imm [31:0] $end
$var reg 32 D instr_addr [31:0] $end
$var reg 7 E opcode [6:0] $end
$var reg 32 F pc [31:0] $end
$var reg 32 G pc_next [31:0] $end
$var reg 5 H rd [4:0] $end
$var reg 5 I rs1 [4:0] $end
$var reg 5 J rs2 [4:0] $end
$var reg 5 K shift_amt [4:0] $end
$var reg 3 L state [2:0] $end
$var reg 32 M tmp_mem_addr [31:0] $end
$var reg 32 N tmp_memw_data [31:0] $end
$var reg 32 O tmp_rd [31:0] $end
$var integer 32 P i [31:0] $end
$scope task show_instruction $end
$var reg 3 Q funct3 [2:0] $end
$var reg 7 R funct7 [6:0] $end
$var reg 32 S imm [31:0] $end
$var reg 32 T instr [31:0] $end
$var reg 7 U opcode [6:0] $end
$var reg 5 V rd [4:0] $end
$var reg 5 W rs1 [4:0] $end
$var reg 5 X rs2 [4:0] $end
$upscope $end
$upscope $end
$upscope $end
$upscope $end
$enddefinitions $end
$comment Show the parameter values. $end
$dumpall
$end
#0
$dumpvars
bx X
bx W
bx V
bx U
bx T
bx S
bx R
bx Q
b100000 P
b0 O
bx N
bx M
b0 L
bx K
bx J
bx I
bx H
b0 G
b0 F
bx E
b0 D
bx C
bx B
bx A
b0 @
bx ?
b0 >
b0 =
b0 <
b0 ;
b0 :
b0 9
b0 8
b0 7
bx 6
b0 5
b0 4
13
bx 2
b0 1
bx 0
b0 /
bx .
b0 -
0,
bx +
0*
bx )
b0 (
0'
b0 &
b0 %
b0 $
1#
0"
bx !
$end
#25
b0 !
b0 .
b100000 P
1"
#50
0"
#75
b100000 P
1"
#100
0"
#125
b100000 P
1"
#150
0"
0#
#175
b11001000000000000000100010011 &
b11001000000000000000100010011 4
b11001000000000000000100010011 7
b1 L
b100 G
1'
1"
#200
0"
#225
b10 L
b110010000 C
b1100 B
b10000 J
b0 I
b0 A
b10 H
b10011 E
1"
#250
0"
#275
b0 &
b0 4
b0 7
b11 L
b110010000 O
0'
1"
#300
0"
#325
b100 L
1"
#350
0"
#375
b101 L
1"
#400
0"
#425
b0 L
b110010000 :
b100 $
b100 F
b0 )
b0 0
b0 ?
b0 S
b0 R
b0 X
b0 W
b0 Q
b0 V
b0 U
b0 T
1"
#450
0"
#475
b11111001110000000000000010010011 &
b11111001110000000000000010010011 4
b11111001110000000000000010010011 7
b100 !
b100 .
b1 L
b1000 G
b100 %
b100 5
b100 D
1'
1"
#500
0"
#525
b10 L
b11111111111111111111111110011100 C
b1111100 B
b11100 J
b1 H
1"
#550
0"
#575
b0 &
b0 4
b0 7
b11 L
b11111111111111111111111110011100 O
0'
1"
#600
0"
#625
b100 L
1"
#650
0"
#675
b101 L
1"
#700
0"
#725
b0 L
b11111111111111111111111110011100 9
b1000 $
b1000 F
1"
#750
0"
#775
b1000000010100000100011 &
b1000000010100000100011 4
b1000000010100000100011 7
b1000 !
b1000 .
b1 L
b1100 G
b1000 %
b1000 5
b1000 D
1'
1"
#800
0"
#825
b10 L
b10000 C
b0 B
b10 J
b10 A
b10000 H
b100011 E
1"
#850
0"
#875
b0 &
b0 4
b0 7
b11 L
b110010000 N
b10000 -
b10000 1
b10000 >
b10000 M
1,
0'
1"
#900
0"
#925
b110010000 )
b110010000 0
b110010000 ?
b1111 (
b1111 /
b1111 @
b100 L
1"
#950
0"
#975
b101 L
1"
#1000
0"
#1025
b0 L
b1100 $
b1100 F
b0 -
b0 1
b0 >
b0 )
b0 0
b0 ?
b0 (
b0 /
b0 @
0,
1"
#1050
0"
#1075
b11000000100000010100000100011 &
b11000000100000010100000100011 4
b11000000100000010100000100011 7
b1100 !
b1100 .
b1 L
b10000 G
b1100 %
b1100 5
b1100 D
1'
1"
#1100
0"
#1125
b10 L
b110010000 C
b1100 B
b1 J
1"
#1150
0"
#1175
b0 &
b0 4
b0 7
b11 L
b11111111111111111111111110011100 N
b110010000 -
b110010000 1
b110010000 >
b110010000 M
1,
0'
1"
#1200
0"
#1225
b11111111111111111111111110011100 )
b11111111111111111111111110011100 0
b11111111111111111111111110011100 ?
b1111 (
b1111 /
b1111 @
b100 L
1"
#1250
0"
#1275
b101 L
1"
#1300
0"
#1325
b0 L
b10000 $
b10000 F
b0 -
b0 1
b0 >
b0 )
b0 0
b0 ?
b0 (
b0 /
b0 @
0,
1"
#1350
0"
#1375
b11001000000000010000110000011 &
b11001000000000010000110000011 4
b11001000000000010000110000011 7
b0 !
b0 .
b1 L
b10100 G
b10000 %
b10000 5
b10000 D
1'
1"
#1400
0"
#1425
b10 L
b10000 J
b11 H
b11 E
1"
#1450
0"
#1475
b0 &
b0 4
b0 7
b11 L
b110010000 -
b110010000 1
b110010000 >
1*
1,
0'
1"
#1500
0"
#1525
b11111111111111111111111110011100 +
b11111111111111111111111110011100 2
b11111111111111111111111110011100 6
b100 L
1"
#1550
0"
#1575
b101 L
1"
#1600
0"
#1625
b0 L
b11111111111111111111111110011100 ;
b10100 $
b10100 F
b0 -
b0 1
b0 >
0*
0,
1"
#1650
0"
#1675
b1000000000010001000000011 &
b1000000000010001000000011 4
b1000000000010001000000011 7
b100 !
b100 .
b1 L
b11000 G
b10100 %
b10100 5
b10100 D
1'
1"
#1700
0"
#1725
b10 L
b10000 C
b0 B
b100 H
1"
#1750
0"
#1775
b0 &
b0 4
b0 7
b11 L
b10000 -
b10000 1
b10000 >
b10000 M
1*
1,
0'
1"
#1800
0"
#1825
b110010000 +
b110010000 2
b110010000 6
b100 L
1"
#1850
0"
#1875
b110010000 O
b101 L
1"
#1900
0"
#1925
b0 L
b110010000 <
b11000 $
b11000 F
b0 -
b0 1
b0 >
0*
0,
1"
#1950
0"
#1975
bx &
bx 4
bx 7
b1000 !
b1000 .
b1 L
b11100 G
b11000 %
b11000 5
b11000 D
1'
1"
#2000
0"
#2025
b10 L
b0 C
bx B
bx J
bx I
bx A
bx H
bx E
1"
#2050
0"
#2075
b0 &
b0 4
b0 7
b11 L
0'
1"
#2100
0"
#2125
b100 L
1"
#2150
0"
#2175
b101 L
1"
#2200
0"
#2225
b0 L
b11100 $
b11100 F
1"
#2250
0"
#2275
bx &
bx 4
bx 7
b1100 !
b1100 .
b1 L
b100000 G
b11100 %
b11100 5
b11100 D
1'
1"
#2300
0"
#2325
b10 L
1"
#2350
0"
#2375
b0 &
b0 4
b0 7
b11 L
0'
1"
#2400
0"
#2425
b100 L
1"
#2450
0"
#2475
b101 L
1"
#2500
0"
#2525
b0 L
b100000 $
b100000 F
1"
#2550
0"
#2575
bx &
bx 4
bx 7
b0 !
b0 .
b1 L
b100100 G
b100000 %
b100000 5
b100000 D
1'
1"
#2600
0"
#2625
b10 L
1"
#2650
0"
#2675
b0 &
b0 4
b0 7
b11 L
0'
1"
#2700
0"
#2725
b100 L
1"
#2750
0"
#2775
b101 L
1"
#2800
0"
#2825
b0 L
b100100 $
b100100 F
1"
#2850
0"
#2875
bx &
bx 4
bx 7
b100 !
b100 .
b1 L
b101000 G
b100100 %
b100100 5
b100100 D
1'
1"
#2900
0"
#2925
b10 L
1"
#2950
0"
#2975
b0 &
b0 4
b0 7
b11 L
0'
1"
#3000
0"
#3025
b100 L
1"
#3050
0"
#3075
b101 L
1"
#3100
0"
#3125
b0 L
b101000 $
b101000 F
1"
#3150
0"
#3175
bx &
bx 4
bx 7
b1000 !
b1000 .
b1 L
b101100 G
b101000 %
b101000 5
b101000 D
1'
1"
#3200
0"
#3225
b10 L
1"
#3250
0"
#3275
b0 &
b0 4
b0 7
b11 L
0'
1"
#3300
0"
#3325
b100 L
1"
#3350
0"
#3375
b101 L
1"
#3400
0"
#3425
b0 L
b101100 $
b101100 F
1"
#3450
0"
#3475
bx &
bx 4
bx 7
b1100 !
b1100 .
b1 L
b110000 G
b101100 %
b101100 5
b101100 D
1'
1"
#3500
0"
#3525
b10 L
1"
#3550
0"
#3575
b0 &
b0 4
b0 7
b11 L
0'
1"
#3600
0"
#3625
b100 L
1"
#3650
0"
#3675
b101 L
1"
#3700
0"
#3725
b0 L
b110000 $
b110000 F
1"
#3750
0"
#3775
bx &
bx 4
bx 7
b0 !
b0 .
b1 L
b110100 G
b110000 %
b110000 5
b110000 D
1'
1"
#3800
0"
#3825
b10 L
1"
#3850
0"
#3875
b0 &
b0 4
b0 7
b11 L
0'
1"
#3900
0"
#3925
b100 L
1"
#3950
0"
#3975
b101 L
1"
#4000
0"
#4025
b0 L
b110100 $
b110100 F
1"
#4050
0"
#4075
bx &
bx 4
bx 7
b100 !
b100 .
b1 L
b111000 G
b110100 %
b110100 5
b110100 D
1'
1"
#4100
0"
#4125
b10 L
1"
#4150
0"
#4175
b0 &
b0 4
b0 7
b11 L
0'
1"
#4200
0"
#4225
b100 L
1"
#4250
0"
#4275
b101 L
1"
#4300
0"
#4325
b0 L
b111000 $
b111000 F
1"
#4350
0"
#4375
bx &
bx 4
bx 7
b1000 !
b1000 .
b1 L
b111100 G
b111000 %
b111000 5
b111000 D
1'
1"
#4400
0"
#4425
b10 L
1"
#4450
0"
#4475
b0 &
b0 4
b0 7
b11 L
0'
1"
#4500
0"
#4525
b100 L
1"
#4550
0"
#4575
b101 L
1"
#4600
0"
#4625
b0 L
b111100 $
b111100 F
1"
#4650
0"
#4675
bx &
bx 4
bx 7
b1100 !
b1100 .
b1 L
b1000000 G
b111100 %
b111100 5
b111100 D
1'
1"
#4700
0"
#4725
b10 L
1"
#4750
0"
#4775
b0 &
b0 4
b0 7
b11 L
0'
1"
#4800
0"
#4825
b100 L
1"
#4850
0"
#4875
b101 L
1"
#4900
0"
#4925
b0 L
b1000000 $
b1000000 F
1"
#4950
0"
#4975
bx &
bx 4
bx 7
b0 !
b0 .
b1 L
b1000100 G
b1000000 %
b1000000 5
b1000000 D
1'
1"
#5000
0"
#5025
b10 L
1"
#5050
0"
#5075
b0 &
b0 4
b0 7
b11 L
0'
1"
#5100
0"
#5125
b100 L
1"
#5150
0"
#5175
b101 L
1"
#5200
0"
#5225
b0 L
b1000100 $
b1000100 F
1"
#5250
0"
#5275
bx &
bx 4
bx 7
b100 !
b100 .
b1 L
b1001000 G
b1000100 %
b1000100 5
b1000100 D
1'
1"
#5300
0"
#5325
b10 L
1"
#5350
0"
#5375
b0 &
b0 4
b0 7
b11 L
0'
1"
#5400
0"
#5425
b100 L
1"
#5450
0"
#5475
b101 L
1"
#5500
0"
#5525
b0 L
b1001000 $
b1001000 F
1"
#5550
0"
#5575
bx &
bx 4
bx 7
b1000 !
b1000 .
b1 L
b1001100 G
b1001000 %
b1001000 5
b1001000 D
1'
1"
#5600
0"
#5625
b10 L
1"
#5650
0"
#5675
b0 &
b0 4
b0 7
b11 L
0'
1"
#5700
0"
#5725
b100 L
1"
#5750
0"
#5775
b101 L
1"
#5800
0"
#5825
b0 L
b1001100 $
b1001100 F
1"
#5850
0"
#5875
bx &
bx 4
bx 7
b1100 !
b1100 .
b1 L
b1010000 G
b1001100 %
b1001100 5
b1001100 D
1'
1"
#5900
0"
#5925
b10 L
1"
#5950
0"
#5975
b0 &
b0 4
b0 7
b11 L
0'
1"
#6000
0"
#6025
b100 L
1"
#6050
0"
#6075
b101 L
1"
#6100
0"
#6125
b0 L
b1010000 $
b1010000 F
1"
#6150
0"
#6175
bx &
bx 4
bx 7
b0 !
b0 .
b1 L
b1010100 G
b1010000 %
b1010000 5
b1010000 D
1'
1"
#6200
0"
#6225
b10 L
1"
#6250
0"
#6275
b0 &
b0 4
b0 7
b11 L
0'
1"
#6300
0"
#6325
b100 L
1"
#6350
0"
#6375
b101 L
1"
#6400
0"
#6425
b0 L
b1010100 $
b1010100 F
1"
#6450
0"
#6475
bx &
bx 4
bx 7
b100 !
b100 .
b1 L
b1011000 G
b1010100 %
b1010100 5
b1010100 D
1'
1"
#6500
0"
#6525
b10 L
1"
#6550
0"
#6575
b0 &
b0 4
b0 7
b11 L
0'
1"
#6600
0"
#6625
b100 L
1"
#6650
0"
#6675
b101 L
1"
#6700
0"
#6725
b0 L
b1011000 $
b1011000 F
1"
#6750
0"
#6775
bx &
bx 4
bx 7
b1000 !
b1000 .
b1 L
b1011100 G
b1011000 %
b1011000 5
b1011000 D
1'
1"
#6800
0"
#6825
b10 L
1"
#6850
0"
#6875
b0 &
b0 4
b0 7
b11 L
0'
1"
#6900
0"
#6925
b100 L
1"
#6950
0"
#6975
b101 L
1"
#7000
0"
#7025
b0 L
b1011100 $
b1011100 F
1"
#7050
0"
#7075
bx &
bx 4
bx 7
b1100 !
b1100 .
b1 L
b1100000 G
b1011100 %
b1011100 5
b1011100 D
1'
1"
#7100
0"
#7125
b10 L
1"
#7150
0"
#7175
b0 &
b0 4
b0 7
b11 L
0'
1"
#7200
0"
#7225
b100 L
1"
#7250
0"
#7275
b101 L
1"
#7300
0"
#7325
b0 L
b1100000 $
b1100000 F
1"
#7350
0"
#7375
bx &
bx 4
bx 7
b0 !
b0 .
b1 L
b1100100 G
b1100000 %
b1100000 5
b1100000 D
1'
1"
#7400
0"
#7425
b10 L
1"
#7450
0"
#7475
b0 &
b0 4
b0 7
b11 L
0'
1"
#7500
0"
#7525
b100 L
1"
#7550
0"
#7575
b101 L
1"
#7600
0"
#7625
b0 L
b1100100 $
b1100100 F
1"
#7650
0"
#7675
bx &
bx 4
bx 7
b100 !
b100 .
b1 L
b1101000 G
b1100100 %
b1100100 5
b1100100 D
1'
1"
#7700
0"
#7725
b10 L
1"
#7750
0"
#7775
b0 &
b0 4
b0 7
b11 L
0'
1"
#7800
0"
#7825
b100 L
1"
#7850
0"
#7875
b101 L
1"
#7900
0"
#7925
b0 L
b1101000 $
b1101000 F
1"
#7950
0"
#7975
bx &
bx 4
bx 7
b1000 !
b1000 .
b1 L
b1101100 G
b1101000 %
b1101000 5
b1101000 D
1'
1"
#8000
0"
#8025
b10 L
1"
#8050
0"
#8075
b0 &
b0 4
b0 7
b11 L
0'
1"
#8100
0"
#8125
b100 L
1"
#8150
0"
#8175
b101 L
1"
#8200
0"
#8225
b0 L
b1101100 $
b1101100 F
1"
#8250
0"
#8275
bx &
bx 4
bx 7
b1100 !
b1100 .
b1 L
b1110000 G
b1101100 %
b1101100 5
b1101100 D
1'
1"
#8300
0"
#8325
b10 L
1"
#8350
0"
#8375
b0 &
b0 4
b0 7
b11 L
0'
1"
#8400
0"
#8425
b100 L
1"
#8450
0"
#8475
b101 L
1"
#8500
0"
#8525
b0 L
b1110000 $
b1110000 F
1"
#8550
0"
#8575
bx &
bx 4
bx 7
b0 !
b0 .
b1 L
b1110100 G
b1110000 %
b1110000 5
b1110000 D
1'
1"
#8600
0"
#8625
b10 L
1"
#8650
0"
#8675
b0 &
b0 4
b0 7
b11 L
0'
1"
#8700
0"
#8725
b100 L
1"
#8750
0"
#8775
b101 L
1"
#8800
0"
#8825
b0 L
b1110100 $
b1110100 F
1"
#8850
0"
#8875
bx &
bx 4
bx 7
b100 !
b100 .
b1 L
b1111000 G
b1110100 %
b1110100 5
b1110100 D
1'
1"
#8900
0"
#8925
b10 L
1"
#8950
0"
#8975
b0 &
b0 4
b0 7
b11 L
0'
1"
#9000
0"
#9025
b100 L
1"
#9050
0"
#9075
b101 L
1"
#9100
0"
#9125
b0 L
b1111000 $
b1111000 F
1"
#9150
0"
#9175
bx &
bx 4
bx 7
b1000 !
b1000 .
b1 L
b1111100 G
b1111000 %
b1111000 5
b1111000 D
1'
1"
#9200
0"
#9225
b10 L
1"
#9250
0"
#9275
b0 &
b0 4
b0 7
b11 L
0'
1"
#9300
0"
#9325
b100 L
1"
#9350
0"
#9375
b101 L
1"
#9400
0"
#9425
b0 L
b1111100 $
b1111100 F
1"
#9450
0"
#9475
bx &
bx 4
bx 7
b1100 !
b1100 .
b1 L
b10000000 G
b1111100 %
b1111100 5
b1111100 D
1'
1"
#9500
0"
#9525
b10 L
1"
#9550
0"
#9575
b0 &
b0 4
b0 7
b11 L
0'
1"
#9600
0"
#9625
b100 L
1"
#9650
0"
#9675
b101 L
1"
#9700
0"
#9725
b0 L
b10000000 $
b10000000 F
1"
#9750
0"
#9775
bx &
bx 4
bx 7
b0 !
b0 .
b1 L
b10000100 G
b10000000 %
b10000000 5
b10000000 D
1'
1"
#9800
0"
#9825
b10 L
1"
#9850
0"
#9875
b0 &
b0 4
b0 7
b11 L
0'
1"
#9900
0"
#9925
b100 L
1"
#9950
0"
#9975
b101 L
1"
