Praktischer Teil/Verilog/CPU/Prozessor/src/tb.vcd
$date
	Sun Dec 28 19:17:54 2025
$end
$version
	Icarus Verilog
$end
$timescale
	1ns
$end
$scope module tb_cpu $end
$var wire 4 ! pc_trace [3:0] $end
$var reg 1 " clk $end
$var reg 1 # rst $end
$scope module uut $end
$var wire 1 " clk $end
$var wire 1 # rst $end
$var wire 32 $ pc [31:0] $end
$var wire 32 % instr_addr [31:0] $end
$var wire 32 & instr [31:0] $end
$var wire 1 ' imem_ce $end
$var wire 4 ( dmem_write [3:0] $end
$var wire 32 ) dmem_wdata [31:0] $end
$var wire 1 * dmem_read $end
$var wire 32 + dmem_rdata_connect [31:0] $end
$var wire 1 , dmem_ce $end
$var wire 32 - dmem_addr [31:0] $end
$var reg 4 . pc_trace [3:0] $end
$scope module dmem $end
$var wire 1 " clk $end
$var wire 1 # rst $end
$var wire 4 / we [3:0] $end
$var wire 1 * re $end
$var wire 32 0 data_out [31:0] $end
$var wire 32 1 data_in [31:0] $end
$var wire 1 , ce $end
$var wire 32 2 addr [31:0] $end
$upscope $end
$scope module imem $end
$var wire 1 " clk $end
$var wire 1 3 oce $end
$var wire 1 # rst $end
$var wire 32 4 dout [31:0] $end
$var wire 1 ' ce $end
$var wire 32 5 addr [31:0] $end
$upscope $end
$scope module machine $end
$var wire 1 " clk $end
$var wire 32 6 dmem_rdata [31:0] $end
$var wire 32 7 instr [31:0] $end
$var wire 1 # rst $end
$var wire 32 8 x0 [31:0] $end
$var wire 32 9 x1 [31:0] $end
$var wire 32 : x2 [31:0] $end
$var wire 32 ; x3 [31:0] $end
$var wire 32 < x4 [31:0] $end
$var wire 32 = x5 [31:0] $end
$var wire 1 > zero $end
$var reg 32 ? dmem_addr [31:0] $end
$var reg 1 , dmem_ce $end
$var reg 1 * dmem_read $end
$var reg 32 @ dmem_wdata [31:0] $end
$var reg 4 A dmem_write [3:0] $end
$var reg 3 B funct3 [2:0] $end
$var reg 7 C funct7 [6:0] $end
$var reg 1 ' imem_ce $end
$var reg 32 D imm [31:0] $end
$var reg 32 E instr_addr [31:0] $end
$var reg 7 F opcode [6:0] $end
$var reg 32 G pc [31:0] $end
$var reg 32 H pc_next [31:0] $end
$var reg 5 I rd [4:0] $end
$var reg 5 J rs1 [4:0] $end
$var reg 5 K rs2 [4:0] $end
$var reg 5 L shift_amt [4:0] $end
$var reg 3 M state [2:0] $end
$var reg 32 N tmp_mem_addr [31:0] $end
$var reg 32 O tmp_memw_data [31:0] $end
$var reg 32 P tmp_rd [31:0] $end
$var integer 32 Q i [31:0] $end
$scope task show_instruction $end
$var reg 3 R funct3 [2:0] $end
$var reg 7 S funct7 [6:0] $end
$var reg 32 T imm [31:0] $end
$var reg 32 U instr [31:0] $end
$var reg 7 V opcode [6:0] $end
$var reg 5 W rd [4:0] $end
$var reg 5 X rs1 [4:0] $end
$var reg 5 Y rs2 [4:0] $end
$upscope $end
$upscope $end
$upscope $end
$upscope $end
$enddefinitions $end
$comment Show the parameter values. $end
$dumpall
$end
#0
$dumpvars
bx Y
bx X
bx W
bx V
bx U
bx T
bx S
bx R
b100000 Q
b0 P
bx O
bx N
b0 M
bx L
bx K
bx J
bx I
b0 H
b0 G
bx F
b0 E
bx D
bx C
bx B
b0 A
bx @
b0 ?
0>
b0 =
b0 <
b0 ;
b0 :
b0 9
b0 8
b0 7
b0 6
b0 5
b0 4
13
b0 2
bx 1
b0 0
b0 /
bx .
b0 -
0,
b0 +
0*
bx )
b0 (
0'
b0 &
b0 %
b0 $
1#
0"
bx !
$end
#25
b0 !
b0 .
b100000 Q
1"
#50
0"
#75
b100000 Q
1"
#100
0"
#125
b100000 Q
1"
#150
0"
0#
#175
b11001000000000000000010010011 &
b11001000000000000000010010011 4
b11001000000000000000010010011 7
b1 M
b100 H
1'
1"
#200
0"
#225
b10 M
b110010000 D
b1100 C
b10000 K
b0 J
b0 B
b1 I
b10011 F
1"
#250
0"
#275
b0 &
b0 4
b0 7
b11 M
b110010000 P
0'
1"
#300
0"
#325
b100 M
1"
#350
0"
#375
b0 M
b110010000 9
b100 $
b100 G
b0 T
b0 S
b0 Y
b0 X
b0 R
b0 W
b0 V
b0 U
1"
#400
0"
#425
b11110011100000000000000100010011 &
b11110011100000000000000100010011 4
b11110011100000000000000100010011 7
b100 !
b100 .
b1 M
b1000 H
b100 %
b100 5
b100 E
1'
1"
#450
0"
#475
b10 M
b11111111111111111111111100111000 D
b1111001 C
b11000 K
b10 I
1"
#500
0"
#525
b0 &
b0 4
b0 7
b11 M
b11111111111111111111111100111000 P
0'
1"
#550
0"
#575
b100 M
1"
#600
0"
#625
b0 M
b11111111111111111111111100111000 :
b1000 $
b1000 G
1"
#650
0"
#675
b1000000010100000100011 &
b1000000010100000100011 4
b1000000010100000100011 7
b1000 !
b1000 .
b1 M
b1100 H
b1000 %
b1000 5
b1000 E
1'
1"
#700
0"
#725
b10 M
b10000 D
b0 C
b10 K
b10 B
b10000 I
b100011 F
1"
#750
0"
#775
b0 &
b0 4
b0 7
b11 M
b11111111111111111111111100111000 O
b10000 -
b10000 2
b10000 ?
b10000 N
1,
0'
1"
#800
0"
#825
b100 M
b1111 (
b1111 /
b1111 A
b11111111111111111111111100111000 )
b11111111111111111111111100111000 1
b11111111111111111111111100111000 @
1"
#850
0"
#875
b0 M
b1100 $
b1100 G
b0 (
b0 /
b0 A
0,
1"
#900
0"
#925
b11000000100000010100000100011 &
b11000000100000010100000100011 4
b11000000100000010100000100011 7
b1100 !
b1100 .
b1 M
b10000 H
b1100 %
b1100 5
b1100 E
1'
1"
#950
0"
#975
b10 M
b110010000 D
b1100 C
b1 K
1"
#1000
0"
#1025
b0 &
b0 4
b0 7
b11 M
b110010000 O
b110010000 -
b110010000 2
b110010000 ?
b110010000 N
1,
0'
1"
#1050
0"
#1075
b100 M
b1111 (
b1111 /
b1111 A
b110010000 )
b110010000 1
b110010000 @
1"
#1100
0"
#1125
b0 M
b10000 $
b10000 G
b0 (
b0 /
b0 A
0,
1"
#1150
0"
#1175
b11001000000000010000110000011 &
b11001000000000010000110000011 4
b11001000000000010000110000011 7
b0 !
b0 .
b1 M
b10100 H
b10000 %
b10000 5
b10000 E
1'
1"
#1200
0"
#1225
b10 M
b10000 K
b11 I
b11 F
1"
#1250
0"
#1275
b0 &
b0 4
b0 7
b11 M
1,
0'
1"
#1300
0"
#1325
b110010000 +
b110010000 0
b110010000 6
b100 M
b0 P
1*
1"
#1350
0"
#1375
b0 +
b0 0
b0 6
b0 M
b10100 $
b10100 G
0*
0,
1"
#1400
0"
#1425
b1000000000010001000000011 &
b1000000000010001000000011 4
b1000000000010001000000011 7
b100 !
b100 .
b1 M
b11000 H
b10100 %
b10100 5
b10100 E
1'
1"
#1450
0"
#1475
b10 M
b10000 D
b0 C
b100 I
1"
#1500
0"
#1525
b0 &
b0 4
b0 7
b11 M
b10000 -
b10000 2
b10000 ?
b10000 N
1,
0'
1"
#1550
0"
#1575
b11111111111111111111111100111000 +
b11111111111111111111111100111000 0
b11111111111111111111111100111000 6
b100 M
1*
1"
#1600
0"
#1625
b0 +
b0 0
b0 6
b0 M
b11000 $
b11000 G
0*
0,
1"
#1650
0"
#1675
bx &
bx 4
bx 7
b1000 !
b1000 .
b1 M
b11100 H
b11000 %
b11000 5
b11000 E
1'
1"
#1700
0"
#1725
b10 M
b0 D
bx C
bx K
bx J
bx B
bx I
bx F
1"
#1750
0"
#1775
b0 &
b0 4
b0 7
b11 M
0'
1"
#1800
0"
#1825
b100 M
1"
#1850
0"
#1875
b0 M
b11100 $
b11100 G
1"
#1900
0"
#1925
bx &
bx 4
bx 7
b1100 !
b1100 .
b1 M
b100000 H
b11100 %
b11100 5
b11100 E
1'
1"
#1950
0"
#1975
b10 M
1"
#2000
0"
#2025
b0 &
b0 4
b0 7
b11 M
0'
1"
#2050
0"
#2075
b100 M
1"
#2100
0"
#2125
b0 M
b100000 $
b100000 G
1"
#2150
0"
#2175
bx &
bx 4
bx 7
b0 !
b0 .
b1 M
b100100 H
b100000 %
b100000 5
b100000 E
1'
1"
#2200
0"
#2225
b10 M
1"
#2250
0"
#2275
b0 &
b0 4
b0 7
b11 M
0'
1"
#2300
0"
#2325
b100 M
1"
#2350
0"
#2375
b0 M
b100100 $
b100100 G
1"
#2400
0"
#2425
bx &
bx 4
bx 7
b100 !
b100 .
b1 M
b101000 H
b100100 %
b100100 5
b100100 E
1'
1"
#2450
0"
#2475
b10 M
1"
#2500
0"
#2525
b0 &
b0 4
b0 7
b11 M
0'
1"
#2550
0"
#2575
b100 M
1"
#2600
0"
#2625
b0 M
b101000 $
b101000 G
1"
#2650
0"
#2675
bx &
bx 4
bx 7
b1000 !
b1000 .
b1 M
b101100 H
b101000 %
b101000 5
b101000 E
1'
1"
#2700
0"
#2725
b10 M
1"
#2750
0"
#2775
b0 &
b0 4
b0 7
b11 M
0'
1"
#2800
0"
#2825
b100 M
1"
#2850
0"
#2875
b0 M
b101100 $
b101100 G
1"
#2900
0"
#2925
bx &
bx 4
bx 7
b1100 !
b1100 .
b1 M
b110000 H
b101100 %
b101100 5
b101100 E
1'
1"
#2950
0"
#2975
b10 M
1"
#3000
0"
#3025
b0 &
b0 4
b0 7
b11 M
0'
1"
#3050
0"
#3075
b100 M
1"
#3100
0"
#3125
b0 M
b110000 $
b110000 G
1"
#3150
0"
#3175
bx &
bx 4
bx 7
b0 !
b0 .
b1 M
b110100 H
b110000 %
b110000 5
b110000 E
1'
1"
#3200
0"
#3225
b10 M
1"
#3250
0"
#3275
b0 &
b0 4
b0 7
b11 M
0'
1"
#3300
0"
#3325
b100 M
1"
#3350
0"
#3375
b0 M
b110100 $
b110100 G
1"
#3400
0"
#3425
bx &
bx 4
bx 7
b100 !
b100 .
b1 M
b111000 H
b110100 %
b110100 5
b110100 E
1'
1"
#3450
0"
#3475
b10 M
1"
#3500
0"
#3525
b0 &
b0 4
b0 7
b11 M
0'
1"
#3550
0"
#3575
b100 M
1"
#3600
0"
#3625
b0 M
b111000 $
b111000 G
1"
#3650
0"
#3675
bx &
bx 4
bx 7
b1000 !
b1000 .
b1 M
b111100 H
b111000 %
b111000 5
b111000 E
1'
1"
#3700
0"
#3725
b10 M
1"
#3750
0"
#3775
b0 &
b0 4
b0 7
b11 M
0'
1"
#3800
0"
#3825
b100 M
1"
#3850
0"
#3875
b0 M
b111100 $
b111100 G
1"
#3900
0"
#3925
bx &
bx 4
bx 7
b1100 !
b1100 .
b1 M
b1000000 H
b111100 %
b111100 5
b111100 E
1'
1"
#3950
0"
#3975
b10 M
1"
#4000
0"
#4025
b0 &
b0 4
b0 7
b11 M
0'
1"
#4050
0"
#4075
b100 M
1"
#4100
0"
#4125
b0 M
b1000000 $
b1000000 G
1"
#4150
0"
#4175
bx &
bx 4
bx 7
b0 !
b0 .
b1 M
b1000100 H
b1000000 %
b1000000 5
b1000000 E
1'
1"
#4200
0"
#4225
b10 M
1"
#4250
0"
#4275
b0 &
b0 4
b0 7
b11 M
0'
1"
#4300
0"
#4325
b100 M
1"
#4350
0"
#4375
b0 M
b1000100 $
b1000100 G
1"
#4400
0"
#4425
bx &
bx 4
bx 7
b100 !
b100 .
b1 M
b1001000 H
b1000100 %
b1000100 5
b1000100 E
1'
1"
#4450
0"
#4475
b10 M
1"
#4500
0"
#4525
b0 &
b0 4
b0 7
b11 M
0'
1"
#4550
0"
#4575
b100 M
1"
#4600
0"
#4625
b0 M
b1001000 $
b1001000 G
1"
#4650
0"
#4675
bx &
bx 4
bx 7
b1000 !
b1000 .
b1 M
b1001100 H
b1001000 %
b1001000 5
b1001000 E
1'
1"
#4700
0"
#4725
b10 M
1"
#4750
0"
#4775
b0 &
b0 4
b0 7
b11 M
0'
1"
#4800
0"
#4825
b100 M
1"
#4850
0"
#4875
b0 M
b1001100 $
b1001100 G
1"
#4900
0"
#4925
bx &
bx 4
bx 7
b1100 !
b1100 .
b1 M
b1010000 H
b1001100 %
b1001100 5
b1001100 E
1'
1"
#4950
0"
#4975
b10 M
1"
#5000
0"
#5025
b0 &
b0 4
b0 7
b11 M
0'
1"
#5050
0"
#5075
b100 M
1"
#5100
0"
#5125
b0 M
b1010000 $
b1010000 G
1"
#5150
0"
#5175
bx &
bx 4
bx 7
b0 !
b0 .
b1 M
b1010100 H
b1010000 %
b1010000 5
b1010000 E
1'
1"
#5200
0"
#5225
b10 M
1"
#5250
0"
#5275
b0 &
b0 4
b0 7
b11 M
0'
1"
#5300
0"
#5325
b100 M
1"
#5350
0"
#5375
b0 M
b1010100 $
b1010100 G
1"
#5400
0"
#5425
bx &
bx 4
bx 7
b100 !
b100 .
b1 M
b1011000 H
b1010100 %
b1010100 5
b1010100 E
1'
1"
#5450
0"
#5475
b10 M
1"
#5500
0"
#5525
b0 &
b0 4
b0 7
b11 M
0'
1"
#5550
0"
#5575
b100 M
1"
#5600
0"
#5625
b0 M
b1011000 $
b1011000 G
1"
#5650
0"
#5675
bx &
bx 4
bx 7
b1000 !
b1000 .
b1 M
b1011100 H
b1011000 %
b1011000 5
b1011000 E
1'
1"
#5700
0"
#5725
b10 M
1"
#5750
0"
#5775
b0 &
b0 4
b0 7
b11 M
0'
1"
#5800
0"
#5825
b100 M
1"
#5850
0"
#5875
b0 M
b1011100 $
b1011100 G
1"
#5900
0"
#5925
bx &
bx 4
bx 7
b1100 !
b1100 .
b1 M
b1100000 H
b1011100 %
b1011100 5
b1011100 E
1'
1"
#5950
0"
#5975
b10 M
1"
#6000
0"
#6025
b0 &
b0 4
b0 7
b11 M
0'
1"
#6050
0"
#6075
b100 M
1"
#6100
0"
#6125
b0 M
b1100000 $
b1100000 G
1"
#6150
0"
#6175
bx &
bx 4
bx 7
b0 !
b0 .
b1 M
b1100100 H
b1100000 %
b1100000 5
b1100000 E
1'
1"
#6200
0"
#6225
b10 M
1"
#6250
0"
#6275
b0 &
b0 4
b0 7
b11 M
0'
1"
#6300
0"
#6325
b100 M
1"
#6350
0"
#6375
b0 M
b1100100 $
b1100100 G
1"
#6400
0"
#6425
bx &
bx 4
bx 7
b100 !
b100 .
b1 M
b1101000 H
b1100100 %
b1100100 5
b1100100 E
1'
1"
#6450
0"
#6475
b10 M
1"
#6500
0"
#6525
b0 &
b0 4
b0 7
b11 M
0'
1"
#6550
0"
#6575
b100 M
1"
#6600
0"
#6625
b0 M
b1101000 $
b1101000 G
1"
#6650
0"
#6675
bx &
bx 4
bx 7
b1000 !
b1000 .
b1 M
b1101100 H
b1101000 %
b1101000 5
b1101000 E
1'
1"
#6700
0"
#6725
b10 M
1"
#6750
0"
#6775
b0 &
b0 4
b0 7
b11 M
0'
1"
#6800
0"
#6825
b100 M
1"
#6850
0"
#6875
b0 M
b1101100 $
b1101100 G
1"
#6900
0"
#6925
bx &
bx 4
bx 7
b1100 !
b1100 .
b1 M
b1110000 H
b1101100 %
b1101100 5
b1101100 E
1'
1"
#6950
0"
#6975
b10 M
1"
#7000
0"
#7025
b0 &
b0 4
b0 7
b11 M
0'
1"
#7050
0"
#7075
b100 M
1"
#7100
0"
#7125
b0 M
b1110000 $
b1110000 G
1"
#7150
0"
#7175
bx &
bx 4
bx 7
b0 !
b0 .
b1 M
b1110100 H
b1110000 %
b1110000 5
b1110000 E
1'
1"
#7200
0"
#7225
b10 M
1"
#7250
0"
#7275
b0 &
b0 4
b0 7
b11 M
0'
1"
#7300
0"
#7325
b100 M
1"
#7350
0"
#7375
b0 M
b1110100 $
b1110100 G
1"
#7400
0"
#7425
bx &
bx 4
bx 7
b100 !
b100 .
b1 M
b1111000 H
b1110100 %
b1110100 5
b1110100 E
1'
1"
#7450
0"
#7475
b10 M
1"
#7500
0"
#7525
b0 &
b0 4
b0 7
b11 M
0'
1"
#7550
0"
#7575
b100 M
1"
#7600
0"
#7625
b0 M
b1111000 $
b1111000 G
1"
#7650
0"
#7675
bx &
bx 4
bx 7
b1000 !
b1000 .
b1 M
b1111100 H
b1111000 %
b1111000 5
b1111000 E
1'
1"
#7700
0"
#7725
b10 M
1"
#7750
0"
#7775
b0 &
b0 4
b0 7
b11 M
0'
1"
#7800
0"
#7825
b100 M
1"
#7850
0"
#7875
b0 M
b1111100 $
b1111100 G
1"
#7900
0"
#7925
bx &
bx 4
bx 7
b1100 !
b1100 .
b1 M
b10000000 H
b1111100 %
b1111100 5
b1111100 E
1'
1"
#7950
0"
#7975
b10 M
1"
#8000
0"
#8025
b0 &
b0 4
b0 7
b11 M
0'
1"
#8050
0"
#8075
b100 M
1"
#8100
0"
#8125
b0 M
b10000000 $
b10000000 G
1"
#8150
0"
#8175
bx &
bx 4
bx 7
b0 !
b0 .
b1 M
b10000100 H
b10000000 %
b10000000 5
b10000000 E
1'
1"
#8200
0"
#8225
b10 M
1"
#8250
0"
#8275
b0 &
b0 4
b0 7
b11 M
0'
1"
#8300
0"
#8325
b100 M
1"
#8350
0"
#8375
b0 M
b10000100 $
b10000100 G
1"
#8400
0"
#8425
bx &
bx 4
bx 7
b100 !
b100 .
b1 M
b10001000 H
b10000100 %
b10000100 5
b10000100 E
1'
1"
#8450
0"
#8475
b10 M
1"
#8500
0"
#8525
b0 &
b0 4
b0 7
b11 M
0'
1"
#8550
0"
#8575
b100 M
1"
#8600
0"
#8625
b0 M
b10001000 $
b10001000 G
1"
#8650
0"
#8675
bx &
bx 4
bx 7
b1000 !
b1000 .
b1 M
b10001100 H
b10001000 %
b10001000 5
b10001000 E
1'
1"
#8700
0"
#8725
b10 M
1"
#8750
0"
#8775
b0 &
b0 4
b0 7
b11 M
0'
1"
#8800
0"
#8825
b100 M
1"
#8850
0"
#8875
b0 M
b10001100 $
b10001100 G
1"
#8900
0"
#8925
bx &
bx 4
bx 7
b1100 !
b1100 .
b1 M
b10010000 H
b10001100 %
b10001100 5
b10001100 E
1'
1"
#8950
0"
#8975
b10 M
1"
#9000
0"
#9025
b0 &
b0 4
b0 7
b11 M
0'
1"
#9050
0"
#9075
b100 M
1"
#9100
0"
#9125
b0 M
b10010000 $
b10010000 G
1"
#9150
0"
#9175
bx &
bx 4
bx 7
b0 !
b0 .
b1 M
b10010100 H
b10010000 %
b10010000 5
b10010000 E
1'
1"
#9200
0"
#9225
b10 M
1"
#9250
0"
#9275
b0 &
b0 4
b0 7
b11 M
0'
1"
#9300
0"
#9325
b100 M
1"
#9350
0"
#9375
b0 M
b10010100 $
b10010100 G
1"
#9400
0"
#9425
bx &
bx 4
bx 7
b100 !
b100 .
b1 M
b10011000 H
b10010100 %
b10010100 5
b10010100 E
1'
1"
#9450
0"
#9475
b10 M
1"
#9500
0"
#9525
b0 &
b0 4
b0 7
b11 M
0'
1"
#9550
0"
#9575
b100 M
1"
#9600
0"
#9625
b0 M
b10011000 $
b10011000 G
1"
#9650
0"
#9675
bx &
bx 4
bx 7
b1000 !
b1000 .
b1 M
b10011100 H
b10011000 %
b10011000 5
b10011000 E
1'
1"
#9700
0"
#9725
b10 M
1"
#9750
0"
#9775
b0 &
b0 4
b0 7
b11 M
0'
1"
#9800
0"
#9825
b100 M
1"
#9850
0"
#9875
b0 M
b10011100 $
b10011100 G
1"
#9900
0"
#9925
bx &
bx 4
bx 7
b1100 !
b1100 .
b1 M
b10100000 H
b10011100 %
b10011100 5
b10011100 E
1'
1"
#9950
0"
#9975
b10 M
1"
