Praktischer Teil/Verilog/CPU/CPU_Verilog/build/tb.vcd
$date
	Sun Dec 21 15:44:51 2025
$end
$version
	Icarus Verilog
$end
$timescale
	1ps
$end
$scope module tb_cpu $end
$var wire 4 ! pc_trace [3:0] $end
$var reg 1 " clk $end
$var reg 1 # rst $end
$scope module uut $end
$var wire 1 " clk $end
$var wire 1 # rst $end
$var wire 32 $ pc [31:0] $end
$var wire 32 % instr_addr [31:0] $end
$var wire 32 & instr [31:0] $end
$var wire 1 ' imem_ce $end
$var wire 1 ( dmem_write $end
$var wire 32 ) dmem_wdata [31:0] $end
$var wire 1 * dmem_read $end
$var wire 32 + dmem_rdata_connect [31:0] $end
$var wire 1 , dmem_ce $end
$var wire 32 - dmem_addr [31:0] $end
$var reg 4 . pc_trace [3:0] $end
$scope module dmem $end
$var wire 1 " clk $end
$var wire 1 # rst $end
$var wire 1 ( we $end
$var wire 32 / data_out [31:0] $end
$var wire 32 0 data_in [31:0] $end
$var wire 1 , ce $end
$var wire 32 1 addr [31:0] $end
$upscope $end
$scope module imem $end
$var wire 1 " clk $end
$var wire 32 2 comb_read [31:0] $end
$var wire 1 # rst $end
$var wire 1 ' ce $end
$var wire 32 3 addr [31:0] $end
$var reg 32 4 dout [31:0] $end
$upscope $end
$scope module machine $end
$var wire 1 " clk $end
$var wire 32 5 dmem_rdata [31:0] $end
$var wire 32 6 instr [31:0] $end
$var wire 1 # rst $end
$var reg 32 7 dmem_addr [31:0] $end
$var reg 1 , dmem_ce $end
$var reg 1 * dmem_read $end
$var reg 32 8 dmem_wdata [31:0] $end
$var reg 1 ( dmem_write $end
$var reg 3 9 funct3 [2:0] $end
$var reg 7 : funct7 [6:0] $end
$var reg 1 ' imem_ce $end
$var reg 32 ; imm [31:0] $end
$var reg 32 < instr_addr [31:0] $end
$var reg 7 = opcode [6:0] $end
$var reg 32 > pc [31:0] $end
$var reg 32 ? pc_next [31:0] $end
$var reg 5 @ rd [4:0] $end
$var reg 5 A rs1 [4:0] $end
$var reg 5 B rs2 [4:0] $end
$var reg 5 C shift_amt [4:0] $end
$var reg 3 D state [2:0] $end
$var reg 32 E tmp_mem_addr [31:0] $end
$var reg 32 F tmp_memw_data [31:0] $end
$var reg 32 G tmp_rd [31:0] $end
$var integer 32 H i [31:0] $end
$scope task show_instruction $end
$var reg 3 I funct3 [2:0] $end
$var reg 7 J funct7 [6:0] $end
$var reg 32 K imm [31:0] $end
$var reg 32 L instr [31:0] $end
$var reg 7 M opcode [6:0] $end
$var reg 5 N rd [4:0] $end
$var reg 5 O rs1 [4:0] $end
$var reg 5 P rs2 [4:0] $end
$upscope $end
$upscope $end
$upscope $end
$upscope $end
$enddefinitions $end
$comment Show the parameter values. $end
$dumpall
$end
#0
$dumpvars
bx P
bx O
bx N
bx M
bx L
bx K
bx J
bx I
b100000 H
bx G
bx F
bx E
b0 D
bx C
bx B
bx A
bx @
b0 ?
b0 >
bx =
bx <
bx ;
bx :
bx 9
bx 8
b0 7
b0 6
b0 5
b0 4
bx 3
bx 2
b0 1
bx 0
b0 /
bx .
b0 -
0,
b0 +
0*
bx )
0(
0'
b0 &
bx %
b0 $
1#
0"
bx !
$end
#5000
b0 !
b0 .
b100000 H
1"
#10000
0"
#15000
b100000 H
1"
#20000
0"
0#
#25000
b10100000000000010010011 2
b1 D
b100 ?
b0 %
b0 3
b0 <
1'
1"
#30000
0"
#35000
b10100000000000010010011 &
b10100000000000010010011 4
b10100000000000010010011 6
b10 D
b0 ;
b0 :
b0 B
b0 A
b0 9
b0 @
b0 =
1"
#40000
0"
#45000
b11 D
0'
1"
#50000
0"
#55000
b100 D
1"
#60000
0"
#65000
b0 D
b100 $
b100 >
b101 K
b0 J
b101 P
b0 O
b0 I
b1 N
b10011 M
b10100000000000010010011 L
1"
#70000
0"
#75000
b11110011100000000000000010010011 2
b100 !
b100 .
b1 D
b1000 ?
b100 %
b100 3
b100 <
1'
1"
#80000
0"
#85000
b10 D
b101 B
b1 @
b10011 =
b11110011100000000000000010010011 &
b11110011100000000000000010010011 4
b11110011100000000000000010010011 6
1"
#90000
0"
#95000
b11 D
b0 G
0'
1"
#100000
0"
#105000
b100 D
1"
#110000
0"
#115000
b0 D
b1000 $
b1000 >
b11111111111111111111111100111000 K
b1111001 J
b11000 P
b11110011100000000000000010010011 L
1"
#120000
0"
#125000
b100010010001000100011 2
b1000 !
b1000 .
b1 D
b1100 ?
b1000 %
b1000 3
b1000 <
1'
1"
#130000
0"
#135000
b10 D
b11111111111111111111111100111000 ;
b1111001 :
b11000 B
b100010010001000100011 &
b100010010001000100011 4
b100010010001000100011 6
1"
#140000
0"
#145000
b11 D
b11111111111111111111111100111000 G
0'
1"
#150000
0"
#155000
b100 D
1"
#160000
0"
#165000
b0 D
b1100 $
b1100 >
b100 K
b0 J
b1 P
b10 O
b10 I
b100 N
b100011 M
b100010010001000100011 L
1"
#170000
0"
#175000
b11110010000100010010110000100011 2
b1100 !
b1100 .
b1 D
b10000 ?
b1100 %
b1100 3
b1100 <
1'
1"
#180000
0"
#185000
b10 D
b1 ;
b0 :
b1 B
b10 A
b10 9
b100 @
b100011 =
b11110010000100010010110000100011 &
b11110010000100010010110000100011 4
b11110010000100010010110000100011 6
1"
#190000
0"
#195000
b11 D
b11111111111111111111111100111000 F
b1 E
1(
1,
0'
1"
#200000
0"
#205000
b100 D
b0 )
b0 0
b0 8
1"
#210000
0"
#215000
b0 D
b10000 $
b10000 >
0(
0,
b11111111111111111111111100111000 K
b1111001 J
b11000 N
b11110010000100010010110000100011 L
1"
#220000
0"
#225000
b11110011100000010010000010000011 2
b0 !
b0 .
b1 D
b10100 ?
b10000 %
b10000 3
b10000 <
1'
1"
#230000
0"
#235000
b10 D
b11111111111111111111111100111000 ;
b1111001 :
b11000 @
b11110011100000010010000010000011 &
b11110011100000010010000010000011 4
b11110011100000010010000010000011 6
1"
#240000
0"
#245000
b11 D
b111111111111111111111111001110 -
b111111111111111111111111001110 1
b111111111111111111111111001110 7
b11111111111111111111111100111000 E
1(
1,
0'
1"
#250000
0"
#255000
b100 D
b11111111111111111111111100111000 )
b11111111111111111111111100111000 0
b11111111111111111111111100111000 8
1"
#260000
0"
#265000
b0 D
b10100 $
b10100 >
0(
0,
b11000 P
b1 N
b11 M
b11110011100000010010000010000011 L
1"
#270000
0"
#275000
b110010000010010000010000011 2
b100 !
b100 .
b1 D
b11000 ?
b10100 %
b10100 3
b10100 <
1'
1"
#280000
0"
#285000
b10 D
b11111111111111111111111100100001 ;
b11000 B
b1 @
b11 =
b110010000010010000010000011 &
b110010000010010000010000011 4
b110010000010010000010000011 6
1"
#290000
0"
#295000
bx +
bx /
bx 5
b11 D
b111111111111111111111111001000 -
b111111111111111111111111001000 1
b111111111111111111111111001000 7
b11111111111111111111111100100001 E
1,
0'
1"
#300000
0"
#305000
b100 D
bx G
1*
1"
#310000
0"
#315000
b0 +
b0 /
b0 5
b0 D
b11000 $
b11000 >
0*
0,
b1100100 K
b11 J
b100 P
b110010000010010000010000011 L
1"
#320000
0"
#325000
b10010110000000000000001101111 2
b1000 !
b1000 .
b1 D
b11100 ?
b11000 %
b11000 3
b11000 <
1'
1"
#330000
0"
#335000
b10 D
b1100100 ;
b11 :
b100 B
b10010110000000000000001101111 &
b10010110000000000000001101111 4
b10010110000000000000001101111 6
1"
#340000
0"
#345000
bx +
bx /
bx 5
b11 D
b11001 -
b11001 1
b11001 7
b1100100 E
1,
0'
1"
#350000
0"
#355000
b100 D
1*
1"
#360000
0"
#365000
b0 +
b0 /
b0 5
b0 D
b11100 $
b11100 >
0*
0,
b100101100 K
b1001 J
b1100 P
b0 O
b0 I
b0 N
b1101111 M
b10010110000000000000001101111 L
1"
#370000
0"
#375000
b11110011100111111111000001101111 2
b1100 !
b1100 .
b1 D
b100000 ?
b11100 %
b11100 3
b11100 <
1'
1"
#380000
0"
#385000
b10 D
b100101100 ;
b1001 :
b1100 B
b0 A
b0 9
b0 @
b1101111 =
b11110011100111111111000001101111 &
b11110011100111111111000001101111 4
b11110011100111111111000001101111 6
1"
#390000
0"
#395000
b11 D
b101001000 ?
b100000 G
0'
1"
#400000
0"
#405000
b100 D
1"
#410000
0"
#415000
b0 D
b101001000 $
b101001000 >
b11111111111111111111111100111000 K
b1111001 J
b11001 P
b11111 O
b111 I
b11110011100111111111000001101111 L
1"
#420000
0"
#425000
bx 2
b1000 !
b1000 .
b1 D
b101001100 ?
b101001000 %
b101001000 3
b101001000 <
1'
1"
#430000
0"
#435000
b10 D
b11111111111111111111111100111000 ;
b1111001 :
b11001 B
b11111 A
b111 9
bx &
bx 4
bx 6
1"
#440000
0"
#445000
b11 D
b10000000 ?
b101001100 G
0'
1"
#450000
0"
#455000
b100 D
1"
#460000
0"
#465000
b0 D
b10000000 $
b10000000 >
b0 K
bx J
bx P
bx O
bx I
bx N
bx M
bx L
1"
#470000
0"
#475000
b0 !
b0 .
b1 D
b10000100 ?
b10000000 %
b10000000 3
b10000000 <
1'
1"
#480000
0"
#485000
b10 D
bx0 ;
bx :
bx B
bx A
bx 9
bx @
bx =
1"
#490000
0"
#495000
b11 D
0'
1"
#500000
0"
#505000
b100 D
1"
#510000
0"
#515000
b0 D
b10000100 $
b10000100 >
1"
#520000
0"
#525000
b100 !
b100 .
b1 D
b10001000 ?
b10000100 %
b10000100 3
b10000100 <
1'
1"
#530000
0"
#535000
b10 D
b0 ;
1"
#540000
0"
#545000
b11 D
0'
1"
#550000
0"
#555000
b100 D
1"
#560000
0"
#565000
b0 D
b10001000 $
b10001000 >
1"
#570000
0"
#575000
b1000 !
b1000 .
b1 D
b10001100 ?
b10001000 %
b10001000 3
b10001000 <
1'
1"
#580000
0"
#585000
b10 D
1"
#590000
0"
#595000
b11 D
0'
1"
#600000
0"
#605000
b100 D
1"
#610000
0"
#615000
b0 D
b10001100 $
b10001100 >
1"
#620000
0"
#625000
b1100 !
b1100 .
b1 D
b10010000 ?
b10001100 %
b10001100 3
b10001100 <
1'
1"
#630000
0"
#635000
b10 D
1"
#640000
0"
#645000
b11 D
0'
1"
#650000
0"
#655000
b100 D
1"
#660000
0"
#665000
b0 D
b10010000 $
b10010000 >
1"
#670000
0"
#675000
b0 !
b0 .
b1 D
b10010100 ?
b10010000 %
b10010000 3
b10010000 <
1'
1"
#680000
0"
#685000
b10 D
1"
#690000
0"
#695000
b11 D
0'
1"
#700000
0"
#705000
b100 D
1"
#710000
0"
#715000
b0 D
b10010100 $
b10010100 >
1"
#720000
0"
#725000
b100 !
b100 .
b1 D
b10011000 ?
b10010100 %
b10010100 3
b10010100 <
1'
1"
#730000
0"
#735000
b10 D
1"
#740000
0"
#745000
b11 D
0'
1"
#750000
0"
#755000
b100 D
1"
#760000
0"
#765000
b0 D
b10011000 $
b10011000 >
1"
#770000
0"
#775000
b1000 !
b1000 .
b1 D
b10011100 ?
b10011000 %
b10011000 3
b10011000 <
1'
1"
#780000
0"
#785000
b10 D
1"
#790000
0"
#795000
b11 D
0'
1"
#800000
0"
#805000
b100 D
1"
#810000
0"
#815000
b0 D
b10011100 $
b10011100 >
1"
#820000
0"
#825000
b1100 !
b1100 .
b1 D
b10100000 ?
b10011100 %
b10011100 3
b10011100 <
1'
1"
#830000
0"
#835000
b10 D
1"
#840000
0"
#845000
b11 D
0'
1"
#850000
0"
#855000
b100 D
1"
#860000
0"
#865000
b0 D
b10100000 $
b10100000 >
1"
#870000
0"
#875000
b0 !
b0 .
b1 D
b10100100 ?
b10100000 %
b10100000 3
b10100000 <
1'
1"
#880000
0"
#885000
b10 D
1"
#890000
0"
#895000
b11 D
0'
1"
#900000
0"
#905000
b100 D
1"
#910000
0"
#915000
b0 D
b10100100 $
b10100100 >
1"
#920000
0"
#925000
b100 !
b100 .
b1 D
b10101000 ?
b10100100 %
b10100100 3
b10100100 <
1'
1"
#930000
0"
#935000
b10 D
1"
#940000
0"
#945000
b11 D
0'
1"
#950000
0"
#955000
b100 D
1"
#960000
0"
#965000
b0 D
b10101000 $
b10101000 >
1"
#970000
0"
#975000
b1000 !
b1000 .
b1 D
b10101100 ?
b10101000 %
b10101000 3
b10101000 <
1'
1"
#980000
0"
#985000
b10 D
1"
#990000
0"
#995000
b11 D
0'
1"
#1000000
0"
#1005000
b100 D
1"
#1010000
0"
#1015000
b0 D
b10101100 $
b10101100 >
1"
#1020000
0"
#1025000
b1100 !
b1100 .
b1 D
b10110000 ?
b10101100 %
b10101100 3
b10101100 <
1'
1"
#1030000
0"
#1035000
b10 D
1"
#1040000
0"
#1045000
b11 D
0'
1"
#1050000
0"
#1055000
b100 D
1"
#1060000
0"
#1065000
b0 D
b10110000 $
b10110000 >
1"
#1070000
0"
#1075000
b0 !
b0 .
b1 D
b10110100 ?
b10110000 %
b10110000 3
b10110000 <
1'
1"
#1080000
0"
#1085000
b10 D
1"
#1090000
0"
#1095000
b11 D
0'
1"
#1100000
0"
#1105000
b100 D
1"
#1110000
0"
#1115000
b0 D
b10110100 $
b10110100 >
1"
#1120000
0"
#1125000
b100 !
b100 .
b1 D
b10111000 ?
b10110100 %
b10110100 3
b10110100 <
1'
1"
#1130000
0"
#1135000
b10 D
1"
#1140000
0"
#1145000
b11 D
0'
1"
#1150000
0"
#1155000
b100 D
1"
#1160000
0"
#1165000
b0 D
b10111000 $
b10111000 >
1"
#1170000
0"
#1175000
b1000 !
b1000 .
b1 D
b10111100 ?
b10111000 %
b10111000 3
b10111000 <
1'
1"
#1180000
0"
#1185000
b10 D
1"
#1190000
0"
#1195000
b11 D
0'
1"
#1200000
0"
#1205000
b100 D
1"
#1210000
0"
#1215000
b0 D
b10111100 $
b10111100 >
1"
#1220000
0"
#1225000
b1100 !
b1100 .
b1 D
b11000000 ?
b10111100 %
b10111100 3
b10111100 <
1'
1"
#1230000
0"
#1235000
b10 D
1"
#1240000
0"
#1245000
b11 D
0'
1"
#1250000
0"
#1255000
b100 D
1"
#1260000
0"
#1265000
b0 D
b11000000 $
b11000000 >
1"
#1270000
0"
#1275000
b0 !
b0 .
b1 D
b11000100 ?
b11000000 %
b11000000 3
b11000000 <
1'
1"
#1280000
0"
#1285000
b10 D
1"
#1290000
0"
#1295000
b11 D
0'
1"
#1300000
0"
#1305000
b100 D
1"
#1310000
0"
#1315000
b0 D
b11000100 $
b11000100 >
1"
#1320000
0"
#1325000
b100 !
b100 .
b1 D
b11001000 ?
b11000100 %
b11000100 3
b11000100 <
1'
1"
#1330000
0"
#1335000
b10 D
1"
#1340000
0"
#1345000
b11 D
0'
1"
#1350000
0"
#1355000
b100 D
1"
#1360000
0"
#1365000
b0 D
b11001000 $
b11001000 >
1"
#1370000
0"
#1375000
b1000 !
b1000 .
b1 D
b11001100 ?
b11001000 %
b11001000 3
b11001000 <
1'
1"
#1380000
0"
#1385000
b10 D
1"
#1390000
0"
#1395000
b11 D
0'
1"
#1400000
0"
#1405000
b100 D
1"
#1410000
0"
#1415000
b0 D
b11001100 $
b11001100 >
1"
#1420000
0"
#1425000
b1100 !
b1100 .
b1 D
b11010000 ?
b11001100 %
b11001100 3
b11001100 <
1'
1"
#1430000
0"
#1435000
b10 D
1"
#1440000
0"
#1445000
b11 D
0'
1"
#1450000
0"
#1455000
b100 D
1"
#1460000
0"
#1465000
b0 D
b11010000 $
b11010000 >
1"
#1470000
0"
#1475000
b0 !
b0 .
b1 D
b11010100 ?
b11010000 %
b11010000 3
b11010000 <
1'
1"
#1480000
0"
#1485000
b10 D
1"
#1490000
0"
#1495000
b11 D
0'
1"
#1500000
0"
#1505000
b100 D
1"
#1510000
0"
#1515000
b0 D
b11010100 $
b11010100 >
1"
#1520000
0"
#1525000
b100 !
b100 .
b1 D
b11011000 ?
b11010100 %
b11010100 3
b11010100 <
1'
1"
#1530000
0"
#1535000
b10 D
1"
#1540000
0"
#1545000
b11 D
0'
1"
#1550000
0"
#1555000
b100 D
1"
#1560000
0"
#1565000
b0 D
b11011000 $
b11011000 >
1"
#1570000
0"
#1575000
b1000 !
b1000 .
b1 D
b11011100 ?
b11011000 %
b11011000 3
b11011000 <
1'
1"
#1580000
0"
#1585000
b10 D
1"
#1590000
0"
#1595000
b11 D
0'
1"
#1600000
0"
#1605000
b100 D
1"
#1610000
0"
#1615000
b0 D
b11011100 $
b11011100 >
1"
#1620000
0"
#1625000
b1100 !
b1100 .
b1 D
b11100000 ?
b11011100 %
b11011100 3
b11011100 <
1'
1"
#1630000
0"
#1635000
b10 D
1"
#1640000
0"
#1645000
b11 D
0'
1"
#1650000
0"
#1655000
b100 D
1"
#1660000
0"
#1665000
b0 D
b11100000 $
b11100000 >
1"
#1670000
0"
#1675000
b0 !
b0 .
b1 D
b11100100 ?
b11100000 %
b11100000 3
b11100000 <
1'
1"
#1680000
0"
#1685000
b10 D
1"
#1690000
0"
#1695000
b11 D
0'
1"
#1700000
0"
#1705000
b100 D
1"
#1710000
0"
#1715000
b0 D
b11100100 $
b11100100 >
1"
#1720000
0"
#1725000
b100 !
b100 .
b1 D
b11101000 ?
b11100100 %
b11100100 3
b11100100 <
1'
1"
#1730000
0"
#1735000
b10 D
1"
#1740000
0"
#1745000
b11 D
0'
1"
#1750000
0"
#1755000
b100 D
1"
#1760000
0"
#1765000
b0 D
b11101000 $
b11101000 >
1"
#1770000
0"
#1775000
b1000 !
b1000 .
b1 D
b11101100 ?
b11101000 %
b11101000 3
b11101000 <
1'
1"
#1780000
0"
#1785000
b10 D
1"
#1790000
0"
#1795000
b11 D
0'
1"
#1800000
0"
#1805000
b100 D
1"
#1810000
0"
#1815000
b0 D
b11101100 $
b11101100 >
1"
#1820000
0"
#1825000
b1100 !
b1100 .
b1 D
b11110000 ?
b11101100 %
b11101100 3
b11101100 <
1'
1"
#1830000
0"
#1835000
b10 D
1"
#1840000
0"
#1845000
b11 D
0'
1"
#1850000
0"
#1855000
b100 D
1"
#1860000
0"
#1865000
b0 D
b11110000 $
b11110000 >
1"
#1870000
0"
#1875000
b0 !
b0 .
b1 D
b11110100 ?
b11110000 %
b11110000 3
b11110000 <
1'
1"
#1880000
0"
#1885000
b10 D
1"
#1890000
0"
#1895000
b11 D
0'
1"
#1900000
0"
#1905000
b100 D
1"
#1910000
0"
#1915000
b0 D
b11110100 $
b11110100 >
1"
#1920000
0"
#1925000
b100 !
b100 .
b1 D
b11111000 ?
b11110100 %
b11110100 3
b11110100 <
1'
1"
#1930000
0"
#1935000
b10 D
1"
#1940000
0"
#1945000
b11 D
0'
1"
#1950000
0"
#1955000
b100 D
1"
#1960000
0"
#1965000
b0 D
b11111000 $
b11111000 >
1"
#1970000
0"
#1975000
b1000 !
b1000 .
b1 D
b11111100 ?
b11111000 %
b11111000 3
b11111000 <
1'
1"
#1980000
0"
#1985000
b10 D
1"
#1990000
0"
#1995000
b11 D
0'
1"
#2000000
0"
#2005000
b100 D
1"
#2010000
0"
#2015000
b0 D
b11111100 $
b11111100 >
1"
#2020000
0"
#2025000
b1100 !
b1100 .
b1 D
b100000000 ?
b11111100 %
b11111100 3
b11111100 <
1'
1"
#2030000
0"
#2035000
b10 D
1"
#2040000
0"
#2045000
b11 D
0'
1"
#2050000
0"
#2055000
b100 D
1"
#2060000
0"
#2065000
b0 D
b100000000 $
b100000000 >
1"
#2070000
0"
#2075000
b0 !
b0 .
b1 D
b100000100 ?
b100000000 %
b100000000 3
b100000000 <
1'
1"
#2080000
0"
#2085000
b10 D
1"
#2090000
0"
#2095000
b11 D
0'
1"
#2100000
0"
#2105000
b100 D
1"
#2110000
0"
#2115000
b0 D
b100000100 $
b100000100 >
1"
#2120000
0"
#2125000
b100 !
b100 .
b1 D
b100001000 ?
b100000100 %
b100000100 3
b100000100 <
1'
1"
#2130000
0"
#2135000
b10 D
1"
#2140000
0"
#2145000
b11 D
0'
1"
#2150000
0"
#2155000
b100 D
1"
#2160000
0"
#2165000
b0 D
b100001000 $
b100001000 >
1"
#2170000
0"
#2175000
b1000 !
b1000 .
b1 D
b100001100 ?
b100001000 %
b100001000 3
b100001000 <
1'
1"
#2180000
0"
#2185000
b10 D
1"
#2190000
0"
#2195000
b11 D
0'
1"
#2200000
0"
#2205000
b100 D
1"
#2210000
0"
#2215000
b0 D
b100001100 $
b100001100 >
1"
#2220000
0"
#2225000
b1100 !
b1100 .
b1 D
b100010000 ?
b100001100 %
b100001100 3
b100001100 <
1'
1"
#2230000
0"
#2235000
b10 D
1"
#2240000
0"
#2245000
b11 D
0'
1"
#2250000
0"
#2255000
b100 D
1"
#2260000
0"
#2265000
b0 D
b100010000 $
b100010000 >
1"
#2270000
0"
#2275000
b0 !
b0 .
b1 D
b100010100 ?
b100010000 %
b100010000 3
b100010000 <
1'
1"
#2280000
0"
#2285000
b10 D
1"
#2290000
0"
#2295000
b11 D
0'
1"
#2300000
0"
#2305000
b100 D
1"
#2310000
0"
#2315000
b0 D
b100010100 $
b100010100 >
1"
#2320000
0"
#2325000
b100 !
b100 .
b1 D
b100011000 ?
b100010100 %
b100010100 3
b100010100 <
1'
1"
#2330000
0"
#2335000
b10 D
1"
#2340000
0"
#2345000
b11 D
0'
1"
#2350000
0"
#2355000
b100 D
1"
#2360000
0"
#2365000
b0 D
b100011000 $
b100011000 >
1"
#2370000
0"
#2375000
b1000 !
b1000 .
b1 D
b100011100 ?
b100011000 %
b100011000 3
b100011000 <
1'
1"
#2380000
0"
#2385000
b10 D
1"
#2390000
0"
#2395000
b11 D
0'
1"
#2400000
0"
#2405000
b100 D
1"
#2410000
0"
#2415000
b0 D
b100011100 $
b100011100 >
1"
#2420000
0"
#2425000
b1100 !
b1100 .
b1 D
b100100000 ?
b100011100 %
b100011100 3
b100011100 <
1'
1"
#2430000
0"
#2435000
b10 D
1"
#2440000
0"
#2445000
b11 D
0'
1"
#2450000
0"
#2455000
b100 D
1"
#2460000
0"
#2465000
b0 D
b100100000 $
b100100000 >
1"
#2470000
0"
#2475000
b0 !
b0 .
b1 D
b100100100 ?
b100100000 %
b100100000 3
b100100000 <
1'
1"
#2480000
0"
#2485000
b10 D
1"
#2490000
0"
#2495000
b11 D
0'
1"
#2500000
0"
#2505000
b100 D
1"
#2510000
0"
#2515000
b0 D
b100100100 $
b100100100 >
1"
#2520000
0"
#2525000
b100 !
b100 .
b1 D
b100101000 ?
b100100100 %
b100100100 3
b100100100 <
1'
1"
#2530000
0"
#2535000
b10 D
1"
#2540000
0"
#2545000
b11 D
0'
1"
#2550000
0"
#2555000
b100 D
1"
#2560000
0"
#2565000
b0 D
b100101000 $
b100101000 >
1"
#2570000
0"
#2575000
b1000 !
b1000 .
b1 D
b100101100 ?
b100101000 %
b100101000 3
b100101000 <
1'
1"
#2580000
0"
#2585000
b10 D
1"
#2590000
0"
#2595000
b11 D
0'
1"
#2600000
0"
#2605000
b100 D
1"
#2610000
0"
#2615000
b0 D
b100101100 $
b100101100 >
1"
#2620000
0"
#2625000
b1100 !
b1100 .
b1 D
b100110000 ?
b100101100 %
b100101100 3
b100101100 <
1'
1"
#2630000
0"
#2635000
b10 D
1"
#2640000
0"
#2645000
b11 D
0'
1"
#2650000
0"
#2655000
b100 D
1"
#2660000
0"
#2665000
b0 D
b100110000 $
b100110000 >
1"
#2670000
0"
#2675000
b0 !
b0 .
b1 D
b100110100 ?
b100110000 %
b100110000 3
b100110000 <
1'
1"
#2680000
0"
#2685000
b10 D
1"
#2690000
0"
#2695000
b11 D
0'
1"
#2700000
0"
#2705000
b100 D
1"
#2710000
0"
#2715000
b0 D
b100110100 $
b100110100 >
1"
#2720000
0"
#2725000
b100 !
b100 .
b1 D
b100111000 ?
b100110100 %
b100110100 3
b100110100 <
1'
1"
#2730000
0"
#2735000
b10 D
1"
#2740000
0"
#2745000
b11 D
0'
1"
#2750000
0"
#2755000
b100 D
1"
#2760000
0"
#2765000
b0 D
b100111000 $
b100111000 >
1"
#2770000
0"
#2775000
b1000 !
b1000 .
b1 D
b100111100 ?
b100111000 %
b100111000 3
b100111000 <
1'
1"
#2780000
0"
#2785000
b10 D
1"
#2790000
0"
#2795000
b11 D
0'
1"
#2800000
0"
#2805000
b100 D
1"
#2810000
0"
#2815000
b0 D
b100111100 $
b100111100 >
1"
#2820000
0"
#2825000
b1100 !
b1100 .
b1 D
b101000000 ?
b100111100 %
b100111100 3
b100111100 <
1'
1"
#2830000
0"
#2835000
b10 D
1"
#2840000
0"
#2845000
b11 D
0'
1"
#2850000
0"
#2855000
b100 D
1"
#2860000
0"
#2865000
b0 D
b101000000 $
b101000000 >
1"
#2870000
0"
#2875000
b0 !
b0 .
b1 D
b101000100 ?
b101000000 %
b101000000 3
b101000000 <
1'
1"
#2880000
0"
#2885000
b10 D
1"
#2890000
0"
#2895000
b11 D
0'
1"
#2900000
0"
#2905000
b100 D
1"
#2910000
0"
#2915000
b0 D
b101000100 $
b101000100 >
1"
#2920000
0"
#2925000
b100 !
b100 .
b1 D
b101001000 ?
b101000100 %
b101000100 3
b101000100 <
1'
1"
#2930000
0"
#2935000
b10 D
1"
#2940000
0"
#2945000
b11 D
0'
1"
#2950000
0"
#2955000
b100 D
1"
#2960000
0"
#2965000
b0 D
b101001000 $
b101001000 >
1"
#2970000
0"
#2975000
b1000 !
b1000 .
b1 D
b101001100 ?
b101001000 %
b101001000 3
b101001000 <
1'
1"
#2980000
0"
#2985000
b10 D
1"
#2990000
0"
#2995000
b11 D
0'
1"
#3000000
0"
#3005000
b100 D
1"
#3010000
0"
#3015000
b0 D
b101001100 $
b101001100 >
1"
#3020000
0"
#3025000
b1100 !
b1100 .
b1 D
b101010000 ?
b101001100 %
b101001100 3
b101001100 <
1'
1"
#3030000
0"
#3035000
b10 D
1"
#3040000
0"
#3045000
b11 D
0'
1"
#3050000
0"
#3055000
b100 D
1"
#3060000
0"
#3065000
b0 D
b101010000 $
b101010000 >
1"
#3070000
0"
#3075000
b0 !
b0 .
b1 D
b101010100 ?
b101010000 %
b101010000 3
b101010000 <
1'
1"
#3080000
0"
#3085000
b10 D
1"
#3090000
0"
#3095000
b11 D
0'
1"
#3100000
0"
#3105000
b100 D
1"
#3110000
0"
#3115000
b0 D
b101010100 $
b101010100 >
1"
#3120000
0"
#3125000
b100 !
b100 .
b1 D
b101011000 ?
b101010100 %
b101010100 3
b101010100 <
1'
1"
#3130000
0"
#3135000
b10 D
1"
#3140000
0"
#3145000
b11 D
0'
1"
#3150000
0"
#3155000
b100 D
1"
#3160000
0"
#3165000
b0 D
b101011000 $
b101011000 >
1"
#3170000
0"
#3175000
b1000 !
b1000 .
b1 D
b101011100 ?
b101011000 %
b101011000 3
b101011000 <
1'
1"
#3180000
0"
#3185000
b10 D
1"
#3190000
0"
#3195000
b11 D
0'
1"
#3200000
0"
#3205000
b100 D
1"
#3210000
0"
#3215000
b0 D
b101011100 $
b101011100 >
1"
#3220000
0"
#3225000
b1100 !
b1100 .
b1 D
b101100000 ?
b101011100 %
b101011100 3
b101011100 <
1'
1"
#3230000
0"
#3235000
b10 D
1"
#3240000
0"
#3245000
b11 D
0'
1"
#3250000
0"
#3255000
b100 D
1"
#3260000
0"
#3265000
b0 D
b101100000 $
b101100000 >
1"
#3270000
0"
#3275000
b0 !
b0 .
b1 D
b101100100 ?
b101100000 %
b101100000 3
b101100000 <
1'
1"
#3280000
0"
#3285000
b10 D
1"
#3290000
0"
#3295000
b11 D
0'
1"
#3300000
0"
#3305000
b100 D
1"
#3310000
0"
#3315000
b0 D
b101100100 $
b101100100 >
1"
#3320000
0"
#3325000
b100 !
b100 .
b1 D
b101101000 ?
b101100100 %
b101100100 3
b101100100 <
1'
1"
#3330000
0"
#3335000
b10 D
1"
#3340000
0"
#3345000
b11 D
0'
1"
#3350000
0"
#3355000
b100 D
1"
#3360000
0"
#3365000
b0 D
b101101000 $
b101101000 >
1"
#3370000
0"
#3375000
b1000 !
b1000 .
b1 D
b101101100 ?
b101101000 %
b101101000 3
b101101000 <
1'
1"
#3380000
0"
#3385000
b10 D
1"
#3390000
0"
#3395000
b11 D
0'
1"
#3400000
0"
#3405000
b100 D
1"
#3410000
0"
#3415000
b0 D
b101101100 $
b101101100 >
1"
#3420000
0"
#3425000
b1100 !
b1100 .
b1 D
b101110000 ?
b101101100 %
b101101100 3
b101101100 <
1'
1"
#3430000
0"
#3435000
b10 D
1"
#3440000
0"
#3445000
b11 D
0'
1"
#3450000
0"
#3455000
b100 D
1"
#3460000
0"
#3465000
b0 D
b101110000 $
b101110000 >
1"
#3470000
0"
#3475000
b0 !
b0 .
b1 D
b101110100 ?
b101110000 %
b101110000 3
b101110000 <
1'
1"
#3480000
0"
#3485000
b10 D
1"
#3490000
0"
#3495000
b11 D
0'
1"
#3500000
0"
#3505000
b100 D
1"
#3510000
0"
#3515000
b0 D
b101110100 $
b101110100 >
1"
#3520000
0"
#3525000
b100 !
b100 .
b1 D
b101111000 ?
b101110100 %
b101110100 3
b101110100 <
1'
1"
#3530000
0"
#3535000
b10 D
1"
#3540000
0"
#3545000
b11 D
0'
1"
#3550000
0"
#3555000
b100 D
1"
#3560000
0"
#3565000
b0 D
b101111000 $
b101111000 >
1"
#3570000
0"
#3575000
b1000 !
b1000 .
b1 D
b101111100 ?
b101111000 %
b101111000 3
b101111000 <
1'
1"
#3580000
0"
#3585000
b10 D
1"
#3590000
0"
#3595000
b11 D
0'
1"
#3600000
0"
#3605000
b100 D
1"
#3610000
0"
#3615000
b0 D
b101111100 $
b101111100 >
1"
#3620000
0"
#3625000
b1100 !
b1100 .
b1 D
b110000000 ?
b101111100 %
b101111100 3
b101111100 <
1'
1"
#3630000
0"
#3635000
b10 D
1"
#3640000
0"
#3645000
b11 D
0'
1"
#3650000
0"
#3655000
b100 D
1"
#3660000
0"
#3665000
b0 D
b110000000 $
b110000000 >
1"
#3670000
0"
