PraktischerTeil/Verilog/CPU/Prozessor/src/tb.vcd
$date
	Tue Jan 27 23:12:09 2026
$end
$version
	Icarus Verilog
$end
$timescale
	1ns
$end
$scope module tb_cpu $end
$var wire 5 ! row_addr [4:0] $end
$var wire 7 " pc_trace [6:0] $end
$var wire 1 # latch $end
$var wire 4 $ dout_b [3:0] $end
$var wire 4 % dout_a [3:0] $end
$var wire 1 & display_oe $end
$var wire 1 ' display_clk $end
$var wire 6 ( col_addr [5:0] $end
$var wire 1 ) clk_trace $end
$var reg 1 * clk $end
$var reg 1 + rst $end
$scope function state_name $end
$var reg 4 , state [3:0] $end
$upscope $end
$scope module uut $end
$var wire 1 * clk $end
$var wire 1 + rst $end
$var wire 5 - row_addr [4:0] $end
$var wire 32 . pc [31:0] $end
$var wire 1 # latch $end
$var wire 32 / instr_addr [31:0] $end
$var wire 32 0 instr [31:0] $end
$var wire 1 1 imem_ce $end
$var wire 1 2 fbuf_we $end
$var wire 1 3 fbuf_re $end
$var wire 4 4 dout_b [3:0] $end
$var wire 4 5 dout_a [3:0] $end
$var wire 4 6 dmem_we [3:0] $end
$var wire 1 7 dmem_read $end
$var wire 1 8 dmem_ce $end
$var wire 1 & display_oe $end
$var wire 1 ' display_clk $end
$var wire 6 9 col_addr [5:0] $end
$var wire 32 : bus_wdata [31:0] $end
$var wire 32 ; bus_rdata_connect [31:0] $end
$var wire 32 < bus_addr [31:0] $end
$var reg 1 ) clk_trace $end
$var reg 7 = pc_trace [6:0] $end
$scope module dmem $end
$var wire 1 * clk $end
$var wire 1 + rst $end
$var wire 4 > we [3:0] $end
$var wire 1 7 re $end
$var wire 32 ? index [31:0] $end
$var wire 32 @ data_in [31:0] $end
$var wire 1 8 ce $end
$var wire 32 A addr [31:0] $end
$var reg 32 B data_out [31:0] $end
$var reg 32 C dout_reg [31:0] $end
$upscope $end
$scope module fb_inst $end
$var wire 1 D ce $end
$var wire 1 * clk $end
$var wire 32 E raddr_a [31:0] $end
$var wire 32 F raddr_b [31:0] $end
$var wire 1 + rst $end
$var wire 1 2 we $end
$var wire 32 G waddr [31:0] $end
$var wire 1 3 re $end
$var wire 32 H din [31:0] $end
$var reg 4 I dout_a [3:0] $end
$var reg 4 J dout_a_reg [3:0] $end
$var reg 4 K dout_b [3:0] $end
$var reg 4 L dout_b_reg [3:0] $end
$upscope $end
$scope module imem $end
$var wire 1 * clk $end
$var wire 1 M oce $end
$var wire 1 + rst $end
$var wire 32 N dout [31:0] $end
$var wire 1 1 ce $end
$var wire 32 O addr [31:0] $end
$upscope $end
$scope module led_inst $end
$var wire 1 * clk $end
$var wire 1 + rst $end
$var parameter 32 P COLUMNS $end
$var parameter 32 Q HEIGHT $end
$var parameter 32 R LATCH_CYCLES $end
$var parameter 32 S OE_CYCLES $end
$var parameter 32 T ROWS $end
$var parameter 32 U WAIT_CYCLES $end
$var parameter 32 V WIDTH $end
$var reg 6 W col_addr [5:0] $end
$var reg 4 X con_state [3:0] $end
$var reg 1 ' display_clk $end
$var reg 1 & display_oe $end
$var reg 1 3 fbuf_re $end
$var reg 1 # latch $end
$var reg 8 Y latch_cntr [7:0] $end
$var reg 8 Z oe_cntr [7:0] $end
$var reg 5 [ row_addr [4:0] $end
$var reg 8 \ wait_cntr [7:0] $end
$upscope $end
$scope module machine $end
$var wire 32 ] bus_rdata [31:0] $end
$var wire 1 * clk $end
$var wire 32 ^ instr [31:0] $end
$var wire 1 + rst $end
$var wire 32 _ x0 [31:0] $end
$var wire 32 ` x1 [31:0] $end
$var wire 32 a x10 [31:0] $end
$var wire 32 b x11 [31:0] $end
$var wire 32 c x12 [31:0] $end
$var wire 32 d x13 [31:0] $end
$var wire 32 e x14 [31:0] $end
$var wire 32 f x15 [31:0] $end
$var wire 32 g x16 [31:0] $end
$var wire 32 h x17 [31:0] $end
$var wire 32 i x18 [31:0] $end
$var wire 32 j x19 [31:0] $end
$var wire 32 k x2 [31:0] $end
$var wire 32 l x20 [31:0] $end
$var wire 32 m x21 [31:0] $end
$var wire 32 n x22 [31:0] $end
$var wire 32 o x23 [31:0] $end
$var wire 32 p x24 [31:0] $end
$var wire 32 q x25 [31:0] $end
$var wire 32 r x26 [31:0] $end
$var wire 32 s x27 [31:0] $end
$var wire 32 t x28 [31:0] $end
$var wire 32 u x29 [31:0] $end
$var wire 32 v x3 [31:0] $end
$var wire 32 w x30 [31:0] $end
$var wire 32 x x31 [31:0] $end
$var wire 32 y x4 [31:0] $end
$var wire 32 z x5 [31:0] $end
$var wire 32 { x6 [31:0] $end
$var wire 32 | x7 [31:0] $end
$var wire 32 } x8 [31:0] $end
$var wire 32 ~ x9 [31:0] $end
$var reg 32 !" bus_addr [31:0] $end
$var reg 32 "" bus_wdata [31:0] $end
$var reg 1 8 dmem_ce $end
$var reg 1 7 dmem_read $end
$var reg 4 #" dmem_we [3:0] $end
$var reg 1 2 fbuf_we $end
$var reg 3 $" funct3 [2:0] $end
$var reg 7 %" funct7 [6:0] $end
$var reg 1 1 imem_ce $end
$var reg 32 &" imm [31:0] $end
$var reg 32 '" instr_addr [31:0] $end
$var reg 7 (" opcode [6:0] $end
$var reg 32 )" pc [31:0] $end
$var reg 32 *" pc_next [31:0] $end
$var reg 5 +" rd [4:0] $end
$var reg 5 ," rs1 [4:0] $end
$var reg 5 -" rs2 [4:0] $end
$var reg 5 ." shift_amt [4:0] $end
$var reg 3 /" state [2:0] $end
$var reg 32 0" tmp_bus_wdata [31:0] $end
$var reg 32 1" tmp_rd [31:0] $end
$var integer 32 2" i [31:0] $end
$scope task show_instruction $end
$var reg 3 3" funct3 [2:0] $end
$var reg 7 4" funct7 [6:0] $end
$var reg 32 5" imm [31:0] $end
$var reg 32 6" instr [31:0] $end
$var reg 7 7" opcode [6:0] $end
$var reg 5 8" rd [4:0] $end
$var reg 5 9" rs1 [4:0] $end
$var reg 5 :" rs2 [4:0] $end
$upscope $end
$upscope $end
$upscope $end
$upscope $end
$enddefinitions $end
$comment Show the parameter values. $end
$dumpall
b1000000 V
b110 U
b100000 T
b1000 S
b100 R
b1000000 Q
b1000000 P
$end
#0
$dumpvars
bx :"
bx 9"
bx 8"
bx 7"
bx 6"
bx 5"
bx 4"
bx 3"
bx 2"
bx 1"
bx 0"
bx /"
bx ."
bx -"
bx ,"
bx +"
bx *"
bx )"
bx ("
bx '"
bx &"
bx %"
bx $"
bx #"
bx ""
bx !"
bx ~
bx }
bx |
bx {
bx z
bx y
bx x
bx w
bx v
bx u
bx t
bx s
bx r
bx q
bx p
bx o
bx n
bx m
bx l
bx k
bx j
bx i
bx h
bx g
bx f
bx e
bx d
bx c
bx b
bx a
bx `
bx _
bx ^
bx ]
b0 \
b0 [
bx Z
bx Y
b0 X
b0 W
bx O
bx N
1M
b0 L
bx K
b0 J
bx I
bx H
bx G
b10010000000000000 F
b10000000000000000 E
1D
bx C
bx B
bx A
bx @
b0xxxxxxxxxxxxxxxxxxxxxxxxxxxxxx ?
bx >
bx =
bx <
bx ;
bx :
b0 9
x8
x7
bx 6
bx 5
bx 4
03
x2
x1
bx 0
bx /
bx .
b0 -
bx ,
1+
0*
x)
b0 (
0'
1&
bx %
bx $
0#
bx "
b0 !
$end
#25
b0 ?
b10100000100010111 0
b10100000100010111 N
b10100000100010111 ^
b0 C
b0 ;
b0 B
b0 ]
b0 x
b0 w
b0 u
b0 t
b0 s
b0 r
b0 q
b0 p
b0 o
b0 n
b0 m
b0 l
b0 j
b0 i
b0 h
b0 g
b0 f
b0 e
b0 d
b0 c
b0 b
b0 a
b0 ~
b0 }
b0 |
b0 {
b0 z
b0 y
b0 v
b0 k
b0 `
b0 _
b0 *"
b0 <
b0 A
b0 G
b0 !"
11
02
08
b0 6
b0 >
b0 #"
07
b0 /
b0 O
b0 '"
b0 1"
b0 .
b0 )"
b0 /"
b0 $
b0 4
b0 K
b0 %
b0 5
b0 I
b100000 2"
1*
#50
0*
#75
b0 "
b0 =
b100000 2"
1*
#100
0*
#125
b100000 2"
1*
#150
0*
0+
#175
b1 /"
b100 *"
13
b1 X
1*
#200
0*
#225
b10 /"
b10100000000000000 &"
b0 %"
b0 -"
b10 ,"
b100 $"
b10 +"
b10111 ("
03
b10 X
b1 L
b100 J
1*
#250
0*
#275
b1 $
b1 4
b1 K
b100 %
b100 5
b100 I
b11 /"
b10100000000000000 1"
b11 X
13
1'
1*
#300
0*
#325
b100 /"
b10010000000000100 F
b10000000000000100 E
b1 (
b1 9
b1 W
b0 X
03
0'
1*
#350
0*
#375
b101 /"
13
b1 X
1*
#400
0*
#425
b0 /"
b10100000000000000 k
b100 .
b100 )"
b0 :
b0 @
b0 H
b0 ""
03
b10 X
b0 J
b10100000000000000 5"
b0 4"
b0 :"
b10 9"
b100 3"
b10 8"
b10111 7"
b10100000100010111 6"
1*
#450
0*
#475
b10000000100010011 0
b10000000100010011 N
b10000000100010011 ^
b100 "
b100 =
b0 %
b0 5
b0 I
b1 /"
b1000 *"
b100 /
b100 O
b100 '"
b11 X
13
1'
1*
#500
0*
#525
b10 /"
b0 &"
b0 $"
b10011 ("
b10010000000001000 F
b10000000000001000 E
b10 (
b10 9
b10 W
b0 X
03
0'
1*
#550
0*
#575
b11 /"
13
b1 X
1*
#600
0*
#625
b100 /"
03
b10 X
1*
#650
0*
#675
b101 /"
b11 X
13
1'
1*
#700
0*
#725
b0 /"
b1000 .
b1000 )"
b10010000000001100 F
b10000000000001100 E
b11 (
b11 9
b11 W
b0 X
03
0'
b0 5"
b0 3"
b10011 7"
b10000000100010011 6"
1*
#750
0*
#775
b10000000110010111 0
b10000000110010111 N
b10000000110010111 ^
b1000 "
b1000 =
b1 /"
b1100 *"
b1000 /
b1000 O
b1000 '"
13
b1 X
1*
#800
0*
#825
b10 /"
b10000000000000000 &"
b11 +"
b10111 ("
03
b10 X
1*
#850
0*
#875
b11 /"
b10000000000001000 1"
b11 X
13
1'
1*
#900
0*
#925
b100 /"
b10010000000010000 F
b10000000000010000 E
b100 (
b100 9
b100 W
b0 X
03
0'
1*
#950
0*
#975
b101 /"
13
b1 X
1*
#1000
0*
#1025
b0 /"
b10000000000001000 v
b1100 .
b1100 )"
03
b10 X
b10000000000000000 5"
b11 8"
b10111 7"
b10000000110010111 6"
1*
#1050
0*
#1075
b1111111100000011000000110010011 0
b1111111100000011000000110010011 N
b1111111100000011000000110010011 ^
b1100 "
b1100 =
b1 /"
b10000 *"
b1100 /
b1100 O
b1100 '"
b11 X
13
1'
1*
#1100
0*
#1125
b10 /"
b11111111000 &"
b111111 %"
b11000 -"
b11 ,"
b10011 ("
b10010000000010100 F
b10000000000010100 E
b101 (
b101 9
b101 W
b0 X
03
0'
1*
#1150
0*
#1175
b11 /"
b10000100000000000 1"
13
b1 X
1*
#1200
0*
#1225
b100 /"
03
b10 X
1*
#1250
0*
#1275
b101 /"
b11 X
13
1'
1*
#1300
0*
#1325
b0 /"
b10000100000000000 v
b10000 .
b10000 )"
b10010000000011000 F
b10000000000011000 E
b110 (
b110 9
b110 W
b0 X
03
0'
b11111111000 5"
b111111 4"
b11000 :"
b11 9"
b10011 7"
b1111111100000011000000110010011 6"
1*
#1350
0*
#1375
b1111100000000000010100010011 0
b1111100000000000010100010011 N
b1111100000000000010100010011 ^
b10000 "
b10000 =
b1 /"
b10100 *"
b10000 /
b10000 O
b10000 '"
13
b1 X
1*
#1400
0*
#1425
b10 /"
b11111000 &"
b111 %"
b0 ,"
b1010 +"
03
b10 X
1*
#1450
0*
#1475
b11 /"
b11111000 1"
b11 X
13
1'
1*
#1500
0*
#1525
b100 /"
b10010000000011100 F
b10000000000011100 E
b111 (
b111 9
b111 W
b0 X
03
0'
1*
#1550
0*
#1575
b101 /"
13
b1 X
1*
#1600
0*
#1625
b0 /"
b11111000 a
b10100 .
b10100 )"
03
b10 X
b11111000 5"
b111 4"
b0 9"
b1010 8"
b1111100000000000010100010011 6"
1*
#1650
0*
#1675
b10000010110010111 0
b10000010110010111 N
b10000010110010111 ^
b10100 "
b10100 =
b1 /"
b11000 *"
b10100 /
b10100 O
b10100 '"
b11 X
13
1'
1*
#1700
0*
#1725
b10 /"
b10000000000000000 &"
b0 %"
b0 -"
b10 ,"
b1011 +"
b10111 ("
b10010000000100000 F
b10000000000100000 E
b1000 (
b1000 9
b1000 W
b0 X
03
0'
1*
#1750
0*
#1775
b11 /"
b10000000000010100 1"
13
b1 X
1*
#1800
0*
#1825
b100 /"
03
b10 X
b10 L
b10 J
1*
#1850
0*
#1875
b10 $
b10 4
b10 K
b10 %
b10 5
b10 I
b101 /"
b11 X
13
1'
1*
#1900
0*
#1925
b0 /"
b10000000000010100 b
b11000 .
b11000 )"
b10010000000100100 F
b10000000000100100 E
b1001 (
b1001 9
b1001 W
b0 X
03
0'
b10000000000000000 5"
b0 4"
b0 :"
b10 9"
b1011 8"
b10111 7"
b10000010110010111 6"
1*
#1950
0*
#1975
b11111110110001011000010110010011 0
b11111110110001011000010110010011 N
b11111110110001011000010110010011 ^
b11000 "
b11000 =
b1 /"
b11100 *"
b11000 /
b11000 O
b11000 '"
13
b1 X
1*
#2000
0*
#2025
b10 /"
b11111111111111111111111111101100 &"
b1111111 %"
b1100 -"
b1011 ,"
b10011 ("
03
b10 X
1*
#2050
0*
#2075
b11 /"
b10000000000000000 1"
b11 X
13
1'
1*
#2100
0*
#2125
b100 /"
b10010000000101000 F
b10000000000101000 E
b1010 (
b1010 9
b1010 W
b0 X
03
0'
1*
#2150
0*
#2175
b101 /"
13
b1 X
1*
#2200
0*
#2225
b0 /"
b10000000000000000 b
b11100 .
b11100 )"
03
b10 X
b11111111111111111111111111101100 5"
b1111111 4"
b1100 :"
b1011 9"
b10011 7"
b11111110110001011000010110010011 6"
1*
#2250
0*
#2275
b10000011000010111 0
b10000011000010111 N
b10000011000010111 ^
b11100 "
b11100 =
b1 /"
b100000 *"
b11100 /
b11100 O
b11100 '"
b11 X
13
1'
1*
#2300
0*
#2325
b10 /"
b10000000000000000 &"
b0 %"
b0 -"
b10 ,"
b1100 +"
b10111 ("
b10010000000101100 F
b10000000000101100 E
b1011 (
b1011 9
b1011 W
b0 X
03
0'
1*
#2350
0*
#2375
b11 /"
b10000000000011100 1"
13
b1 X
1*
#2400
0*
#2425
b100 /"
03
b10 X
1*
#2450
0*
#2475
b101 /"
b11 X
13
1'
1*
#2500
0*
#2525
b0 /"
b10000000000011100 c
b100000 .
b100000 )"
b10010000000110000 F
b10000000000110000 E
b1100 (
b1100 9
b1100 W
b0 X
03
0'
b10000000000000000 5"
b0 4"
b0 :"
b10 9"
b1100 8"
b10111 7"
b10000011000010111 6"
1*
#2550
0*
#2575
b11111110010001100000011000010011 0
b11111110010001100000011000010011 N
b11111110010001100000011000010011 ^
b100000 "
b100000 =
b1 /"
b100100 *"
b100000 /
b100000 O
b100000 '"
13
b1 X
1*
#2600
0*
#2625
b10 /"
b11111111111111111111111111100100 &"
b1111111 %"
b100 -"
b1100 ,"
b10011 ("
03
b10 X
1*
#2650
0*
#2675
b11 /"
b10000000000000000 1"
b11 X
13
1'
1*
#2700
0*
#2725
b100 /"
b10010000000110100 F
b10000000000110100 E
b1101 (
b1101 9
b1101 W
b0 X
03
0'
1*
#2750
0*
#2775
b101 /"
13
b1 X
1*
#2800
0*
#2825
b0 /"
b10000000000000000 c
b100100 .
b100100 )"
03
b10 X
b11111111111111111111111111100100 5"
b1111111 4"
b100 :"
b1100 9"
b10011 7"
b11111110010001100000011000010011 6"
1*
#2850
0*
#2875
b110001011000110001100011 0
b110001011000110001100011 N
b110001011000110001100011 ^
b100100 "
b100100 =
b1 /"
b101000 *"
b100100 /
b100100 O
b100100 '"
b11 X
13
1'
1*
#2900
0*
#2925
b10 /"
b11000 &"
b0 %"
b1100 -"
b1011 ,"
b11000 +"
b1100011 ("
b10010000000111000 F
b10000000000111000 E
b1110 (
b1110 9
b1110 W
b0 X
03
0'
1*
#2950
0*
#2975
b11 /"
b111100 *"
13
b1 X
1*
#3000
0*
#3025
b100 /"
03
b10 X
1*
#3050
0*
#3075
b101 /"
b11 X
13
1'
1*
#3100
0*
#3125
b0 /"
b10000000000000000 p
b111100 .
b111100 )"
b10010000000111100 F
b10000000000111100 E
b1111 (
b1111 9
b1111 W
b0 X
03
0'
b11000 5"
b0 4"
b1100 :"
b1011 9"
b11000 8"
b1100011 7"
b110001011000110001100011 6"
1*
#3150
0*
#3175
b10000010110010111 0
b10000010110010111 N
b10000010110010111 ^
b111100 "
b111100 =
b1 /"
b1000000 *"
b111100 /
b111100 O
b111100 '"
13
b1 X
1*
#3200
0*
#3225
b10 /"
b10000000000000000 &"
b0 -"
b10 ,"
b1011 +"
b10111 ("
03
b10 X
1*
#3250
0*
#3275
b11 /"
b10000000000111100 1"
b11 X
13
1'
1*
#3300
0*
#3325
b100 /"
b10010000001000000 F
b10000000001000000 E
b10000 (
b10000 9
b10000 W
b0 X
03
0'
1*
#3350
0*
#3375
b101 /"
13
b1 X
1*
#3400
0*
#3425
b0 /"
b10000000000111100 b
b1000000 .
b1000000 )"
03
b10 X
b1 L
b1 J
b10000000000000000 5"
b0 :"
b10 9"
b1011 8"
b10111 7"
b10000010110010111 6"
1*
#3450
0*
#3475
b11111100010001011000010110010011 0
b11111100010001011000010110010011 N
b11111100010001011000010110010011 ^
b1000000 "
b1000000 =
b1 $
b1 4
b1 K
b1 %
b1 5
b1 I
b1 /"
b1000100 *"
b1000000 /
b1000000 O
b1000000 '"
b11 X
13
1'
1*
#3500
0*
#3525
b10 /"
b11111111111111111111111111000100 &"
b1111110 %"
b100 -"
b1011 ,"
b10011 ("
b10010000001000100 F
b10000000001000100 E
b10001 (
b10001 9
b10001 W
b0 X
03
0'
1*
#3550
0*
#3575
b11 /"
b10000000000000000 1"
13
b1 X
1*
#3600
0*
#3625
b100 /"
03
b10 X
1*
#3650
0*
#3675
b101 /"
b11 X
13
1'
1*
#3700
0*
#3725
b0 /"
b10000000000000000 b
b1000100 .
b1000100 )"
b10010000001001000 F
b10000000001001000 E
b10010 (
b10010 9
b10010 W
b0 X
03
0'
b11111111111111111111111111000100 5"
b1111110 4"
b100 :"
b1011 9"
b10011 7"
b11111100010001011000010110010011 6"
1*
#3750
0*
#3775
b10000011000010111 0
b10000011000010111 N
b10000011000010111 ^
b1000100 "
b1000100 =
b1 /"
b1001000 *"
b1000100 /
b1000100 O
b1000100 '"
13
b1 X
1*
#3800
0*
#3825
b10 /"
b10000000000000000 &"
b0 %"
b0 -"
b10 ,"
b1100 +"
b10111 ("
03
b10 X
1*
#3850
0*
#3875
b11 /"
b10000000001000100 1"
b11 X
13
1'
1*
#3900
0*
#3925
b100 /"
b10010000001001100 F
b10000000001001100 E
b10011 (
b10011 9
b10011 W
b0 X
03
0'
1*
#3950
0*
#3975
b101 /"
13
b1 X
1*
#4000
0*
#4025
b0 /"
b10000000001000100 c
b1001000 .
b1001000 )"
03
b10 X
b10000000000000000 5"
b0 4"
b0 :"
b10 9"
b1100 8"
b10111 7"
b10000011000010111 6"
1*
#4050
0*
#4075
b11111011110001100000011000010011 0
b11111011110001100000011000010011 N
b11111011110001100000011000010011 ^
b1001000 "
b1001000 =
b1 /"
b1001100 *"
b1001000 /
b1001000 O
b1001000 '"
b11 X
13
1'
1*
#4100
0*
#4125
b10 /"
b11111111111111111111111110111100 &"
b1111101 %"
b11100 -"
b1100 ,"
b10011 ("
b10010000001010000 F
b10000000001010000 E
b10100 (
b10100 9
b10100 W
b0 X
03
0'
1*
#4150
0*
#4175
b11 /"
b10000000000000000 1"
13
b1 X
1*
#4200
0*
#4225
b100 /"
03
b10 X
1*
#4250
0*
#4275
b101 /"
b11 X
13
1'
1*
#4300
0*
#4325
b0 /"
b10000000000000000 c
b1001100 .
b1001100 )"
b10010000001010100 F
b10000000001010100 E
b10101 (
b10101 9
b10101 W
b0 X
03
0'
b11111111111111111111111110111100 5"
b1111101 4"
b11100 :"
b1100 9"
b10011 7"
b11111011110001100000011000010011 6"
1*
#4350
0*
#4375
b110001011000100001100011 0
b110001011000100001100011 N
b110001011000100001100011 ^
b1001100 "
b1001100 =
b1 /"
b1010000 *"
b1001100 /
b1001100 O
b1001100 '"
13
b1 X
1*
#4400
0*
#4425
b10 /"
b10000 &"
b0 %"
b1100 -"
b1011 ,"
b10000 +"
b1100011 ("
03
b10 X
1*
#4450
0*
#4475
b11 /"
b1011100 *"
b11 X
13
1'
1*
#4500
0*
#4525
b100 /"
b10010000001011000 F
b10000000001011000 E
b10110 (
b10110 9
b10110 W
b0 X
03
0'
1*
#4550
0*
#4575
b101 /"
13
b1 X
1*
#4600
0*
#4625
b0 /"
b10000000000000000 g
b1011100 .
b1011100 )"
03
b10 X
b10000 5"
b0 4"
b1100 :"
b1011 9"
b10000 8"
b1100011 7"
b110001011000100001100011 6"
1*
#4650
0*
#4675
b100000000000000011101111 0
b100000000000000011101111 N
b100000000000000011101111 ^
b1011100 "
b1011100 =
b1 /"
b1100000 *"
b1011100 /
b1011100 O
b1011100 '"
b11 X
13
1'
1*
#4700
0*
#4725
b10 /"
b1000 &"
b1000 -"
b0 ,"
b1 +"
b1101111 ("
b10010000001011100 F
b10000000001011100 E
b10111 (
b10111 9
b10111 W
b0 X
03
0'
1*
#4750
0*
#4775
b11 /"
b1100100 *"
b1100000 1"
13
b1 X
1*
#4800
0*
#4825
b100 /"
03
b10 X
1*
#4850
0*
#4875
b101 /"
b11 X
13
1'
1*
#4900
0*
#4925
b0 /"
b1100000 `
b1100100 .
b1100100 )"
b10010000001100000 F
b10000000001100000 E
b11000 (
b11000 9
b11000 W
b0 X
03
0'
b1000 5"
b1000 :"
b0 9"
b1 8"
b1101111 7"
b100000000000000011101111 6"
1*
#4950
0*
#4975
b11100000000011110010011 0
b11100000000011110010011 N
b11100000000011110010011 ^
b1100100 "
b1100100 =
b1 /"
b1101000 *"
b1100100 /
b1100100 O
b1100100 '"
13
b1 X
1*
#5000
0*
#5025
b10 /"
b111 &"
b111 -"
b1111 +"
b10011 ("
03
b10 X
b10 L
b10 J
1*
#5050
0*
#5075
b10 $
b10 4
b10 K
b10 %
b10 5
b10 I
b11 /"
b111 1"
b11 X
13
1'
1*
#5100
0*
#5125
b100 /"
b10010000001100100 F
b10000000001100100 E
b11001 (
b11001 9
b11001 W
b0 X
03
0'
1*
#5150
0*
#5175
b101 /"
13
b1 X
1*
#5200
0*
#5225
b0 /"
b111 f
b1101000 .
b1101000 )"
03
b10 X
b111 5"
b111 :"
b1111 8"
b10011 7"
b11100000000011110010011 6"
1*
#5250
0*
#5275
b100000011100110111 0
b100000011100110111 N
b100000011100110111 ^
b1101000 "
b1101000 =
b1 /"
b1101100 *"
b1101000 /
b1101000 O
b1101000 '"
b11 X
13
1'
1*
#5300
0*
#5325
b10 /"
b100000000000000000 &"
b0 -"
b100 ,"
b1110 +"
b110111 ("
b10010000001101000 F
b10000000001101000 E
b11010 (
b11010 9
b11010 W
b0 X
03
0'
1*
#5350
0*
#5375
b11 /"
b100000000000000000 1"
13
b1 X
1*
#5400
0*
#5425
b100 /"
03
b10 X
1*
#5450
0*
#5475
b101 /"
b11 X
13
1'
1*
#5500
0*
#5525
b0 /"
b100000000000000000 e
b1101100 .
b1101100 )"
b10010000001101100 F
b10000000001101100 E
b11011 (
b11011 9
b11011 W
b0 X
03
0'
b100000000000000000 5"
b0 :"
b100 9"
b1110 8"
b110111 7"
b100000011100110111 6"
1*
#5550
0*
#5575
b10111101110010010000100011 0
b10111101110010010000100011 N
b10111101110010010000100011 ^
b1101100 "
b1101100 =
b1 /"
b1110000 *"
b1101100 /
b1101100 O
b1101100 '"
13
b1 X
1*
#5600
0*
#5625
b10 /"
b101000 &"
b1 %"
b1111 -"
b1110 ,"
b10 $"
b1000 +"
b100011 ("
03
b10 X
1*
#5650
0*
#5675
b1000000000001010 ?
b11 /"
12
b111 0"
b100000000000101000 <
b100000000000101000 A
b100000000000101000 G
b100000000000101000 !"
b11 X
13
1'
1*
#5700
0*
#5725
b111 :
b111 @
b111 H
b111 ""
b100 /"
12
b10010000001110000 F
b10000000001110000 E
b11100 (
b11100 9
b11100 W
b0 X
03
0'
1*
#5750
0*
#5775
b101 /"
02
13
b1 X
1*
#5800
0*
#5825
b0 ?
b0 /"
b100000000000000000 }
b1110000 .
b1110000 )"
b0 <
b0 A
b0 G
b0 !"
b0 :
b0 @
b0 H
b0 ""
03
b10 X
b101000 5"
b1 4"
b1111 :"
b1110 9"
b10 3"
b1000 8"
b100011 7"
b10111101110010010000100011 6"
1*
#5850
0*
#5875
b100000011100110111 0
b100000011100110111 N
b100000011100110111 ^
b1110000 "
b1110000 =
b1 /"
b1110100 *"
b1110000 /
b1110000 O
b1110000 '"
b11 X
13
1'
1*
#5900
0*
#5925
b10 /"
b100000000000000000 &"
b0 %"
b0 -"
b100 ,"
b0 $"
b1110 +"
b110111 ("
b10010000001110100 F
b10000000001110100 E
b11101 (
b11101 9
b11101 W
b0 X
03
0'
1*
#5950
0*
#5975
b11 /"
13
b1 X
1*
#6000
0*
#6025
b100 /"
03
b10 X
1*
#6050
0*
#6075
b101 /"
b11 X
13
1'
1*
#6100
0*
#6125
b0 /"
b1110100 .
b1110100 )"
b10010000001111000 F
b10000000001111000 E
b11110 (
b11110 9
b11110 W
b0 X
03
0'
b100000000000000000 5"
b0 4"
b0 :"
b100 9"
b0 3"
b1110 8"
b110111 7"
b100000011100110111 6"
1*
#6150
0*
#6175
b10111101110010011000100011 0
b10111101110010011000100011 N
b10111101110010011000100011 ^
b1110100 "
b1110100 =
b1 /"
b1111000 *"
b1110100 /
b1110100 O
b1110100 '"
13
b1 X
1*
#6200
0*
#6225
b10 /"
b101100 &"
b1 %"
b1111 -"
b1110 ,"
b10 $"
b1100 +"
b100011 ("
03
b10 X
1*
#6250
0*
#6275
b1000000000001011 ?
b11 /"
12
b100000000000101100 <
b100000000000101100 A
b100000000000101100 G
b100000000000101100 !"
b11 X
13
1'
1*
#6300
0*
#6325
b111 :
b111 @
b111 H
b111 ""
b100 /"
12
b10010000001111100 F
b10000000001111100 E
b11111 (
b11111 9
b11111 W
b0 X
03
0'
1*
#6350
0*
#6375
b101 /"
02
13
b1 X
1*
#6400
0*
#6425
b0 ?
b0 /"
b100000000000000000 c
b1111000 .
b1111000 )"
b0 <
b0 A
b0 G
b0 !"
b0 :
b0 @
b0 H
b0 ""
03
b10 X
b101100 5"
b1 4"
b1111 :"
b1110 9"
b10 3"
b1100 8"
b100011 7"
b10111101110010011000100011 6"
1*
#6450
0*
#6475
b100000011100110111 0
b100000011100110111 N
b100000011100110111 ^
b1111000 "
b1111000 =
b1 /"
b1111100 *"
b1111000 /
b1111000 O
b1111000 '"
b11 X
13
1'
1*
#6500
0*
#6525
b10 /"
b100000000000000000 &"
b0 %"
b0 -"
b100 ,"
b0 $"
b1110 +"
b110111 ("
b10010000010000000 F
b10000000010000000 E
b100000 (
b100000 9
b100000 W
b0 X
03
0'
1*
#6550
0*
#6575
b11 /"
13
b1 X
1*
#6600
0*
#6625
b100 /"
03
b10 X
b1 L
b1 J
1*
#6650
0*
#6675
b1 $
b1 4
b1 K
b1 %
b1 5
b1 I
b101 /"
b11 X
13
1'
1*
#6700
0*
#6725
b0 /"
b1111100 .
b1111100 )"
b10010000010000100 F
b10000000010000100 E
b100001 (
b100001 9
b100001 W
b0 X
03
0'
b100000000000000000 5"
b0 4"
b0 :"
b100 9"
b0 3"
b1110 8"
b110111 7"
b100000011100110111 6"
1*
#6750
0*
#6775
b10111101110010100000100011 0
b10111101110010100000100011 N
b10111101110010100000100011 ^
b1111100 "
b1111100 =
b1 /"
b10000000 *"
b1111100 /
b1111100 O
b1111100 '"
13
b1 X
1*
#6800
0*
#6825
b10 /"
b110000 &"
b1 %"
b1111 -"
b1110 ,"
b10 $"
b10000 +"
b100011 ("
03
b10 X
1*
#6850
0*
#6875
b1000000000001100 ?
b11 /"
12
b100000000000110000 <
b100000000000110000 A
b100000000000110000 G
b100000000000110000 !"
b11 X
13
1'
1*
#6900
0*
#6925
b111 :
b111 @
b111 H
b111 ""
b100 /"
12
b10010000010001000 F
b10000000010001000 E
b100010 (
b100010 9
b100010 W
b0 X
03
0'
1*
#6950
0*
#6975
b101 /"
02
13
b1 X
1*
#7000
0*
#7025
b0 ?
b0 /"
b100000000000000000 g
b10000000 .
b10000000 )"
b0 <
b0 A
b0 G
b0 !"
b0 :
b0 @
b0 H
b0 ""
03
b10 X
b110000 5"
b1 4"
b1111 :"
b1110 9"
b10 3"
b10000 8"
b100011 7"
b10111101110010100000100011 6"
1*
#7050
0*
#7075
b100000011100110111 0
b100000011100110111 N
b100000011100110111 ^
b0 "
b0 =
b1 /"
b10000100 *"
b10000000 /
b10000000 O
b10000000 '"
b11 X
13
1'
1*
#7100
0*
#7125
b10 /"
b100000000000000000 &"
b0 %"
b0 -"
b100 ,"
b0 $"
b1110 +"
b110111 ("
b10010000010001100 F
b10000000010001100 E
b100011 (
b100011 9
b100011 W
b0 X
03
0'
1*
#7150
0*
#7175
b11 /"
13
b1 X
1*
#7200
0*
#7225
b100 /"
03
b10 X
1*
#7250
0*
#7275
b101 /"
b11 X
13
1'
1*
#7300
0*
#7325
b0 /"
b10000100 .
b10000100 )"
b10010000010010000 F
b10000000010010000 E
b100100 (
b100100 9
b100100 W
b0 X
03
0'
b100000000000000000 5"
b0 4"
b0 :"
b100 9"
b0 3"
b1110 8"
b110111 7"
b100000011100110111 6"
1*
#7350
0*
#7375
b10111101110010101000100011 0
b10111101110010101000100011 N
b10111101110010101000100011 ^
b100 "
b100 =
b1 /"
b10001000 *"
b10000100 /
b10000100 O
b10000100 '"
13
b1 X
1*
#7400
0*
