PraktischerTeil/Verilog/CPU/Prozessor/src/tb.vcd
$date
	Thu Feb 12 23:10:48 2026
$end
$version
	Icarus Verilog
$end
$timescale
	1ns
$end
$scope module tb_cpu $end
$var wire 32 ! spi_rdata_connect [31:0] $end
$var wire 5 " row_addr [4:0] $end
$var wire 7 # pc_trace [6:0] $end
$var wire 1 $ latch $end
$var wire 4 % dout_b [3:0] $end
$var wire 4 & dout_a [3:0] $end
$var wire 1 ' display_oe $end
$var wire 1 ( display_clk $end
$var wire 6 ) col_addr [5:0] $end
$var reg 1 * clk $end
$var reg 1 + miso $end
$var reg 1 , miso_active $end
$var reg 8 - miso_send_data [7:0] $end
$var reg 1 . rst $end
$var reg 1 / spi_test_passed $end
$var integer 32 0 miso_bit_idx [31:0] $end
$scope function state_name $end
$var reg 4 1 state [3:0] $end
$upscope $end
$scope module uut $end
$var wire 1 * clk $end
$var wire 1 + miso $end
$var wire 1 . rst $end
$var wire 1 2 spi_re $end
$var wire 32 3 spi_rdata_connect [31:0] $end
$var wire 1 4 spi_clk $end
$var wire 1 5 spi_ce $end
$var wire 1 6 spi_busy $end
$var wire 5 7 row_addr [4:0] $end
$var wire 32 8 pc [31:0] $end
$var wire 1 9 mosi $end
$var wire 1 $ latch $end
$var wire 32 : instr_addr [31:0] $end
$var wire 32 ; instr [31:0] $end
$var wire 1 < imem_ce $end
$var wire 1 = fbuf_we $end
$var wire 1 > fbuf_re $end
$var wire 4 ? dout_b [3:0] $end
$var wire 4 @ dout_a [3:0] $end
$var wire 4 A dmem_we [3:0] $end
$var wire 1 B dmem_read $end
$var wire 32 C dmem_rdata_connect [31:0] $end
$var wire 1 D dmem_ce $end
$var wire 1 ' display_oe $end
$var wire 1 ( display_clk $end
$var wire 1 E ctrl_spi_clk $end
$var wire 1 F ctrl_mosi $end
$var wire 1 G ctrl_miso $end
$var wire 1 H ctrl_cs_n $end
$var wire 1 I cs_n $end
$var wire 6 J col_addr [5:0] $end
$var wire 32 K bus_wdata [31:0] $end
$var wire 32 L bus_addr [31:0] $end
$var reg 7 M trace [6:0] $end
$scope module dmem $end
$var wire 1 * clk $end
$var wire 1 . rst $end
$var wire 4 N we [3:0] $end
$var wire 1 B re $end
$var wire 32 O index [31:0] $end
$var wire 32 P data_in [31:0] $end
$var wire 1 D ce $end
$var wire 32 Q addr [31:0] $end
$var reg 32 R data_out [31:0] $end
$var reg 32 S dout_reg [31:0] $end
$upscope $end
$scope module fb_inst $end
$var wire 1 T ce $end
$var wire 1 * clk $end
$var wire 32 U raddr_a [31:0] $end
$var wire 32 V raddr_b [31:0] $end
$var wire 1 . rst $end
$var wire 1 = we $end
$var wire 32 W waddr [31:0] $end
$var wire 1 > re $end
$var wire 32 X din [31:0] $end
$var reg 4 Y dout_a [3:0] $end
$var reg 4 Z dout_a_reg [3:0] $end
$var reg 4 [ dout_b [3:0] $end
$var reg 4 \ dout_b_reg [3:0] $end
$upscope $end
$scope module imem $end
$var wire 1 * clk $end
$var wire 1 ] oce $end
$var wire 1 . rst $end
$var wire 32 ^ dout [31:0] $end
$var wire 1 < ce $end
$var wire 32 _ addr [31:0] $end
$upscope $end
$scope module led_inst $end
$var wire 1 * clk $end
$var wire 1 . rst $end
$var parameter 32 ` COLUMNS $end
$var parameter 32 a HEIGHT $end
$var parameter 32 b LATCH_CYCLES $end
$var parameter 32 c OE_CYCLES $end
$var parameter 32 d ROWS $end
$var parameter 32 e WAIT_CYCLES $end
$var parameter 32 f WIDTH $end
$var reg 6 g col_addr [5:0] $end
$var reg 4 h con_state [3:0] $end
$var reg 1 ( display_clk $end
$var reg 1 ' display_oe $end
$var reg 1 > fbuf_re $end
$var reg 1 $ latch $end
$var reg 8 i latch_cntr [7:0] $end
$var reg 8 j oe_cntr [7:0] $end
$var reg 5 k row_addr [4:0] $end
$var reg 8 l wait_cntr [7:0] $end
$upscope $end
$scope module machine $end
$var wire 32 m bus_rdata_dmem [31:0] $end
$var wire 1 * clk $end
$var wire 32 n instr [31:0] $end
$var wire 1 . rst $end
$var wire 32 o x0 [31:0] $end
$var wire 32 p x1 [31:0] $end
$var wire 32 q x10 [31:0] $end
$var wire 32 r x11 [31:0] $end
$var wire 32 s x12 [31:0] $end
$var wire 32 t x13 [31:0] $end
$var wire 32 u x14 [31:0] $end
$var wire 32 v x15 [31:0] $end
$var wire 32 w x16 [31:0] $end
$var wire 32 x x17 [31:0] $end
$var wire 32 y x18 [31:0] $end
$var wire 32 z x19 [31:0] $end
$var wire 32 { x2 [31:0] $end
$var wire 32 | x20 [31:0] $end
$var wire 32 } x21 [31:0] $end
$var wire 32 ~ x22 [31:0] $end
$var wire 32 !" x23 [31:0] $end
$var wire 32 "" x24 [31:0] $end
$var wire 32 #" x25 [31:0] $end
$var wire 32 $" x26 [31:0] $end
$var wire 32 %" x27 [31:0] $end
$var wire 32 &" x28 [31:0] $end
$var wire 32 '" x29 [31:0] $end
$var wire 32 (" x3 [31:0] $end
$var wire 32 )" x30 [31:0] $end
$var wire 32 *" x31 [31:0] $end
$var wire 32 +" x4 [31:0] $end
$var wire 32 ," x5 [31:0] $end
$var wire 32 -" x6 [31:0] $end
$var wire 32 ." x7 [31:0] $end
$var wire 32 /" x8 [31:0] $end
$var wire 32 0" x9 [31:0] $end
$var wire 1 6 spi_busy $end
$var wire 32 1" bus_rdata_spi [31:0] $end
$var wire 32 2" bus_rdata [31:0] $end
$var reg 32 3" bus_addr [31:0] $end
$var reg 32 4" bus_wdata [31:0] $end
$var reg 1 D dmem_ce $end
$var reg 1 B dmem_read $end
$var reg 4 5" dmem_we [3:0] $end
$var reg 1 = fbuf_we $end
$var reg 3 6" funct3 [2:0] $end
$var reg 7 7" funct7 [6:0] $end
$var reg 1 < imem_ce $end
$var reg 32 8" imm [31:0] $end
$var reg 32 9" instr_addr [31:0] $end
$var reg 7 :" opcode [6:0] $end
$var reg 32 ;" pc [31:0] $end
$var reg 32 <" pc_next [31:0] $end
$var reg 5 =" rd [4:0] $end
$var reg 5 >" rs1 [4:0] $end
$var reg 5 ?" rs2 [4:0] $end
$var reg 1 @" set_rd_flag $end
$var reg 5 A" shift_amt [4:0] $end
$var reg 1 5 spi_ce $end
$var reg 1 2 spi_re $end
$var reg 3 B" state [2:0] $end
$var reg 32 C" tmp_bus_wdata [31:0] $end
$var reg 32 D" tmp_rd [31:0] $end
$var integer 32 E" i [31:0] $end
$scope task show_instruction $end
$var reg 3 F" funct3 [2:0] $end
$var reg 7 G" funct7 [6:0] $end
$var reg 32 H" imm [31:0] $end
$var reg 32 I" instr [31:0] $end
$var reg 7 J" opcode [6:0] $end
$var reg 5 K" rd [4:0] $end
$var reg 5 L" rs1 [4:0] $end
$var reg 5 M" rs2 [4:0] $end
$upscope $end
$upscope $end
$scope module spi_inst $end
$var wire 1 5 ce $end
$var wire 1 * clk $end
$var wire 1 G ctrl_miso $end
$var wire 1 + miso $end
$var wire 1 2 re $end
$var wire 1 . rst $end
$var wire 1 6 busy $end
$var parameter 32 N" bit_cntr_max $end
$var parameter 32 O" idle_delay $end
$var parameter 32 P" wait_cntr_max $end
$var parameter 32 Q" word_cntr_max $end
$var parameter 32 R" word_gap_cycles $end
$var reg 3 S" bit_cntr [2:0] $end
$var reg 1 I cs_n $end
$var reg 1 H ctrl_cs_n $end
$var reg 1 F ctrl_mosi $end
$var reg 1 E ctrl_spi_clk $end
$var reg 7 T" idle_cntr [6:0] $end
$var reg 1 U" miso_reg $end
$var reg 1 9 mosi $end
$var reg 1 4 spi_clk $end
$var reg 32 V" spi_rdata [31:0] $end
$var reg 3 W" state [2:0] $end
$var reg 6 X" wait_cntr [5:0] $end
$var reg 4 Y" word_cntr [3:0] $end
$upscope $end
$upscope $end
$scope begin $unm_blk_20 $end
$var reg 32 Z" expected_data [31:0] $end
$var reg 32 [" x5_value [31:0] $end
$var integer 32 \" timeout [31:0] $end
$upscope $end
$upscope $end
$enddefinitions $end
$comment Show the parameter values. $end
$dumpall
b100000 R"
b100 Q"
b10000 P"
b1100100 O"
b111 N"
b1000000 f
b110 e
b100000 d
b1000 c
b100 b
b1000000 a
b1000000 `
$end
#0
$dumpvars
bx \"
bx ["
b1010101001010101 Z"
b0 Y"
b0 X"
b1 W"
b0 V"
0U"
b0 T"
b0 S"
bx M"
bx L"
bx K"
bx J"
bx I"
bx H"
bx G"
bx F"
bx E"
bx D"
bx C"
bx B"
bx A"
x@"
bx ?"
bx >"
bx ="
bx <"
bx ;"
bx :"
bx 9"
bx 8"
bx 7"
bx 6"
bx 5"
bx 4"
bx 3"
bx 2"
b0 1"
bx 0"
bx /"
bx ."
bx -"
bx ,"
bx +"
bx *"
bx )"
bx ("
bx '"
bx &"
bx %"
bx $"
bx #"
bx ""
bx !"
bx ~
bx }
bx |
bx {
bx z
bx y
bx x
bx w
bx v
bx u
bx t
bx s
bx r
bx q
bx p
bx o
bx n
bx m
b0 l
b0 k
bx j
bx i
b0 h
b0 g
bx _
bx ^
1]
b0 \
bx [
b0 Z
bx Y
bx X
bx W
b10010000000000000 V
b10000000000000000 U
1T
bx S
bx R
bx Q
bx P
b0xxxxxxxxxxxxxxxxxxxxxxxxxxxxxx O
bx N
bx M
bx L
bx K
b0 J
1I
xH
0G
xF
xE
xD
bx C
xB
bx A
bx @
bx ?
0>
x=
x<
bx ;
bx :
09
bx 8
b0 7
06
x5
14
b0 3
x2
bx 1
b0 0
1/
1.
b0 -
0,
1+
0*
b0 )
0(
1'
bx &
bx %
0$
bx #
b0 "
b0 !
$end
#25
b0 2"
b0 O
b10100000100010111 ;
b10100000100010111 ^
b10100000100010111 n
b0 S
b0 C
b0 R
b0 m
b0 *"
b0 )"
b0 '"
b0 &"
b0 %"
b0 $"
b0 #"
b0 ""
b0 !"
b0 ~
b0 }
b0 |
b0 z
b0 y
b0 x
b0 w
b0 v
b0 u
b0 t
b0 s
b0 r
b0 q
b0 0"
b0 /"
b0 ."
b0 -"
b0 ,"
b0 +"
b0 ("
b0 {
b0 p
b0 o
b0 <"
b0 L
b0 Q
b0 W
b0 3"
1<
02
05
0=
0D
b0 A
b0 N
b0 5"
0B
b0 :
b0 _
b0 9"
b0 D"
b0 8
b0 ;"
b0 B"
b0 %
b0 ?
b0 [
b0 &
b0 @
b0 Y
b0 #
b0 M
b100000 E"
1*
#50
0*
#75
b100000 E"
1*
#100
0*
#125
b100000 E"
1*
#150
0*
0.
#175
b1 B"
b100 <"
1>
b1 h
b1 T"
1H
0F
1E
1G
1U"
1*
#200
0*
#225
b10 B"
b10100000000000000 8"
b0 7"
b0 ?"
b10 >"
b100 6"
b10 ="
b10111 :"
b10 T"
0>
b10 h
b1 \
b100 Z
1*
#250
0*
#275
b1 %
b1 ?
b1 [
b100 &
b100 @
b100 Y
b11 B"
b10100000000000000 D"
1@"
b11 h
1>
1(
b11 T"
1*
#300
0*
#325
b100 B"
b100 T"
b10010000000000100 V
b10000000000000100 U
b1 )
b1 J
b1 g
b0 h
0>
0(
1*
#350
0*
0/
#375
b101 B"
1>
b1 h
b101 T"
1*
#400
0*
#425
0@"
b10100000000000000 {
b100 8
b100 ;"
b0 K
b0 P
b0 X
b0 4"
b110 T"
0>
b10 h
b0 Z
b10100000000000000 H"
b0 G"
b0 M"
b10 L"
b100 F"
b10 K"
b10111 J"
b10100000100010111 I"
1*
#450
0*
#475
b0 &
b0 @
b0 Y
b0 B"
b11 h
1>
1(
b111 T"
1*
#500
b1100000000000000 O
0*
b110000000000000000 L
b110000000000000000 Q
b110000000000000000 W
b110000000000000000 3"
12
#525
b10000000100010011 ;
b10000000100010011 ^
b10000000100010011 n
b1 B"
b1000 <"
b100 :
b100 _
b100 9"
b1000 T"
b10010000000001000 V
b10000000000001000 U
b10 )
b10 J
b10 g
b0 h
0>
0(
1*
#550
b0 O
0*
b0 \"
b0 L
b0 Q
b0 W
b0 3"
02
#575
b10 B"
b0 8"
b0 6"
b10011 :"
1>
b1 h
b1001 T"
1*
#600
0*
#625
b11 B"
1@"
b1010 T"
0>
b10 h
1*
#650
0*
b1100100 \"
#675
b100 B"
b11 h
1>
1(
b1011 T"
1*
#700
0*
#725
b101 B"
b1100 T"
b10010000000001100 V
b10000000000001100 U
b11 )
b11 J
b11 g
b0 h
0>
0(
1*
#750
0*
b11001000 \"
#775
0@"
b1000 8
b1000 ;"
1>
b1 h
b1101 T"
b0 H"
b0 F"
b10011 J"
b10000000100010011 I"
1*
#800
0*
#825
b0 B"
b1110 T"
0>
b10 h
1*
#850
0*
b100101100 \"
#875
b10000000110010111 ;
b10000000110010111 ^
b10000000110010111 n
b1 B"
b1100 <"
b1000 :
b1000 _
b1000 9"
b11 h
1>
1(
b1111 T"
1*
#900
0*
#925
b10 B"
b10000000000000000 8"
b11 ="
b10111 :"
b10000 T"
b10010000000010000 V
b10000000000010000 U
b100 )
b100 J
b100 g
b0 h
0>
0(
1*
#950
0*
b110010000 \"
#975
b11 B"
b10000000000001000 D"
1@"
1>
b1 h
b10001 T"
1*
#1000
0*
#1025
b100 B"
b10010 T"
0>
b10 h
1*
#1050
0*
b111110100 \"
#1075
b101 B"
b11 h
1>
1(
b10011 T"
1*
#1100
0*
#1125
0@"
b10000000000001000 ("
b1100 8
b1100 ;"
b10100 T"
b10010000000010100 V
b10000000000010100 U
b101 )
b101 J
b101 g
b0 h
0>
0(
b10000000000000000 H"
b11 K"
b10111 J"
b10000000110010111 I"
1*
#1150
0*
b1001011000 \"
#1175
b0 B"
1>
b1 h
b10101 T"
1*
#1200
0*
#1225
b1111111100000011000000110010011 ;
b1111111100000011000000110010011 ^
b1111111100000011000000110010011 n
b1 B"
b10000 <"
b1100 :
b1100 _
b1100 9"
b10110 T"
0>
b10 h
1*
#1250
0*
b1010111100 \"
#1275
b10 B"
b11111111000 8"
b111111 7"
b11000 ?"
b11 >"
b10011 :"
b11 h
1>
1(
b10111 T"
1*
#1300
0*
#1325
b11 B"
b10000100000000000 D"
1@"
b11000 T"
b10010000000011000 V
b10000000000011000 U
b110 )
b110 J
b110 g
b0 h
0>
0(
1*
#1350
0*
b1100100000 \"
#1375
b100 B"
1>
b1 h
b11001 T"
1*
#1400
0*
#1425
b101 B"
b11010 T"
0>
b10 h
1*
#1450
0*
b1110000100 \"
#1475
0@"
b10000100000000000 ("
b10000 8
b10000 ;"
b11 h
1>
1(
b11011 T"
b11111111000 H"
b111111 G"
b11000 M"
b11 L"
b10011 J"
b1111111100000011000000110010011 I"
1*
#1500
0*
#1525
b0 B"
b11100 T"
b10010000000011100 V
b10000000000011100 U
b111 )
b111 J
b111 g
b0 h
0>
0(
1*
#1550
0*
b1111101000 \"
#1575
b111110000000000010100010011 ;
b111110000000000010100010011 ^
b111110000000000010100010011 n
b1 B"
b10100 <"
b10000 :
b10000 _
b10000 9"
1>
b1 h
b11101 T"
1*
#1600
0*
#1625
b10 B"
b1111100 8"
b11 7"
b11100 ?"
b0 >"
b1010 ="
b11110 T"
0>
b10 h
1*
#1650
0*
b10001001100 \"
#1675
b11 B"
b1111100 D"
1@"
b11 h
1>
1(
b11111 T"
1*
#1700
0*
#1725
b100 B"
b100000 T"
b10010000000100000 V
b10000000000100000 U
b1000 )
b1000 J
b1000 g
b0 h
0>
0(
1*
#1750
0*
b10010110000 \"
#1775
b101 B"
1>
b1 h
b100001 T"
1*
#1800
0*
#1825
0@"
b1111100 q
b10100 8
b10100 ;"
b100010 T"
0>
b10 h
b10 \
b10 Z
b1111100 H"
b11 G"
b11100 M"
b0 L"
b1010 K"
b111110000000000010100010011 I"
1*
#1850
0*
b10100010100 \"
#1875
b10 %
b10 ?
b10 [
b10 &
b10 @
b10 Y
b0 B"
b11 h
1>
1(
b100011 T"
1*
#1900
0*
#1925
b10000010110010111 ;
b10000010110010111 ^
b10000010110010111 n
b1 B"
b11000 <"
b10100 :
b10100 _
b10100 9"
b100100 T"
b10010000000100100 V
b10000000000100100 U
b1001 )
b1001 J
b1001 g
b0 h
0>
0(
1*
#1950
0*
b10101111000 \"
#1975
b10 B"
b10000000000000000 8"
b0 7"
b0 ?"
b10 >"
b1011 ="
b10111 :"
1>
b1 h
b100101 T"
1*
#2000
0*
#2025
b11 B"
b10000000000010100 D"
1@"
b100110 T"
0>
b10 h
1*
#2050
0*
b10111011100 \"
#2075
b100 B"
b11 h
1>
1(
b100111 T"
1*
#2100
0*
#2125
b101 B"
b101000 T"
b10010000000101000 V
b10000000000101000 U
b1010 )
b1010 J
b1010 g
b0 h
0>
0(
1*
#2150
0*
b11001000000 \"
#2175
0@"
b10000000000010100 r
b11000 8
b11000 ;"
1>
b1 h
b101001 T"
b10000000000000000 H"
b0 G"
b0 M"
b10 L"
b1011 K"
b10111 J"
b10000010110010111 I"
1*
#2200
0*
#2225
b0 B"
b101010 T"
0>
b10 h
1*
#2250
0*
b11010100100 \"
#2275
b11111110110001011000010110010011 ;
b11111110110001011000010110010011 ^
b11111110110001011000010110010011 n
b1 B"
b11100 <"
b11000 :
b11000 _
b11000 9"
b11 h
1>
1(
b101011 T"
1*
#2300
0*
#2325
b10 B"
b11111111111111111111111111101100 8"
b1111111 7"
b1100 ?"
b1011 >"
b10011 :"
b101100 T"
b10010000000101100 V
b10000000000101100 U
b1011 )
b1011 J
b1011 g
b0 h
0>
0(
1*
#2350
0*
b11100001000 \"
#2375
b11 B"
b10000000000000000 D"
1@"
1>
b1 h
b101101 T"
1*
#2400
0*
#2425
b100 B"
b101110 T"
0>
b10 h
1*
#2450
0*
b11101101100 \"
#2475
b101 B"
b11 h
1>
1(
b101111 T"
1*
#2500
0*
#2525
0@"
b10000000000000000 r
b11100 8
b11100 ;"
b110000 T"
b10010000000110000 V
b10000000000110000 U
b1100 )
b1100 J
b1100 g
b0 h
0>
0(
b11111111111111111111111111101100 H"
b1111111 G"
b1100 M"
b1011 L"
b10011 J"
b11111110110001011000010110010011 I"
1*
#2550
0*
b11111010000 \"
#2575
b0 B"
1>
b1 h
b110001 T"
1*
#2600
0*
#2625
b10000011000010111 ;
b10000011000010111 ^
b10000011000010111 n
b1 B"
b100000 <"
b11100 :
b11100 _
b11100 9"
b110010 T"
0>
b10 h
1*
#2650
0*
b100000110100 \"
#2675
b10 B"
b10000000000000000 8"
b0 7"
b0 ?"
b10 >"
b1100 ="
b10111 :"
b11 h
1>
1(
b110011 T"
1*
#2700
0*
#2725
b11 B"
b10000000000011100 D"
1@"
b110100 T"
b10010000000110100 V
b10000000000110100 U
b1101 )
b1101 J
b1101 g
b0 h
0>
0(
1*
#2750
0*
b100010011000 \"
#2775
b100 B"
1>
b1 h
b110101 T"
1*
#2800
0*
#2825
b101 B"
b110110 T"
0>
b10 h
1*
#2850
0*
b100011111100 \"
#2875
0@"
b10000000000011100 s
b100000 8
b100000 ;"
b11 h
1>
1(
b110111 T"
b10000000000000000 H"
b0 G"
b0 M"
b10 L"
b1100 K"
b10111 J"
b10000011000010111 I"
1*
#2900
0*
#2925
b0 B"
b111000 T"
b10010000000111000 V
b10000000000111000 U
b1110 )
b1110 J
b1110 g
b0 h
0>
0(
1*
#2950
0*
b100101100000 \"
#2975
b11111110010001100000011000010011 ;
b11111110010001100000011000010011 ^
b11111110010001100000011000010011 n
b1 B"
b100100 <"
b100000 :
b100000 _
b100000 9"
1>
b1 h
b111001 T"
1*
#3000
0*
#3025
b10 B"
b11111111111111111111111111100100 8"
b1111111 7"
b100 ?"
b1100 >"
b10011 :"
b111010 T"
0>
b10 h
1*
#3050
0*
b100111000100 \"
#3075
b11 B"
b10000000000000000 D"
1@"
b11 h
1>
1(
b111011 T"
1*
#3100
0*
#3125
b100 B"
b111100 T"
b10010000000111100 V
b10000000000111100 U
b1111 )
b1111 J
b1111 g
b0 h
0>
0(
1*
#3150
0*
b101000101000 \"
#3175
b101 B"
1>
b1 h
b111101 T"
1*
#3200
0*
#3225
0@"
b10000000000000000 s
b100100 8
b100100 ;"
b111110 T"
0>
b10 h
b11111111111111111111111111100100 H"
b1111111 G"
b100 M"
b1100 L"
b10011 J"
b11111110010001100000011000010011 I"
1*
#3250
0*
b101010001100 \"
#3275
b0 B"
b11 h
1>
1(
b111111 T"
1*
#3300
0*
#3325
b110001011000110001100011 ;
b110001011000110001100011 ^
b110001011000110001100011 n
b1 B"
b101000 <"
b100100 :
b100100 _
b100100 9"
b1000000 T"
b10010000001000000 V
b10000000001000000 U
b10000 )
b10000 J
b10000 g
b0 h
0>
0(
1*
#3350
0*
b101011110000 \"
#3375
b10 B"
b11000 8"
b0 7"
b1100 ?"
b1011 >"
b11000 ="
b1100011 :"
1>
b1 h
b1000001 T"
1*
#3400
0*
#3425
b11 B"
b111100 <"
b1000010 T"
0>
b10 h
b1 \
b1 Z
1*
#3450
0*
b101101010100 \"
#3475
b100 B"
b1 %
b1 ?
b1 [
b1 &
b1 @
b1 Y
b11 h
1>
1(
b1000011 T"
1*
#3500
0*
#3525
b101 B"
b1000100 T"
b10010000001000100 V
b10000000001000100 U
b10001 )
b10001 J
b10001 g
b0 h
0>
0(
1*
#3550
0*
b101110111000 \"
#3575
b0 B"
b111100 8
b111100 ;"
1>
b1 h
b1000101 T"
b11000 H"
b0 G"
b1100 M"
b1011 L"
b11000 K"
b1100011 J"
b110001011000110001100011 I"
1*
#3600
0*
#3625
b10000010110010111 ;
b10000010110010111 ^
b10000010110010111 n
b1 B"
b1000000 <"
b111100 :
b111100 _
b111100 9"
b1000110 T"
0>
b10 h
1*
#3650
0*
b110000011100 \"
#3675
b10 B"
b10000000000000000 8"
b0 ?"
b10 >"
b1011 ="
b10111 :"
b11 h
1>
1(
b1000111 T"
1*
#3700
0*
#3725
b11 B"
b10000000000111100 D"
1@"
b1001000 T"
b10010000001001000 V
b10000000001001000 U
b10010 )
b10010 J
b10010 g
b0 h
0>
0(
1*
#3750
0*
b110010000000 \"
#3775
b100 B"
1>
b1 h
b1001001 T"
1*
#3800
0*
#3825
b101 B"
b1001010 T"
0>
b10 h
1*
#3850
0*
b110011100100 \"
#3875
0@"
b10000000000111100 r
b1000000 8
b1000000 ;"
b11 h
1>
1(
b1001011 T"
b10000000000000000 H"
b0 M"
b10 L"
b1011 K"
b10111 J"
b10000010110010111 I"
1*
#3900
0*
#3925
b0 B"
b1001100 T"
b10010000001001100 V
b10000000001001100 U
b10011 )
b10011 J
b10011 g
b0 h
0>
0(
1*
#3950
0*
b110101001000 \"
#3975
b11111100010001011000010110010011 ;
b11111100010001011000010110010011 ^
b11111100010001011000010110010011 n
b1 B"
b1000100 <"
b1000000 :
b1000000 _
b1000000 9"
1>
b1 h
b1001101 T"
1*
#4000
0*
#4025
b10 B"
b11111111111111111111111111000100 8"
b1111110 7"
b100 ?"
b1011 >"
b10011 :"
b1001110 T"
0>
b10 h
1*
#4050
0*
b110110101100 \"
#4075
b11 B"
b10000000000000000 D"
1@"
b11 h
1>
1(
b1001111 T"
1*
#4100
0*
#4125
b100 B"
b1010000 T"
b10010000001010000 V
b10000000001010000 U
b10100 )
b10100 J
b10100 g
b0 h
0>
0(
1*
#4150
0*
b111000010000 \"
#4175
b101 B"
1>
b1 h
b1010001 T"
1*
#4200
0*
#4225
0@"
b10000000000000000 r
b1000100 8
b1000100 ;"
b1010010 T"
0>
b10 h
b11111111111111111111111111000100 H"
b1111110 G"
b100 M"
b1011 L"
b10011 J"
b11111100010001011000010110010011 I"
1*
#4250
0*
b111001110100 \"
#4275
b0 B"
b11 h
1>
1(
b1010011 T"
1*
#4300
0*
#4325
b10000011000010111 ;
b10000011000010111 ^
b10000011000010111 n
b1 B"
b1001000 <"
b1000100 :
b1000100 _
b1000100 9"
b1010100 T"
b10010000001010100 V
b10000000001010100 U
b10101 )
b10101 J
b10101 g
b0 h
0>
0(
1*
#4350
0*
b111011011000 \"
#4375
b10 B"
b10000000000000000 8"
b0 7"
b0 ?"
b10 >"
b1100 ="
b10111 :"
1>
b1 h
b1010101 T"
1*
#4400
0*
#4425
b11 B"
b10000000001000100 D"
1@"
b1010110 T"
0>
b10 h
1*
#4450
0*
b111100111100 \"
#4475
b100 B"
b11 h
1>
1(
b1010111 T"
1*
#4500
0*
#4525
b101 B"
b1011000 T"
b10010000001011000 V
b10000000001011000 U
b10110 )
b10110 J
b10110 g
b0 h
0>
0(
1*
#4550
0*
b111110100000 \"
#4575
0@"
b10000000001000100 s
b1001000 8
b1001000 ;"
1>
b1 h
b1011001 T"
b10000000000000000 H"
b0 G"
b0 M"
b10 L"
b1100 K"
b10111 J"
b10000011000010111 I"
1*
#4600
0*
#4625
b0 B"
b1011010 T"
0>
b10 h
1*
#4650
0*
b1000000000100 \"
#4675
b11111011110001100000011000010011 ;
b11111011110001100000011000010011 ^
b11111011110001100000011000010011 n
b1 B"
b1001100 <"
b1001000 :
b1001000 _
b1001000 9"
b11 h
1>
1(
b1011011 T"
1*
#4700
0*
#4725
b10 B"
b11111111111111111111111110111100 8"
b1111101 7"
b11100 ?"
b1100 >"
b10011 :"
b1011100 T"
b10010000001011100 V
b10000000001011100 U
b10111 )
b10111 J
b10111 g
b0 h
0>
0(
1*
#4750
0*
b1000001101000 \"
#4775
b11 B"
b10000000000000000 D"
1@"
1>
b1 h
b1011101 T"
1*
#4800
0*
#4825
b100 B"
b1011110 T"
0>
b10 h
1*
#4850
0*
b1000011001100 \"
#4875
b101 B"
b11 h
1>
1(
b1011111 T"
1*
#4900
0*
#4925
0@"
b10000000000000000 s
b1001100 8
b1001100 ;"
b1100000 T"
b10010000001100000 V
b10000000001100000 U
b11000 )
b11000 J
b11000 g
b0 h
0>
0(
b11111111111111111111111110111100 H"
b1111101 G"
b11100 M"
b1100 L"
b10011 J"
b11111011110001100000011000010011 I"
1*
#4950
0*
b1000100110000 \"
#4975
b0 B"
1>
b1 h
b1100001 T"
1*
#5000
0*
#5025
b110001011000100001100011 ;
b110001011000100001100011 ^
b110001011000100001100011 n
b1 B"
b1010000 <"
b1001100 :
b1001100 _
b1001100 9"
b1100010 T"
0>
b10 h
b10 \
b10 Z
1*
#5050
0*
b1000110010100 \"
#5075
b10 B"
b10000 8"
b0 7"
b1100 ?"
b1011 >"
b10000 ="
b1100011 :"
b10 %
b10 ?
b10 [
b10 &
b10 @
b10 Y
b11 h
1>
1(
b1100011 T"
1*
#5100
0*
#5125
b11 B"
b1011100 <"
b1100100 T"
b10010000001100100 V
b10000000001100100 U
b11001 )
b11001 J
b11001 g
b0 h
0>
0(
1*
#5150
0*
b1000111111000 \"
#5175
0+
1,
b100 B"
1>
b1 h
16
b10 W"
0I
b0 T"
1*
#5200
0*
#5225
b101 B"
b1 X"
19
04
0H
0G
0U"
0>
b10 h
1*
#5250
0*
b1001001011100 \"
#5275
b0 B"
b1011100 8
b1011100 ;"
b11 h
1>
1(
b10 X"
1F
0E
b10000 H"
b0 G"
b1100 M"
b1011 L"
b10000 K"
b1100011 J"
b110001011000100001100011 I"
1*
#5300
0*
#5325
b100000000000000011101111 ;
b100000000000000011101111 ^
b100000000000000011101111 n
b1 B"
b1100000 <"
b1011100 :
b1011100 _
b1011100 9"
b11 X"
b10010000001101000 V
b10000000001101000 U
b11010 )
b11010 J
b11010 g
b0 h
0>
0(
1*
#5350
0*
b1001011000000 \"
#5375
b10 B"
b1000 8"
b1000 ?"
b0 >"
b1 ="
b1101111 :"
1>
b1 h
b100 X"
1*
#5400
0*
#5425
b11 B"
b1100100 <"
b1100000 D"
1@"
b101 X"
0>
b10 h
1*
#5450
0*
b1001100100100 \"
#5475
b100 B"
b11 h
1>
1(
b110 X"
1*
#5500
0*
#5525
b101 B"
b111 X"
b10010000001101100 V
b10000000001101100 U
b11011 )
b11011 J
b11011 g
b0 h
0>
0(
1*
#5550
0*
b1001110001000 \"
#5575
0@"
b1100000 p
b1100100 8
b1100100 ;"
1>
b1 h
b1000 X"
b1000 H"
b1000 M"
b0 L"
b1 K"
b1101111 J"
b100000000000000011101111 I"
1*
#5600
0*
#5625
b0 B"
b1001 X"
0>
b10 h
1*
#5650
0*
b1001111101100 \"
#5675
b11111111000000010000000100010011 ;
b11111111000000010000000100010011 ^
b11111111000000010000000100010011 n
b1 B"
b1101000 <"
b1100100 :
b1100100 _
b1100100 9"
b11 h
1>
1(
b1010 X"
1*
#5700
0*
#5725
b10 B"
b11111111111111111111111111110000 8"
b1111111 7"
b10000 ?"
b10 >"
b10 ="
b10011 :"
b1011 X"
b10010000001110000 V
b10000000001110000 U
b11100 )
b11100 J
b11100 g
b0 h
0>
0(
1*
#5750
0*
b1010001010000 \"
#5775
b11 B"
b10011111111110000 D"
1@"
1>
b1 h
b1100 X"
1*
#5800
0*
#5825
b100 B"
b1101 X"
0>
b10 h
1*
#5850
0*
b1010010110100 \"
#5875
b101 B"
b11 h
1>
1(
b1110 X"
1*
#5900
0*
#5925
0@"
b10011111111110000 {
b1101000 8
b1101000 ;"
b1111 X"
b10010000001110100 V
b10000000001110100 U
b11101 )
b11101 J
b11101 g
b0 h
0>
0(
b11111111111111111111111111110000 H"
b1111111 G"
b10000 M"
b10 L"
b10 K"
b10011 J"
b11111111000000010000000100010011 I"
1*
#5950
0*
b1010100011000 \"
#5975
b0 B"
1>
b1 h
b10000 X"
1*
#6000
0*
#6025
b10010011000100011 ;
b10010011000100011 ^
b10010011000100011 n
b1 B"
b1101100 <"
b1101000 :
b1101000 _
b1101000 9"
b11 W"
b0 X"
0>
b10 h
1*
#6050
0*
b1010101111100 \"
#6075
b10 B"
b1100 8"
b0 7"
b0 ?"
b10 6"
b1100 ="
b100011 :"
b11 h
1>
1(
b1 X"
14
1*
#6100
0*
